<svg width="65" height="65" viewBox="0 0 65 65" fill="none" xmlns="http://www.w3.org/2000/svg">
<path d="M58.0176 3.91931H6.98242C3.13231 3.91931 0 7.05163 0 10.9017V44.4174C0 48.2675 3.13231 51.3998 6.98242 51.3998H23.4246C23.6253 51.3998 23.8162 51.4961 23.9354 51.6577L29.9343 59.7907C30.5354 60.6059 31.461 61.076 32.4739 61.0807H32.4891C33.4961 61.0807 34.4199 60.6196 35.0255 59.8141L41.1605 51.653C41.2797 51.4944 41.4695 51.3996 41.6679 51.3996H58.0176C61.8677 51.3996 65 48.2673 65 44.4172V10.9016C65 7.0515 61.8677 3.91931 58.0176 3.91931ZM61.1914 44.4174C61.1914 44.7172 61.1488 45.007 61.0707 45.2822L41.5066 28.1323L61.1914 11.7962V44.4174ZM58.0176 7.72791C58.5981 7.72791 59.1424 7.88533 59.611 8.15866L34.5323 28.9708C33.3577 29.9456 31.6531 29.9456 30.4785 28.9708L5.39538 8.15497C5.86257 7.88393 6.40453 7.72791 6.98242 7.72791H58.0176ZM3.92933 45.2822C3.85125 45.007 3.80859 44.7171 3.80859 44.4174V11.7874L23.4988 28.1276L3.92933 45.2822ZM38.1163 49.3645L32.4934 56.8442L27.0004 49.3971C26.1666 48.2662 24.8296 47.5911 23.4245 47.5911H7.07294L26.4666 30.5906L28.0462 31.9016C29.3382 32.9738 30.9215 33.5097 32.5053 33.5097C34.0887 33.5097 35.6726 32.9734 36.9643 31.9016L38.5384 30.5952L57.9268 47.5911H41.6679C40.2789 47.5912 38.9511 48.254 38.1163 49.3645Z" fill="#3683BC"/>
</svg>
