<svg width="59" height="60" viewBox="0 0 59 60" fill="none" xmlns="http://www.w3.org/2000/svg">
<g clip-path="url(#clip0)">
<path d="M36.2258 30.7014C35.5951 30.7014 35.083 31.2134 35.083 31.8442C35.083 32.475 35.5951 32.987 36.2258 32.987C36.8566 32.987 37.3687 32.475 37.3687 31.8442C37.3687 31.2134 36.8566 30.7014 36.2258 30.7014Z" fill="#3683BC"/>
<path d="M11.7903 43.248L0.361947 57.6478C0.0891833 57.9911 0.0373984 58.4603 0.22802 58.8549C0.418642 59.25 0.818635 59.5009 1.25702 59.5009H57.4847C57.923 59.5009 58.323 59.25 58.5137 58.8549C58.7047 58.4603 58.6525 57.9911 58.3797 57.6478L46.9513 43.248C46.7348 42.9748 46.4049 42.8154 46.0563 42.8154H36.0453L44.592 29.4103C46.5969 26.4046 47.6562 22.8993 47.6562 19.273C47.6562 9.19057 39.4537 0.987579 29.3708 0.987579C19.288 0.987579 11.0854 9.19057 11.0854 19.273C11.0854 22.8993 12.1448 26.4041 14.1497 29.4103L22.6964 42.8154H12.6854C12.3367 42.8154 12.0073 42.9748 11.7903 43.248ZM7.52343 52.301H14.4336L10.5337 57.2152H3.62305L7.52343 52.301ZM24.154 45.1011L27.2869 50.0153H19.1656L23.066 45.1011H24.154ZM34.5882 45.1011H35.6761L39.576 50.0153H31.4552L34.5882 45.1011ZM41.3903 52.301L45.2902 57.2152H13.4515L17.3518 52.301H41.3903ZM48.2085 57.2152L44.3081 52.301H51.2187L55.1186 57.2152H48.2085ZM49.4044 50.0153H42.4943L38.5939 45.1011H45.5045L49.4044 50.0153ZM16.0577 28.1514C14.3001 25.5202 13.3711 22.4502 13.3711 19.273C13.3711 10.4508 20.5487 3.27326 29.3708 3.27326C38.193 3.27326 45.3706 10.4508 45.3706 19.273C45.3706 22.4502 44.4416 25.5202 42.6845 28.1514C42.6795 28.1581 42.6755 28.1648 42.6711 28.1715C41.9206 29.3487 29.949 48.1261 29.3708 49.0323C27.9168 46.7515 17.5514 30.4938 16.0706 28.1715C16.0666 28.1648 16.0621 28.1581 16.0577 28.1514ZM20.1478 45.1011L16.2478 50.0153H9.33724L13.2376 45.1011H20.1478Z" fill="#3683BC"/>
<path d="M29.3678 30.7014C35.6418 30.7014 40.7962 25.6206 40.7962 19.273C40.7962 12.9713 35.6695 7.8446 29.3678 7.8446C23.0662 7.8446 17.9395 12.9713 17.9395 19.273C17.9395 25.6224 23.0956 30.7014 29.3678 30.7014ZM29.3678 10.1303C34.4093 10.1303 38.5105 14.2316 38.5105 19.273C38.5105 24.3613 34.3762 28.4157 29.3678 28.4157C24.3581 28.4157 20.2251 24.3613 20.2251 19.273C20.2251 14.2316 24.3264 10.1303 29.3678 10.1303Z" fill="#3683BC"/>
<path d="M34.1836 34.6013C33.6434 34.2754 32.9408 34.4495 32.6149 34.9901L28.3908 41.998C28.0649 42.5386 28.239 43.2408 28.7797 43.5667C29.3225 43.894 30.0238 43.7163 30.3484 43.1779L34.5724 36.17C34.8983 35.6294 34.7242 34.9272 34.1836 34.6013Z" fill="#3683BC"/>
</g>
<defs>
<clipPath id="clip0">
<rect width="58.5133" height="58.5133" fill="white" transform="translate(0.112305 0.987579)"/>
</clipPath>
</defs>
</svg>
