<svg width="65" height="65" viewBox="0 0 65 65" fill="none" xmlns="http://www.w3.org/2000/svg">
<path d="M61.3184 14.2822V6.66504H23.0316L21.3017 2.72949H0V62.2705H65V14.2822H61.3184ZM57.5098 10.4736V14.2822H26.3798L24.7057 10.4736H57.5098ZM61.1914 58.4619H3.80859V6.53809H18.8155L23.8936 18.0908H61.1914V58.4619Z" fill="#3683BC"/>
<path d="M32.5006 34.1486C35.8778 34.1486 38.6252 31.4011 38.6252 28.024C38.6252 24.6469 35.8778 21.8994 32.5006 21.8994C29.1234 21.8994 26.376 24.6469 26.376 28.024C26.376 31.4011 29.1234 34.1486 32.5006 34.1486ZM32.5006 25.708C33.7777 25.708 34.8166 26.747 34.8166 28.024C34.8166 29.301 33.7777 30.34 32.5006 30.34C31.2234 30.34 30.1846 29.301 30.1846 28.024C30.1846 26.747 31.2234 25.708 32.5006 25.708Z" fill="#3683BC"/>
<path d="M19.9521 43.6215V54.6533H45.0477V43.6215C45.0477 40.0917 42.176 37.22 38.6461 37.22H34.5087L32.4999 39.4183L30.4912 37.22H26.3538C22.8238 37.22 19.9521 40.0917 19.9521 43.6215ZM23.7607 43.6215C23.7607 42.1917 24.9239 41.0286 26.3538 41.0286H28.8122L32.4999 45.0643L36.1877 41.0284H38.6461C40.076 41.0284 41.2391 42.1916 41.2391 43.6213V50.8447H23.7607V43.6215Z" fill="#3683BC"/>
</svg>
