<svg width="59" height="59" viewBox="0 0 59 59" fill="none" xmlns="http://www.w3.org/2000/svg">
<g clip-path="url(#clip0)">
<path d="M54.0239 0.0816727H13.0646C10.373 0.0848421 8.19166 2.26617 8.18849 4.95778V50.7932H1.36194C0.823374 50.7932 0.386719 51.2299 0.386719 51.7684V53.7189C0.389888 56.4105 2.57122 58.5918 5.26283 58.595H46.2221C48.9137 58.5918 51.0951 56.4105 51.0982 53.7189V30.7173L57.1514 24.6641C58.3401 23.4754 58.3401 21.5481 57.1514 20.3595C55.9628 19.1708 54.0355 19.1708 52.8468 20.3595L51.0982 22.108V7.88345H57.9248C58.4634 7.88345 58.9 7.44679 58.9 6.90822V4.95778C58.8968 2.26617 56.7155 0.0848421 54.0239 0.0816727ZM5.26283 56.6445C3.64701 56.6445 2.33716 55.3347 2.33716 53.7189V52.7436H41.346V53.7189C41.3482 54.0228 41.3789 54.3257 41.4377 54.6239C41.4553 54.7214 41.4835 54.8043 41.506 54.895C41.5544 55.0936 41.6149 55.289 41.6874 55.4801C41.7254 55.5776 41.7663 55.6693 41.8102 55.7629C41.8934 55.9407 41.9872 56.1133 42.0911 56.2798C42.1418 56.3617 42.1886 56.4446 42.2462 56.5226C42.2735 56.5626 42.2939 56.6065 42.3232 56.6445H5.26283ZM49.1478 53.7189C49.1478 55.3347 47.838 56.6445 46.2221 56.6445C44.6063 56.6445 43.2965 55.3347 43.2965 53.7189V51.7684C43.2965 51.2299 42.8598 50.7932 42.3213 50.7932H10.1389V4.95778C10.1389 3.34196 11.4488 2.03212 13.0646 2.03212H50.123C50.0938 2.07015 50.0733 2.11403 50.046 2.15402C49.9904 2.23204 49.9416 2.31493 49.8909 2.39685C49.7871 2.56337 49.6932 2.73598 49.6101 2.91372C49.5662 3.01124 49.5252 3.10096 49.4872 3.19653C49.4148 3.38767 49.3542 3.58308 49.3058 3.78166C49.2834 3.87236 49.2551 3.96013 49.2375 4.05278C49.1794 4.35095 49.1494 4.654 49.1478 4.95778V24.0585L36.7557 36.4506C36.6306 36.5757 36.542 36.7325 36.4992 36.9041L35.524 40.805C35.4411 41.1372 35.5385 41.4884 35.7804 41.7305C35.8627 41.8096 35.9585 41.8733 36.0633 41.9187C36.0886 41.9304 36.112 41.9411 36.1383 41.9509C36.2424 41.9906 36.3526 42.0124 36.4641 42.0152H36.4699C36.5495 42.0151 36.6288 42.0054 36.7059 41.986L40.6068 41.0107C40.7785 40.968 40.9352 40.8793 41.0603 40.7543L49.1478 32.6677V53.7189ZM54.2258 21.7384C54.6585 21.325 55.3397 21.325 55.7725 21.7384C56.1988 22.1658 56.1988 22.8577 55.7725 23.2851L54.9991 24.0585L53.4524 22.5118L54.2258 21.7384ZM52.0735 23.8907L53.6202 25.4374L39.8695 39.1881L37.8079 39.704L38.3238 37.6423L52.0735 23.8907ZM56.9496 5.933H51.0982V4.95778C51.0982 3.34196 52.4081 2.03212 54.0239 2.03212C55.6397 2.03212 56.9496 3.34196 56.9496 4.95778V5.933Z" fill="#3683BC"/>
<path d="M40.3719 5.93301H18.917V7.88345H40.3719V5.93301Z" fill="#3683BC"/>
<path d="M22.1285 10.1196L20.3409 11.9072C20.2039 11.8295 20.0497 11.7873 19.8923 11.7843H15.0162C14.4777 11.7843 14.041 12.2209 14.041 12.7595V17.6356C14.041 18.1742 14.4777 18.6108 15.0162 18.6108H19.8923C20.4309 18.6108 20.8676 18.1742 20.8676 17.6356V14.1385L23.5075 11.4986L22.1285 10.1196ZM18.9171 16.6604H15.9915V13.7347H18.5134L17.2524 14.9957L18.6314 16.3747L18.9171 16.0889V16.6604Z" fill="#3683BC"/>
<path d="M45.2502 11.7843H24.7705V13.7348H45.2502V11.7843Z" fill="#3683BC"/>
<path d="M41.3493 15.6852H24.7705V17.6357H41.3493V15.6852Z" fill="#3683BC"/>
<path d="M22.1285 19.8718L20.3409 21.6594C20.2039 21.5818 20.0497 21.5396 19.8923 21.5365H15.0162C14.4777 21.5365 14.041 21.9732 14.041 22.5118V27.3879C14.041 27.9264 14.4777 28.3631 15.0162 28.3631H19.8923C20.4309 28.3631 20.8676 27.9264 20.8676 27.3879V23.8907L23.5075 21.2508L22.1285 19.8718ZM18.9171 26.4126H15.9915V23.487H18.5134L17.2524 24.7479L18.6314 26.1269L18.9171 25.8412V26.4126Z" fill="#3683BC"/>
<path d="M45.2502 21.5366H24.7705V23.487H45.2502V21.5366Z" fill="#3683BC"/>
<path d="M41.3493 25.4374H24.7705V27.3879H41.3493V25.4374Z" fill="#3683BC"/>
<path d="M22.1285 29.6241L20.3409 31.4116C20.2039 31.334 20.0497 31.2918 19.8923 31.2888H15.0162C14.4777 31.2888 14.041 31.7254 14.041 32.264V37.1401C14.041 37.6787 14.4777 38.1153 15.0162 38.1153H19.8923C20.4309 38.1153 20.8676 37.6787 20.8676 37.1401V33.643L23.5075 31.003L22.1285 29.6241ZM18.9171 36.1649H15.9915V33.2392H18.5134L17.2524 34.5002L18.6314 35.8791L18.9171 35.5934V36.1649Z" fill="#3683BC"/>
<path d="M37.4484 31.2888H24.7705V33.2392H37.4484V31.2888Z" fill="#3683BC"/>
<path d="M33.5475 35.1897H24.7705V37.1401H33.5475V35.1897Z" fill="#3683BC"/>
<path d="M22.1285 39.3763L20.3409 41.1639C20.2039 41.0862 20.0497 41.044 19.8923 41.041H15.0162C14.4777 41.041 14.041 41.4776 14.041 42.0162V46.8923C14.041 47.4309 14.4777 47.8675 15.0162 47.8675H19.8923C20.4309 47.8675 20.8676 47.4309 20.8676 46.8923V43.3952L23.5075 40.7552L22.1285 39.3763ZM18.9171 45.9171H15.9915V42.9914H18.5134L17.2524 44.2524L18.6314 45.6314L18.9171 45.3456V45.9171Z" fill="#3683BC"/>
<path d="M33.5475 41.041H24.7705V42.9915H33.5475V41.041Z" fill="#3683BC"/>
<path d="M41.3493 44.9419H24.7705V46.8923H41.3493V44.9419Z" fill="#3683BC"/>
</g>
<defs>
<clipPath id="clip0">
<rect width="58.5133" height="58.5133" fill="white" transform="translate(0.388672 0.0816879)"/>
</clipPath>
</defs>
</svg>
