<svg width="81" height="80" viewBox="0 0 81 80" fill="none" xmlns="http://www.w3.org/2000/svg">
<g clip-path="url(#clip0)">
<path d="M58.9199 42.3438C60.2143 42.3438 61.2637 41.2944 61.2637 40C61.2637 38.7056 60.2143 37.6562 58.9199 37.6562C57.6255 37.6562 56.5762 38.7056 56.5762 40C56.5762 41.2944 57.6255 42.3438 58.9199 42.3438Z" fill="white"/>
<path d="M67.2061 31.7136C66.2909 30.7985 64.8069 30.7983 63.8916 31.7136C62.9764 32.629 62.9764 34.1129 63.8916 35.0282C65.2197 36.3561 65.9509 38.1218 65.9509 39.9999C65.9509 41.878 65.2195 43.6436 63.8916 44.9716C62.9762 45.8869 62.9762 47.3708 63.8916 48.2861C64.3494 48.7438 64.9491 48.9727 65.5489 48.9727C66.1486 48.9727 66.7486 48.7438 67.2061 48.2863C69.4195 46.0729 70.6384 43.13 70.6384 39.9999C70.6384 36.8697 69.4195 33.9269 67.2061 31.7136Z" fill="white"/>
<path d="M73.836 25.0845C72.9208 24.1693 71.4369 24.1692 70.5214 25.0845C69.6061 25.9997 69.6061 27.4837 70.5214 28.399C76.9182 34.7959 76.9182 45.2042 70.5214 51.6011C69.6061 52.5164 69.6061 54.0003 70.5214 54.9156C70.9791 55.3733 71.5789 55.6022 72.1786 55.6022C72.7783 55.6022 73.3783 55.3734 73.8358 54.9156C82.0604 46.6911 82.0604 33.3089 73.836 25.0845Z" fill="white"/>
<path d="M43.5875 7.13328C38.4448 2.22281 31.6908 -0.299841 24.5658 0.0284398C18.0173 0.33094 11.8628 3.15485 7.2356 7.98C2.61123 12.8025 0.0429472 19.0695 0.00435348 25.6267C-0.0325215 31.8897 2.21201 37.9408 6.32467 42.665C9.3017 46.085 10.9414 50.2559 10.9414 54.4095V63.2816C10.9414 66.337 12.9009 68.9422 15.6289 69.9097V72.9688C15.6289 76.8458 18.7831 80 22.6601 80H28.9101C32.7872 80 35.9414 76.8458 35.9414 72.9688V69.9095C38.6694 68.942 40.6289 66.3369 40.6289 63.2814V54.3995C40.6289 50.1727 42.1954 46.0881 45.0401 42.8984C49.2487 38.1794 51.5664 32.1003 51.5664 25.7814C51.5664 18.6692 48.7328 12.0466 43.5875 7.13328ZM31.2539 72.9688C31.2539 74.2611 30.2025 75.3125 28.9101 75.3125H22.6601C21.3678 75.3125 20.3164 74.2611 20.3164 72.9688V70.3127H31.2539V72.9688ZM35.9414 63.2814C35.9414 64.573 34.8911 65.6239 33.5998 65.625C33.599 65.625 33.5984 65.6248 33.5976 65.6248H17.9726C17.9719 65.6248 17.9712 65.625 17.9704 65.625C16.6792 65.6237 15.6289 64.573 15.6289 63.2814V57.8127H35.9414V63.2814ZM19.4347 25.9272L24.4851 29.2942C25.2723 29.8189 26.2981 29.8189 27.0853 29.2942L32.1358 25.9272L28.427 53.1253H23.1437L19.4347 25.9272ZM41.5417 39.7784C38.2164 43.5072 36.2667 48.2052 35.9786 53.1252H33.1576L37.4823 21.4106C37.6069 20.4973 37.1847 19.5961 36.4034 19.1072C35.6222 18.6181 34.6267 18.6327 33.8601 19.1438L25.7851 24.5272L17.7101 19.1439C16.9434 18.6328 15.9481 18.6184 15.1669 19.1073C14.3856 19.5963 13.9634 20.4975 14.0879 21.4108L18.4126 53.1253H15.5887C15.2859 48.2778 13.2787 43.5144 9.86014 39.5873C6.49717 35.7241 4.66154 30.7759 4.6917 25.6544C4.75685 14.6147 13.7694 5.21953 24.782 4.71094C30.6147 4.4425 36.1428 6.50594 40.3501 10.5234C44.5603 14.5436 46.8789 19.9623 46.8789 25.7814C46.8789 30.9483 44.9834 35.9192 41.5417 39.7784Z" fill="white"/>
</g>
<defs>
<clipPath id="clip0">
<rect width="80" height="80" fill="white" transform="translate(0.00390625)"/>
</clipPath>
</defs>
</svg>
