<svg width="56" height="51" viewBox="0 0 56 51" fill="none" xmlns="http://www.w3.org/2000/svg">
<path d="M27.4538 13.2659L27.3454 13.4571L27.5212 13.5891C29.1462 14.8092 30.1648 16.7481 30.1647 18.8685V22.0831C30.1647 22.8891 29.5113 23.5425 28.7053 23.5425H16.8735C16.0675 23.5425 15.4141 22.8891 15.4141 22.0831V18.8685C15.4141 16.7481 16.4326 14.8092 18.0575 13.5891L18.2333 13.4571L18.1249 13.2659C17.6836 12.4874 17.4304 11.5894 17.4304 10.6325C17.4304 7.67787 19.8346 5.27356 22.7894 5.27356C25.7442 5.27356 28.1484 7.67787 28.1484 10.6325C28.1484 11.5894 27.8951 12.4874 27.4538 13.2659ZM18.3329 20.3737V20.6237H18.5829H26.7458H26.9958H26.9959V20.3737H27.2458V18.8685C27.2458 17.4305 26.4072 16.1438 25.1428 15.5446L25.0397 15.4957L24.9353 15.5415C23.5857 16.1338 21.9928 16.1338 20.6434 15.5415L20.5389 15.4957L20.4358 15.5446C19.1716 16.1438 18.3329 17.4306 18.3329 18.8685V20.3737ZM25.2296 10.6325C25.2296 9.28677 24.1352 8.19236 22.7894 8.19236C21.4436 8.19236 20.3492 9.28677 20.3492 10.6325C20.3492 11.9783 21.4436 13.0727 22.7894 13.0727C24.1352 13.0727 25.2296 11.9783 25.2296 10.6325Z" fill="#3683BC" stroke="white" stroke-width="0.5"/>
<path d="M33.5117 16.8502H45.2517V19.769H33.5117V16.8502Z" fill="#3683BC" stroke="white" stroke-width="0.5"/>
<path d="M33.5117 9.04309H45.2517V11.9619H33.5117V9.04309Z" fill="#3683BC" stroke="white" stroke-width="0.5"/>
<path d="M51.0533 39.0913V39.3413H51.3033H53.5933C54.3994 39.3413 55.0527 39.9946 55.0527 40.8007V48.4671C55.0527 49.2732 54.3994 49.9265 53.5933 49.9265H45.9486C45.1425 49.9265 44.4892 49.2732 44.4892 48.4671V40.8007C44.4892 39.9946 45.1425 39.3413 45.9486 39.3413H47.8845H48.1345V39.0913V35.8881V35.6381H47.8845H32.0121H31.7621V35.8881V39.0913V39.3413H32.0121H34.1252C34.9312 39.3413 35.5846 39.9946 35.5846 40.8007V48.4671C35.5846 49.2732 34.9312 49.9265 34.1252 49.9265H26.4804C25.6744 49.9265 25.021 49.2732 25.021 48.4671V40.8007C25.021 39.9946 25.6744 39.3413 26.4804 39.3413H28.5933H28.8433V39.0913V35.8881V35.6381H28.5933H12.5439H12.2939V35.8881V39.0913V39.3413H12.5439H14.6569C15.4629 39.3413 16.1163 39.9946 16.1163 40.8007V48.4671C16.1163 49.2732 15.4629 49.9265 14.6569 49.9265H7.01214C6.20618 49.9265 5.55273 49.2732 5.55273 48.4671V40.8007C5.55273 39.9946 6.20618 39.3413 7.01214 39.3413H9.12506H9.37506V39.0913V34.1787C9.37506 33.3726 10.0285 32.7192 10.8345 32.7192H28.5933H28.8433V32.4692V28.6356V28.3856H28.5933H13.4675C11.4847 28.3856 9.87132 26.7722 9.87132 24.7894V4.02267C9.87132 2.03991 11.4847 0.426514 13.4675 0.426514H47.138C49.1208 0.426514 50.7341 2.03991 50.7341 4.02267V24.7894C50.7341 26.7722 49.1208 28.3856 47.138 28.3856H32.0121H31.7621V28.6356V32.4692V32.7192H32.0121H49.5939C50.3999 32.7192 51.0533 33.3726 51.0533 34.1787V39.0913ZM12.9475 47.0077H13.1975V46.7577V42.5101V42.2601H12.9475H8.72154H8.47154V42.5101V46.7577V47.0077H8.72154H12.9475ZM32.4157 47.0077H32.6657V46.7577V42.5101V42.2601H32.4157H28.1897H27.9397V42.5101V46.7577V47.0077H28.1897H32.4157ZM51.8839 47.0077H52.1339V46.7577V42.5101V42.2601H51.8839H47.658H47.408V42.5101V46.7577V47.0077H47.658H51.8839ZM12.7901 4.02267V24.7894C12.7901 25.1632 13.0937 25.4668 13.4675 25.4668H47.138C47.5117 25.4668 47.8153 25.1632 47.8153 24.7894V4.02267C47.8153 3.64891 47.5117 3.34532 47.138 3.34532H13.4675C13.0937 3.34532 12.7901 3.64891 12.7901 4.02267Z" fill="#3683BC" stroke="white" stroke-width="0.5"/>
</svg>
