<svg width="52" height="52" viewBox="0 0 52 52" fill="none" xmlns="http://www.w3.org/2000/svg">
<path d="M49.5773 18.497H38.9074V13.0545H45.0816L44.5469 13.5894C43.9676 14.1688 43.9677 15.1082 44.5471 15.6875C44.8368 15.9771 45.2164 16.1219 45.596 16.1219C45.9756 16.1219 46.3555 15.977 46.6451 15.6872L49.6861 12.6455C50.2652 12.0662 50.2652 11.1269 49.6861 10.5476L46.6451 7.50608C46.0659 6.92659 45.1265 6.92659 44.547 7.50588C43.9676 8.08517 43.9675 9.02458 44.5468 9.60397L45.0301 10.0873H37.4238C36.6045 10.0873 35.9402 10.7516 35.9402 11.5709V18.497H27.5443V5.53647L28.0526 6.04484C28.6317 6.62433 29.5712 6.62433 30.1507 6.04504C30.73 5.46575 30.7301 4.52634 30.1508 3.94695L27.1098 0.905395C26.8317 0.627073 26.4542 0.470703 26.0607 0.470703C25.6671 0.470703 25.2897 0.627073 25.0116 0.905395L21.9706 3.94705C21.3913 4.52644 21.3914 5.46585 21.9708 6.04514C22.2605 6.33473 22.6402 6.47953 23.0197 6.47953C23.3994 6.47953 23.7792 6.33464 24.0688 6.04484L24.5771 5.53647V18.497H16.1812V11.5709C16.1812 10.7516 15.5169 10.0873 14.6976 10.0873H7.09133L7.57459 9.60397C8.15388 9.02458 8.15378 8.08517 7.57439 7.50588C6.9951 6.92669 6.05569 6.92669 5.4763 7.50608L2.43534 10.5476C1.85615 11.1269 1.85615 12.0662 2.43534 12.6455L5.4763 15.6872C5.766 15.977 6.14569 16.1219 6.52539 16.1219C6.90499 16.1219 7.2847 15.9771 7.57429 15.6875C8.15368 15.1082 8.15378 14.1688 7.57449 13.5894L7.0398 13.0545H13.214V18.497H2.54414C1.7248 18.497 1.06055 19.1612 1.06055 19.9806V31.6037C1.06055 32.423 1.7248 33.0873 2.54414 33.0873H13.214V38.5459H7.0399L7.57459 38.0111C8.15388 37.4317 8.15378 36.4923 7.57439 35.913C6.9951 35.3338 6.05569 35.3338 5.4763 35.9132L2.43534 38.9548C1.85615 39.5341 1.85615 40.4734 2.43534 41.0527L5.4763 44.0942C5.766 44.384 6.14569 44.5289 6.52539 44.5289C6.90499 44.5289 7.2847 44.3841 7.57429 44.0945C8.15368 43.5152 8.15378 42.5758 7.57449 41.9964L7.09124 41.5131H14.6975C15.5168 41.5131 16.1811 40.8488 16.1811 40.0295V33.0873H24.5771V46.0447L24.0688 45.5363C23.4897 44.9568 22.5502 44.9568 21.9707 45.5361C21.3913 46.1154 21.3912 47.0548 21.9705 47.6342L25.0115 50.6758C25.2897 50.9542 25.6671 51.1105 26.0607 51.1105C26.4542 51.1105 26.8317 50.9542 27.1098 50.6758L30.1507 47.6343C30.73 47.0549 30.7299 46.1155 30.1506 45.5362C29.5713 44.957 28.6319 44.957 28.0525 45.5364L27.5442 46.0448V33.0873H35.9401V40.0295C35.9401 40.8488 36.6044 41.5131 37.4237 41.5131H45.03L44.5467 41.9964C43.9674 42.5758 43.9675 43.5152 44.5469 44.0945C44.8366 44.3841 45.2163 44.5289 45.5958 44.5289C45.9755 44.5289 46.3553 44.384 46.6449 44.0942L49.6859 41.0527C50.265 40.4734 50.265 39.5341 49.6859 38.9548L46.6449 35.9132C46.0657 35.3337 45.1263 35.3337 44.5468 35.913C43.9674 36.4923 43.9673 37.4317 44.5466 38.0111L45.0813 38.5459H38.9071V33.0873H49.577C50.3963 33.0873 51.0605 32.423 51.0605 31.6037V19.9806C51.0608 19.1612 50.3966 18.497 49.5773 18.497ZM48.0937 30.1201H4.02772V21.4642H48.0936V30.1201H48.0937Z" fill="#3683BC"/>
<path d="M7.50962 27.3024C8.34209 27.2991 9.01425 26.6214 9.01092 25.7888C9.00759 24.9561 8.33003 24.2839 7.49756 24.2872C6.66509 24.2905 5.99293 24.9682 5.99626 25.8008C5.9996 26.6335 6.67715 27.3058 7.50962 27.3024Z" fill="#3683BC"/>
<path d="M12.6678 27.3043C13.5003 27.3009 14.1725 26.6232 14.1691 25.7906C14.1658 24.958 13.4882 24.2857 12.6558 24.289C11.8233 24.2923 11.1511 24.97 11.1545 25.8027C11.1578 26.6353 11.8354 27.3076 12.6678 27.3043Z" fill="#3683BC"/>
<path d="M17.8221 27.3061C18.6546 27.3028 19.3267 26.6251 19.3234 25.7924C19.3201 24.9598 18.6425 24.2875 17.8101 24.2908C16.9776 24.2942 16.3054 24.9719 16.3088 25.8045C16.3121 26.6371 16.9896 27.3094 17.8221 27.3061Z" fill="#3683BC"/>
<path d="M44.6089 27.2998C45.4414 27.2998 46.1162 26.6248 46.1162 25.7922C46.1162 24.9596 45.4414 24.2845 44.6089 24.2845C43.7764 24.2845 43.1016 24.9596 43.1016 25.7922C43.1016 26.6248 43.7764 27.2998 44.6089 27.2998Z" fill="#3683BC"/>
</svg>
