<svg width="1279" height="266" viewBox="0 0 1279 266" fill="none" xmlns="http://www.w3.org/2000/svg">
<rect width="1280" height="266" fill="#F4FAFF"/>
<path opacity="0.2" fill-rule="evenodd" clip-rule="evenodd" d="M57.8978 229.099C59.9409 231.142 59.9409 234.455 57.8978 236.498C55.8546 238.541 52.5416 238.541 50.4985 236.498C48.4553 234.455 48.4553 231.142 50.4985 229.099C52.5416 227.056 55.8546 227.056 57.8978 229.099Z" fill="#3683BC"/>
<path opacity="0.2" fill-rule="evenodd" clip-rule="evenodd" d="M116.637 104.546C119.699 107.608 119.699 112.574 116.637 115.637C113.574 118.699 108.608 118.699 105.546 115.637C102.483 112.574 102.483 107.608 105.546 104.546C108.608 101.483 113.574 101.483 116.637 104.546Z" fill="#3683BC"/>
<path opacity="0.2" fill-rule="evenodd" clip-rule="evenodd" d="M1255.2 233.399C1257.63 235.829 1257.63 239.768 1255.2 242.198C1252.77 244.627 1248.83 244.627 1246.4 242.198C1243.97 239.768 1243.97 235.829 1246.4 233.399C1248.83 230.97 1252.77 230.97 1255.2 233.399Z" fill="#3683BC"/>
<path opacity="0.2" fill-rule="evenodd" clip-rule="evenodd" d="M144.099 42.0989C145.59 43.5898 145.59 46.0074 144.099 47.4982C142.608 48.9891 140.191 48.9891 138.7 47.4982C137.209 46.0074 137.209 43.5898 138.7 42.0989C140.191 40.6081 142.608 40.6081 144.099 42.0989Z" fill="#3683BC"/>
<path opacity="0.2" fill-rule="evenodd" clip-rule="evenodd" d="M43.0989 55.6996C44.5898 57.1905 44.5898 59.6081 43.0989 61.0989C41.6081 62.5898 39.1905 62.5898 37.6996 61.0989C36.2088 59.6081 36.2088 57.1905 37.6996 55.6996C39.1905 54.2088 41.6081 54.2088 43.0989 55.6996Z" fill="#3683BC"/>
<path opacity="0.2" fill-rule="evenodd" clip-rule="evenodd" d="M95.4505 181.249C96.638 182.437 96.638 184.362 95.4505 185.549C94.2631 186.737 92.3376 186.737 91.1502 185.549C89.9627 184.362 89.9627 182.437 91.1502 181.249C92.3376 180.062 94.2631 180.062 95.4505 181.249Z" fill="#3683BC"/>
<path opacity="0.2" fill-rule="evenodd" clip-rule="evenodd" d="M198.901 242.3C200.171 243.571 200.171 245.631 198.901 246.901C197.631 248.171 195.571 248.171 194.3 246.901C193.03 245.631 193.03 243.571 194.3 242.3C195.571 241.03 197.631 241.03 198.901 242.3Z" fill="#3683BC"/>
<path opacity="0.2" fill-rule="evenodd" clip-rule="evenodd" d="M1178.64 202.213C1179.86 203.435 1179.86 205.416 1178.64 206.638C1177.42 207.86 1175.43 207.86 1174.21 206.638C1172.99 205.416 1172.99 203.435 1174.21 202.213C1175.43 200.991 1177.42 200.991 1178.64 202.213Z" fill="#3683BC"/>
<path opacity="0.2" fill-rule="evenodd" clip-rule="evenodd" d="M1124.64 45.2127C1125.86 46.4346 1125.86 48.416 1124.64 49.6379C1123.42 50.8599 1121.43 50.8599 1120.21 49.6379C1118.99 48.416 1118.99 46.4346 1120.21 45.2127C1121.43 43.9907 1123.42 43.9907 1124.64 45.2127Z" fill="#3683BC"/>
<path opacity="0.2" fill-rule="evenodd" clip-rule="evenodd" d="M1162.2 96.3993C1164.63 98.8288 1164.63 102.768 1162.2 105.198C1159.77 107.627 1155.83 107.627 1153.4 105.198C1150.97 102.768 1150.97 98.8288 1153.4 96.3993C1155.83 93.9698 1159.77 93.9698 1162.2 96.3993Z" fill="#3683BC"/>
<path opacity="0.2" fill-rule="evenodd" clip-rule="evenodd" d="M1223.4 106.799C1224.94 108.344 1224.94 110.85 1223.4 112.396C1221.85 113.941 1219.34 113.941 1217.8 112.396C1216.25 110.85 1216.25 108.344 1217.8 106.799C1219.34 105.253 1221.85 105.253 1223.4 106.799Z" fill="#3683BC"/>
<path d="M66.2 110.7H46.7C44.555 110.7 42.8 112.455 42.8 114.6V126.3C42.8 127.334 43.2109 128.326 43.9423 129.058C44.6737 129.789 45.6657 130.2 46.7 130.2H66.2C68.3645 130.2 70.1 128.465 70.1 126.3V114.6C70.1 113.566 69.6891 112.574 68.9577 111.842C68.2263 111.111 67.2343 110.7 66.2 110.7ZM58.4 126.3H46.7V122.4H58.4V126.3ZM66.2 118.5H46.7V114.6H66.2V118.5ZM74 106.8H38.9V138H35V99H38.9V102.9H74V106.8Z" fill="#D8E9F5"/>
<path d="M108 223.625V212.688C108 211.527 108.457 210.414 109.269 209.594C110.082 208.773 111.184 208.312 112.333 208.312V201.75C112.333 199.429 113.246 197.204 114.872 195.563C116.497 193.922 118.701 193 121 193H134C136.299 193 138.503 193.922 140.128 195.563C141.754 197.204 142.667 199.429 142.667 201.75V208.312C143.816 208.312 144.918 208.773 145.731 209.594C146.543 210.414 147 211.527 147 212.688V223.625C147 224.785 146.543 225.898 145.731 226.719C144.918 227.539 143.816 228 142.667 228C141.517 228 140.415 227.539 139.603 226.719C138.79 225.898 138.333 224.785 138.333 223.625H116.667C116.667 224.785 116.21 225.898 115.397 226.719C114.585 227.539 113.483 228 112.333 228C111.184 228 110.082 227.539 109.269 226.719C108.457 225.898 108 224.785 108 223.625ZM121 197.375C119.851 197.375 118.749 197.836 117.936 198.656C117.123 199.477 116.667 200.59 116.667 201.75V208.312H138.333V201.75C138.333 200.59 137.877 199.477 137.064 198.656C136.251 197.836 135.149 197.375 134 197.375H121ZM114.5 217.062C115.075 217.062 115.626 216.832 116.032 216.422C116.438 216.012 116.667 215.455 116.667 214.875C116.667 214.295 116.438 213.738 116.032 213.328C115.626 212.918 115.075 212.688 114.5 212.688C113.925 212.688 113.374 212.918 112.968 213.328C112.562 213.738 112.333 214.295 112.333 214.875C112.333 215.455 112.562 216.012 112.968 216.422C113.374 216.832 113.925 217.062 114.5 217.062ZM140.5 217.062C141.075 217.062 141.626 216.832 142.032 216.422C142.438 216.012 142.667 215.455 142.667 214.875C142.667 214.295 142.438 213.738 142.032 213.328C141.626 212.918 141.075 212.688 140.5 212.688C139.925 212.688 139.374 212.918 138.968 213.328C138.562 213.738 138.333 214.295 138.333 214.875C138.333 215.455 138.562 216.012 138.968 216.422C139.374 216.832 139.925 217.062 140.5 217.062Z" fill="#D8E9F5"/>
<path d="M1099.82 198.156L1101.49 187H1092.8L1089.17 196.562C1089.06 196.903 1089 197.255 1089 197.625C1089 199.971 1091.43 201.875 1094.43 201.875C1097.19 201.875 1099.48 200.252 1099.82 198.156ZM1108 201.875C1111 201.875 1113.43 199.971 1113.43 197.625C1113.43 197.538 1113.42 197.451 1113.42 197.368L1112.34 187H1103.66L1102.58 197.359C1102.58 197.446 1102.57 197.534 1102.57 197.625C1102.57 199.971 1105 201.875 1108 201.875ZM1118.56 204.098V212.5H1097.44V204.111C1096.52 204.446 1095.5 204.638 1094.43 204.638C1094.02 204.638 1093.62 204.589 1093.22 204.533V218.025C1093.22 219.661 1094.55 221 1096.17 221H1119.82C1121.45 221 1122.78 219.659 1122.78 218.025V204.535C1122.38 204.597 1121.98 204.632 1121.57 204.64C1120.54 204.639 1119.52 204.455 1118.56 204.098ZM1126.83 196.562L1123.2 187H1114.51L1116.18 198.139C1116.51 200.243 1118.79 201.875 1121.57 201.875C1124.57 201.875 1127 199.971 1127 197.625C1127 197.255 1126.94 196.903 1126.83 196.562Z" fill="#D8E9F5"/>
<path d="M1233.43 45.6038H1205.57C1205.25 45.6038 1204.99 45.8649 1204.99 46.1841V75.3486C1204.99 75.6678 1205.25 75.929 1205.57 75.929H1233.43C1233.75 75.929 1234.01 75.6678 1234.01 75.3486V46.1841C1234.01 45.8649 1233.75 45.6038 1233.43 45.6038ZM1209.64 50.2469H1229.37V58.735H1209.64V50.2469ZM1229.37 71.2859H1209.64V62.7977H1229.37V71.2859Z" fill="#D8E9F5"/>
<path d="M1213.12 67.5134C1213.12 68.1291 1213.36 68.7196 1213.8 69.155C1214.23 69.5903 1214.82 69.8349 1215.44 69.8349C1216.05 69.8349 1216.64 69.5903 1217.08 69.155C1217.52 68.7196 1217.76 68.1291 1217.76 67.5134C1217.76 66.8977 1217.52 66.3072 1217.08 65.8718C1216.64 65.4364 1216.05 65.1918 1215.44 65.1918C1214.82 65.1918 1214.23 65.4364 1213.8 65.8718C1213.36 66.3072 1213.12 66.8977 1213.12 67.5134ZM1213.12 54.5997C1213.12 55.2155 1213.36 55.806 1213.8 56.2413C1214.23 56.6767 1214.82 56.9213 1215.44 56.9213C1216.05 56.9213 1216.64 56.6767 1217.08 56.2413C1217.52 55.806 1217.76 55.2155 1217.76 54.5997C1217.76 53.984 1217.52 53.3935 1217.08 52.9582C1216.64 52.5228 1216.05 52.2782 1215.44 52.2782C1214.82 52.2782 1214.23 52.5228 1213.8 52.9582C1213.36 53.3935 1213.12 53.984 1213.12 54.5997Z" fill="#D8E9F5"/>
<path d="M1241.22 40.0103C1237.9 31.2392 1229.43 25 1219.52 25C1209.6 25 1201.13 31.2319 1197.81 40.003C1191.56 41.6499 1186.96 47.3594 1187 54.1354C1187.04 61.7095 1192.92 67.8689 1200.32 68.5291C1200.66 68.5581 1200.95 68.2896 1200.95 67.9487V63.5667C1200.95 63.2765 1200.73 63.0299 1200.44 62.9936C1198.48 62.7469 1196.63 61.8909 1195.21 60.4907C1193.47 58.7858 1192.51 56.4933 1192.51 54.0629C1192.51 52.0315 1193.17 50.1163 1194.41 48.5202C1195.63 46.9677 1197.33 45.8432 1199.21 45.3498L1201.96 44.6243L1202.97 41.9618C1203.59 40.3077 1204.46 38.7552 1205.56 37.355C1206.64 35.9621 1207.92 34.7433 1209.36 33.7276C1212.34 31.6309 1215.85 30.5209 1219.52 30.5209C1223.18 30.5209 1226.69 31.6309 1229.67 33.7348C1231.12 34.7505 1232.39 35.9693 1233.47 37.3623C1234.57 38.7624 1235.44 40.315 1236.06 41.9691L1237.07 44.6243L1239.81 45.3498C1243.74 46.3945 1246.49 49.9712 1246.49 54.0556C1246.49 56.4933 1245.53 58.7785 1243.79 60.4834C1242.38 61.8764 1240.53 62.7397 1238.57 62.9864C1238.28 63.0226 1238.07 63.2693 1238.07 63.5595V67.9487C1238.07 68.2896 1238.37 68.5581 1238.71 68.5291C1246.09 67.8616 1251.95 61.7095 1252 54.15C1252.05 47.3739 1247.45 41.6644 1241.22 40.0103Z" fill="#D8E9F5"/>
<path d="M215 44H203V32H215V44ZM206 41H212V35H206V41Z" fill="#D8E9F5"/>
<path d="M198.5 48.5V39.5H186.5V60.5H207.5V48.5H198.5ZM189.5 42.5H195.5V48.5H189.5V42.5ZM195.5 57.5H189.5V51.5H195.5V57.5ZM204.5 57.5H198.5V51.5H204.5V57.5Z" fill="#D8E9F5"/>
<path d="M212 68H182C181.205 67.9992 180.442 67.6829 179.88 67.1204C179.317 66.558 179.001 65.7954 179 65V35C179.001 34.2046 179.317 33.442 179.88 32.8796C180.442 32.3171 181.205 32.0008 182 32H197V35H182V65H212V50H215V65C214.999 65.7954 214.683 66.558 214.12 67.1204C213.558 67.6829 212.795 67.9992 212 68Z" fill="#D8E9F5"/>
<path d="M1083.65 42.25C1082.55 41.975 1081.45 41.425 1080.62 40.6C1079.8 40.325 1079.53 39.5 1079.53 38.95C1079.53 38.4 1079.8 37.575 1080.35 37.3C1081.17 36.75 1082 36.2 1082.83 36.475C1084.48 36.475 1085.85 37.3 1086.67 38.4L1089.15 35.1C1088.33 34.275 1087.5 33.725 1086.67 33.175C1085.85 32.625 1084.75 32.35 1083.65 32.35V28.5H1080.35V32.35C1078.97 32.625 1077.6 33.45 1076.5 34.55C1075.4 35.925 1074.57 37.575 1074.85 39.225C1074.85 40.875 1075.4 42.525 1076.5 43.625C1077.88 45 1079.8 45.825 1081.45 46.65C1082.27 46.925 1083.38 47.475 1084.2 48.025C1084.75 48.575 1085.03 49.4 1085.03 50.225C1085.03 51.05 1084.75 51.875 1084.2 52.7C1083.38 53.525 1082.27 53.8 1081.45 53.8C1080.35 53.8 1078.98 53.525 1078.15 52.7C1077.33 52.15 1076.5 51.325 1075.95 50.5L1073.2 53.525C1074.03 54.625 1074.85 55.45 1075.95 56.275C1077.33 57.1 1078.98 57.925 1080.62 57.925V61.5H1083.65V57.375C1085.3 57.1 1086.68 56.275 1087.78 55.175C1089.15 53.8 1089.97 51.6 1089.97 49.675C1089.97 48.025 1089.42 46.1 1088.05 45C1086.67 43.625 1085.3 42.8 1083.65 42.25ZM1082 23C1069.9 23 1060 32.9 1060 45C1060 57.1 1069.9 67 1082 67C1094.1 67 1104 57.1 1104 45C1104 32.9 1094.1 23 1082 23ZM1082 63.975C1071.55 63.975 1063.02 55.45 1063.02 45C1063.02 34.55 1071.55 26.025 1082 26.025C1092.45 26.025 1100.97 34.55 1100.97 45C1100.97 55.45 1092.45 63.975 1082 63.975Z" fill="#D8E9F5"/>
</svg>
