<svg width="1879" height="493" viewBox="0 0 1879 493" fill="none" xmlns="http://www.w3.org/2000/svg">
<mask id="mask0" mask-type="alpha" maskUnits="userSpaceOnUse" x="0" y="0" width="1879" height="493">
<path d="M1878.96 0.75293H0V492.709H1878.96V0.75293Z" fill="#F4FAFF"/>
</mask>
<g mask="url(#mask0)">
<path d="M1880.43 -98.5552H1.46729V521.737H1880.43V-98.5552Z" fill="#F4FAFF"/>
<path d="M1874.26 -115.216C1903.78 -102.307 1917.65 -66.94 1905.25 -36.2243C1892.84 -5.50216 1858.86 8.93446 1829.35 -3.9754C1799.83 -16.8852 1785.96 -52.2521 1798.36 -82.9678C1810.76 -113.69 1844.74 -128.126 1874.26 -115.216Z" fill="#E8F5FF"/>
<path d="M643.142 332.711C633.772 332.772 597.344 351.039 592.101 356.971C586.859 362.904 601.227 389.76 611.236 394.59C621.245 399.42 657.431 404.202 706.057 362.576C754.682 320.95 762.463 279.259 761.256 270.577C760.048 261.894 740.964 246.716 731.636 244.824C722.308 242.931 690.727 281.121 691.934 289.804C693.142 298.487 711.395 303.734 714.02 311.331C716.855 318.961 687.292 349.844 662.293 362.056C656.397 364.837 649.954 332.686 643.142 332.711Z" fill="#E8F5FF"/>
<path d="M431.261 518.975C423.695 501.904 416.058 484.533 414.552 466.026C412.865 447.404 418.175 427.442 432.08 416.064C442.553 407.56 458.85 405.602 469.319 414.377C479.788 423.152 479.452 443.522 467.327 448.93C455.541 448.71 444.061 440.808 439.654 429.329C436.573 421.499 436.773 412.733 437.694 404.431C442.186 364.373 464.48 326.122 499.091 308.255C533.412 290.457 579.827 295.949 607.333 325.1" stroke="#DAEFFF" stroke-width="2" stroke-miterlimit="10" stroke-linecap="round" stroke-linejoin="round" stroke-dasharray="8 8"/>
<path d="M770.385 302.452C797.539 326.801 828.316 348.925 863.904 354.602C899.227 360.168 939.232 344.846 953.38 311.365C957.385 301.783 959.061 290.275 954.324 281.062C951.875 276.265 948.114 272.479 943.778 269.389C921.626 254.365 887.26 270.196 883.82 296.622C882.256 309.43 886.539 322.21 892.501 333.821C914.597 377.644 959.015 408.993 1006.5 414.073C1063.74 420.151 1119.05 390.637 1176.48 391.466C1210.98 391.986 1245.28 403.385 1273.79 424.233C1302.03 444.969 1325.15 482.959 1310.73 514.758" stroke="#DAEFFF" stroke-width="2" stroke-miterlimit="10" stroke-linecap="round" stroke-linejoin="round" stroke-dasharray="8 8"/>
</g>
</svg>
