<svg width="979" height="6" viewBox="0 0 979 6" fill="none" xmlns="http://www.w3.org/2000/svg">
<path opacity="0.3" fill-rule="evenodd" clip-rule="evenodd" d="M254 3.45703e-07C255.657 2.73284e-07 257 1.34325 257 3C257 4.65675 255.657 6 254 6C252.343 6 251 4.65675 251 3C251 1.34325 252.343 4.18122e-07 254 3.45703e-07Z" fill="#3683BC"/>
<path opacity="0.3" fill-rule="evenodd" clip-rule="evenodd" d="M756 3.45703e-07C757.657 2.73284e-07 759 1.34325 759 3C759 4.65675 757.657 6 756 6C754.343 6 753 4.65675 753 3C753 1.34325 754.343 4.18122e-07 756 3.45703e-07Z" fill="#3683BC"/>
<path opacity="0.3" fill-rule="evenodd" clip-rule="evenodd" d="M3 3.45703e-07C4.65675 2.73284e-07 6 1.34325 6 3C6 4.65675 4.65675 6 3 6C1.34325 6 -5.87153e-08 4.65675 -1.31134e-07 3C-2.03553e-07 1.34325 1.34325 4.18122e-07 3 3.45703e-07Z" fill="#3683BC"/>
<path opacity="0.3" fill-rule="evenodd" clip-rule="evenodd" d="M505 3.45703e-07C506.657 2.73284e-07 508 1.34325 508 3C508 4.65675 506.657 6 505 6C503.343 6 502 4.65675 502 3C502 1.34325 503.343 4.18122e-07 505 3.45703e-07Z" fill="#3683BC"/>
<path opacity="0.3" fill-rule="evenodd" clip-rule="evenodd" d="M285.5 3.23847e-07C287.433 2.39359e-07 289 1.34325 289 3C289 4.65675 287.433 6 285.5 6C283.567 6 282 4.65675 282 3C282 1.34325 283.567 4.08336e-07 285.5 3.23847e-07Z" fill="#3683BC"/>
<path opacity="0.3" fill-rule="evenodd" clip-rule="evenodd" d="M788 3.45703e-07C789.657 2.73284e-07 791 1.34325 791 3C791 4.65675 789.657 6 788 6C786.343 6 785 4.65675 785 3C785 1.34325 786.343 4.18122e-07 788 3.45703e-07Z" fill="#3683BC"/>
<path opacity="0.3" fill-rule="evenodd" clip-rule="evenodd" d="M34.5 3.23847e-07C36.4329 2.39359e-07 38 1.34325 38 3C38 4.65675 36.4329 6 34.5 6C32.5671 6 31 4.65675 31 3C31 1.34325 32.5671 4.08336e-07 34.5 3.23847e-07Z" fill="#3683BC"/>
<path opacity="0.3" fill-rule="evenodd" clip-rule="evenodd" d="M536.5 3.23847e-07C538.433 2.39359e-07 540 1.34325 540 3C540 4.65675 538.433 6 536.5 6C534.567 6 533 4.65675 533 3C533 1.34325 534.567 4.08336e-07 536.5 3.23847e-07Z" fill="#3683BC"/>
<path opacity="0.3" fill-rule="evenodd" clip-rule="evenodd" d="M317 3.45703e-07C318.657 2.73284e-07 320 1.34325 320 3C320 4.65675 318.657 6 317 6C315.343 6 314 4.65675 314 3C314 1.34325 315.343 4.18122e-07 317 3.45703e-07Z" fill="#3683BC"/>
<path opacity="0.3" fill-rule="evenodd" clip-rule="evenodd" d="M819 3.45703e-07C820.657 2.73284e-07 822 1.34325 822 3C822 4.65675 820.657 6 819 6C817.343 6 816 4.65675 816 3C816 1.34325 817.343 4.18122e-07 819 3.45703e-07Z" fill="#3683BC"/>
<path opacity="0.3" fill-rule="evenodd" clip-rule="evenodd" d="M66 3.45703e-07C67.6567 2.73284e-07 69 1.34325 69 3C69 4.65675 67.6568 6 66 6C64.3433 6 63 4.65675 63 3C63 1.34325 64.3432 4.18122e-07 66 3.45703e-07Z" fill="#3683BC"/>
<path opacity="0.3" fill-rule="evenodd" clip-rule="evenodd" d="M568 3.45703e-07C569.657 2.73284e-07 571 1.34325 571 3C571 4.65675 569.657 6 568 6C566.343 6 565 4.65675 565 3C565 1.34325 566.343 4.18122e-07 568 3.45703e-07Z" fill="#3683BC"/>
<path opacity="0.3" fill-rule="evenodd" clip-rule="evenodd" d="M348 3.45703e-07C349.657 2.73284e-07 351 1.34325 351 3C351 4.65675 349.657 6 348 6C346.343 6 345 4.65675 345 3C345 1.34325 346.343 4.18122e-07 348 3.45703e-07Z" fill="#3683BC"/>
<path opacity="0.3" fill-rule="evenodd" clip-rule="evenodd" d="M850.5 3.23847e-07C852.433 2.39359e-07 854 1.34325 854 3C854 4.65675 852.433 6 850.5 6C848.567 6 847 4.65675 847 3C847 1.34325 848.567 4.08336e-07 850.5 3.23847e-07Z" fill="#3683BC"/>
<path opacity="0.3" fill-rule="evenodd" clip-rule="evenodd" d="M97 3.45703e-07C98.6567 2.73284e-07 100 1.34325 100 3C100 4.65675 98.6568 6 97 6C95.3433 6 94 4.65675 94 3C94 1.34325 95.3432 4.18122e-07 97 3.45703e-07Z" fill="#3683BC"/>
<path opacity="0.3" fill-rule="evenodd" clip-rule="evenodd" d="M599 3.45703e-07C600.657 2.73284e-07 602 1.34325 602 3C602 4.65675 600.657 6 599 6C597.343 6 596 4.65675 596 3C596 1.34325 597.343 4.18122e-07 599 3.45703e-07Z" fill="#3683BC"/>
<path opacity="0.3" fill-rule="evenodd" clip-rule="evenodd" d="M379.5 3.23847e-07C381.433 2.39359e-07 383 1.34325 383 3C383 4.65675 381.433 6 379.5 6C377.567 6 376 4.65675 376 3C376 1.34325 377.567 4.08336e-07 379.5 3.23847e-07Z" fill="#3683BC"/>
<path opacity="0.3" fill-rule="evenodd" clip-rule="evenodd" d="M882 3.45703e-07C883.657 2.73284e-07 885 1.34325 885 3C885 4.65675 883.657 6 882 6C880.343 6 879 4.65675 879 3C879 1.34325 880.343 4.18122e-07 882 3.45703e-07Z" fill="#3683BC"/>
<path opacity="0.3" fill-rule="evenodd" clip-rule="evenodd" d="M128.5 3.23847e-07C130.433 2.39359e-07 132 1.34325 132 3C132 4.65675 130.433 6 128.5 6C126.567 6 125 4.65675 125 3C125 1.34325 126.567 4.08336e-07 128.5 3.23847e-07Z" fill="#3683BC"/>
<path opacity="0.3" fill-rule="evenodd" clip-rule="evenodd" d="M631 3.45703e-07C632.657 2.73284e-07 634 1.34325 634 3C634 4.65675 632.657 6 631 6C629.343 6 628 4.65675 628 3C628 1.34325 629.343 4.18122e-07 631 3.45703e-07Z" fill="#3683BC"/>
<path opacity="0.3" fill-rule="evenodd" clip-rule="evenodd" d="M411 3.45703e-07C412.657 2.73284e-07 414 1.34325 414 3C414 4.65675 412.657 6 411 6C409.343 6 408 4.65675 408 3C408 1.34325 409.343 4.18122e-07 411 3.45703e-07Z" fill="#3683BC"/>
<path opacity="0.3" fill-rule="evenodd" clip-rule="evenodd" d="M913 3.45703e-07C914.657 2.73284e-07 916 1.34325 916 3C916 4.65675 914.657 6 913 6C911.343 6 910 4.65675 910 3C910 1.34325 911.343 4.18122e-07 913 3.45703e-07Z" fill="#3683BC"/>
<path opacity="0.3" fill-rule="evenodd" clip-rule="evenodd" d="M160 3.45703e-07C161.657 2.73284e-07 163 1.34325 163 3C163 4.65675 161.657 6 160 6C158.343 6 157 4.65675 157 3C157 1.34325 158.343 4.18122e-07 160 3.45703e-07Z" fill="#3683BC"/>
<path opacity="0.3" fill-rule="evenodd" clip-rule="evenodd" d="M662 3.45703e-07C663.657 2.73284e-07 665 1.34325 665 3C665 4.65675 663.657 6 662 6C660.343 6 659 4.65675 659 3C659 1.34325 660.343 4.18122e-07 662 3.45703e-07Z" fill="#3683BC"/>
<path opacity="0.3" fill-rule="evenodd" clip-rule="evenodd" d="M442 3.45703e-07C443.657 2.73284e-07 445 1.34325 445 3C445 4.65675 443.657 6 442 6C440.343 6 439 4.65675 439 3C439 1.34325 440.343 4.18122e-07 442 3.45703e-07Z" fill="#3683BC"/>
<path opacity="0.3" fill-rule="evenodd" clip-rule="evenodd" d="M944.5 3.23847e-07C946.433 2.39359e-07 948 1.34325 948 3C948 4.65675 946.433 6 944.5 6C942.567 6 941 4.65675 941 3C941 1.34325 942.567 4.08336e-07 944.5 3.23847e-07Z" fill="#3683BC"/>
<path opacity="0.3" fill-rule="evenodd" clip-rule="evenodd" d="M191 3.45703e-07C192.657 2.73284e-07 194 1.34325 194 3C194 4.65675 192.657 6 191 6C189.343 6 188 4.65675 188 3C188 1.34325 189.343 4.18122e-07 191 3.45703e-07Z" fill="#3683BC"/>
<path opacity="0.3" fill-rule="evenodd" clip-rule="evenodd" d="M693.5 3.23847e-07C695.433 2.39359e-07 697 1.34325 697 3C697 4.65675 695.433 6 693.5 6C691.567 6 690 4.65675 690 3C690 1.34325 691.567 4.08336e-07 693.5 3.23847e-07Z" fill="#3683BC"/>
<path opacity="0.3" fill-rule="evenodd" clip-rule="evenodd" d="M474 3.45703e-07C475.657 2.73284e-07 477 1.34325 477 3C477 4.65675 475.657 6 474 6C472.343 6 471 4.65675 471 3C471 1.34325 472.343 4.18122e-07 474 3.45703e-07Z" fill="#3683BC"/>
<path opacity="0.3" fill-rule="evenodd" clip-rule="evenodd" d="M976 3.45703e-07C977.657 2.73284e-07 979 1.34325 979 3C979 4.65675 977.657 6 976 6C974.343 6 973 4.65675 973 3C973 1.34325 974.343 4.18122e-07 976 3.45703e-07Z" fill="#3683BC"/>
<path opacity="0.3" fill-rule="evenodd" clip-rule="evenodd" d="M222.5 3.23847e-07C224.433 2.39359e-07 226 1.34325 226 3C226 4.65675 224.433 6 222.5 6C220.567 6 219 4.65675 219 3C219 1.34325 220.567 4.08336e-07 222.5 3.23847e-07Z" fill="#3683BC"/>
<path opacity="0.3" fill-rule="evenodd" clip-rule="evenodd" d="M725 3.45703e-07C726.657 2.73284e-07 728 1.34325 728 3C728 4.65675 726.657 6 725 6C723.343 6 722 4.65675 722 3C722 1.34325 723.343 4.18122e-07 725 3.45703e-07Z" fill="#3683BC"/>
</svg>
