<svg width="51" height="50" viewBox="0 0 51 50" fill="none" xmlns="http://www.w3.org/2000/svg">
<path d="M24.0794 15.1849L24.0794 15.1848L17.7159 8.82147C15.724 6.82954 15.724 3.58834 17.7159 1.5964L17.7159 1.5964C18.681 0.631231 19.9636 0.1 21.3284 0.1C22.6932 0.1 23.9758 0.631232 24.9409 1.5964L25.0112 1.52613L24.9409 1.5964L24.9772 1.633L25.0485 1.70541L25.1198 1.633L25.156 1.5964C26.1211 0.631231 27.4037 0.1 28.7686 0.1C30.1335 0.1 31.4161 0.631233 32.381 1.5963L32.4517 1.52559L32.381 1.5963C34.373 3.58824 34.373 6.82954 32.381 8.82137L26.0176 15.1848L26.0176 15.1849C25.75 15.4526 25.3994 15.5863 25.0485 15.5863C24.6975 15.5863 24.3469 15.4526 24.0794 15.1849ZM19.7248 3.60531L19.6541 3.5346C18.731 4.45787 18.731 5.95991 19.6541 6.88318L19.6541 6.88318L24.9778 12.2067L25.0485 12.2774L25.1192 12.2067L30.4428 6.88308C31.3661 5.95981 31.3661 4.45787 30.4428 3.53459C29.5195 2.61122 28.0175 2.61143 27.0943 3.53459L27.0943 3.5346C26.7026 3.92641 26.4665 4.42498 26.4125 4.97514L26.512 4.98492L26.4125 4.97515C26.3436 5.67689 25.7536 6.21178 25.0485 6.21178C24.3434 6.21178 23.7534 5.67689 23.6845 4.97515C23.6304 4.42498 23.3943 3.9264 23.0025 3.5346C22.0793 2.61132 20.5773 2.61143 19.6541 3.53459L19.7248 3.60531Z" fill="#3683BC" stroke="white" stroke-width="0.2"/>
<path d="M7.95743 26.1849L7.9574 26.1848L1.59395 19.8215C-0.397984 17.8295 -0.397984 14.5883 1.59395 12.5964L1.59395 12.5964C2.55903 11.6312 3.84163 11.1 5.20639 11.1C6.57125 11.1 7.85385 11.6312 8.81892 12.5964L8.8892 12.5261L8.81893 12.5964L8.85523 12.633L8.9265 12.7054L8.99777 12.633L9.03398 12.5964C9.99915 11.6312 11.2818 11.1 12.6466 11.1C14.0115 11.1 15.2941 11.6312 16.259 12.5963L16.3298 12.5256L16.2591 12.5963C18.251 14.5882 18.251 17.8295 16.2591 19.8214L9.8956 26.1848L9.89557 26.1849C9.62804 26.4526 9.27745 26.5863 8.9265 26.5863C8.57555 26.5863 8.22497 26.4526 7.95743 26.1849ZM3.60286 14.6053L3.53214 14.5346C2.60897 15.4579 2.60897 16.9599 3.53214 17.8832L3.53215 17.8832L8.85579 23.2067L8.9265 23.2774L8.99721 23.2067L14.3209 17.8831C15.2441 16.9598 15.2441 15.4579 14.3209 14.5346C13.3975 13.6112 11.8955 13.6114 10.9724 14.5346L10.9724 14.5346C10.5807 14.9264 10.3446 15.425 10.2905 15.9751L10.39 15.9849L10.2905 15.9751C10.2216 16.6769 9.63163 17.2118 8.9265 17.2118C8.22137 17.2118 7.63138 16.6769 7.56249 15.9751C7.50845 15.425 7.27235 14.9264 6.88054 14.5346C5.95736 13.6113 4.45531 13.6114 3.53215 14.5346L3.60286 14.6053Z" fill="#3683BC" stroke="white" stroke-width="0.2"/>
<path d="M39.9574 26.1849L39.9574 26.1848L33.594 19.8215C31.602 17.8295 31.602 14.5883 33.594 12.5964L33.594 12.5964C34.559 11.6312 35.8416 11.1 37.2064 11.1C38.5712 11.1 39.8539 11.6312 40.8189 12.5964L40.8892 12.5261L40.8189 12.5964L40.8552 12.633L40.9265 12.7054L40.9978 12.633L41.034 12.5964C41.9991 11.6312 43.2818 11.1 44.6466 11.1C46.0115 11.1 47.2941 11.6312 48.259 12.5963L48.3298 12.5256L48.2591 12.5963C50.251 14.5882 50.251 17.8295 48.2591 19.8214L41.8956 26.1848L41.8956 26.1849C41.628 26.4526 41.2774 26.5863 40.9265 26.5863C40.5756 26.5863 40.225 26.4526 39.9574 26.1849ZM35.6029 14.6053L35.5321 14.5346C34.609 15.4579 34.609 16.9599 35.5321 17.8832L35.5321 17.8832L40.8558 23.2067L40.9265 23.2774L40.9972 23.2067L46.3209 17.8831C47.2441 16.9598 47.2441 15.4579 46.3209 14.5346C45.3975 13.6112 43.8955 13.6114 42.9724 14.5346L42.9724 14.5346C42.5807 14.9264 42.3446 15.425 42.2905 15.9751L42.39 15.9849L42.2905 15.9751C42.2216 16.6769 41.6316 17.2118 40.9265 17.2118C40.2214 17.2118 39.6314 16.6769 39.5625 15.9751C39.5085 15.425 39.2723 14.9264 38.8805 14.5346C37.9574 13.6113 36.4553 13.6114 35.5321 14.5346L35.6029 14.6053Z" fill="#3683BC" stroke="white" stroke-width="0.2"/>
<path d="M45.4684 39.2689L45.3796 39.3625L45.4924 39.4251C48.1772 40.9145 49.9982 43.7781 49.9982 47.059V48.5296C49.9982 49.2865 49.3845 49.9002 48.6276 49.9002H1.56865C0.811715 49.9002 0.198053 49.2865 0.198053 48.5296V47.059C0.198053 43.7781 2.0191 40.9145 4.70383 39.4251L4.81668 39.3625L4.72789 39.2689C3.74429 38.2316 3.13924 36.8327 3.13924 35.2942C3.13924 32.1059 5.7333 29.5119 8.92161 29.5119C12.1099 29.5119 14.704 32.1059 14.704 35.2942C14.704 36.8327 14.0989 38.2316 13.1152 39.2688L13.0264 39.3624L13.1393 39.425C14.3788 40.1127 15.4341 41.0934 16.2113 42.273L16.2982 42.4049L16.3802 42.2699C17.3656 40.6488 18.7905 39.323 20.4878 38.4586L20.6156 38.3935L20.5103 38.2961C19.1738 37.0597 18.3354 35.2929 18.3354 33.3334C18.3354 29.6045 21.3691 26.5707 25.0981 26.5707C28.8271 26.5707 31.8609 29.6045 31.8609 33.3334C31.8609 35.2929 31.0225 37.0597 29.6858 38.2962L29.5805 38.3936L29.7084 38.4587C31.4058 39.3231 32.8305 40.6489 33.8159 42.27L33.898 42.405L33.9849 42.2731C34.762 41.0934 35.8173 40.1128 37.0569 39.4251L37.1697 39.3625L37.0809 39.2689C36.0973 38.2316 35.4923 36.8327 35.4923 35.2942C35.4923 32.1059 38.0863 29.5119 41.2747 29.5119C44.463 29.5119 47.057 32.1059 47.057 35.2942C47.057 36.8327 46.452 38.2316 45.4684 39.2689ZM14.804 47.159H14.904V47.059C14.904 43.7602 12.2204 41.0766 8.92161 41.0766C5.62284 41.0766 2.93924 43.7602 2.93924 47.059V47.159H3.03924H14.804ZM17.6616 47.0524L17.6545 47.159H17.7613H32.4349H32.5418L32.5347 47.0524C32.278 43.1735 29.0408 40.0962 25.0981 40.0962C21.1555 40.0962 17.9182 43.1735 17.6616 47.0524ZM35.2923 47.059V47.159H35.3923H47.157H47.257V47.059C47.257 43.7602 44.5734 41.0766 41.2747 41.0766C37.9759 41.0766 35.2923 43.7602 35.2923 47.059ZM41.2747 32.253C39.5977 32.253 38.2335 33.6172 38.2335 35.2942C38.2335 36.9712 39.5977 38.3354 41.2747 38.3354C42.9517 38.3354 44.3158 36.9712 44.3158 35.2942C44.3158 33.6172 42.9517 32.253 41.2747 32.253ZM25.0981 29.3119C22.8805 29.3119 21.0765 31.1159 21.0765 33.3334C21.0765 35.551 22.8805 37.355 25.0981 37.355C27.3157 37.355 29.1197 35.551 29.1197 33.3334C29.1197 31.1159 27.3157 29.3119 25.0981 29.3119ZM8.92161 32.253C7.24461 32.253 5.88042 33.6172 5.88042 35.2942C5.88042 36.9712 7.24461 38.3354 8.92161 38.3354C10.5986 38.3354 11.9628 36.9712 11.9628 35.2942C11.9628 33.6172 10.5986 32.253 8.92161 32.253Z" fill="#3683BC" stroke="white" stroke-width="0.2"/>
</svg>
