<svg width="403" height="358" viewBox="0 0 403 358" fill="none" xmlns="http://www.w3.org/2000/svg">
<path d="M103.902 35.8887C111.68 23.3782 133.383 34.5385 133.383 34.5385C133.383 34.5385 141.827 63.0576 146.195 64.9874C150.564 66.9194 143.736 39.1958 143.736 39.1958C152.787 40.987 171.96 58.5003 171.96 58.5003C171.96 58.5003 162.188 85.876 166.898 86.6739C171.607 87.4694 174.312 61.9916 174.312 61.9916C182.056 67.1012 187.016 79.4185 187.016 79.4185C192.087 98.5729 167.23 104.096 167.23 104.096C167.23 104.096 164.047 113.656 166.682 126.51C166.682 126.51 167.411 128.956 167.736 132.84L165.416 132.143C165.414 131.463 165.384 130.799 165.327 130.151C165.329 130.147 165.327 130.142 165.325 130.14C165.325 130.131 165.323 130.122 165.323 130.113C165.27 129.706 165.195 129.129 165.098 128.422V128.419C165.098 128.417 165.098 128.417 165.098 128.415C164.807 126.815 164.634 125.646 164.554 124.814C164.554 124.812 164.554 124.81 164.554 124.808C163.738 119.814 162.384 113.218 160.702 111.415C160.702 111.415 161.068 111.131 161.518 110.499C161.256 110.79 160.986 111.095 160.702 111.415C154.174 118.732 133.887 114.186 123.507 108.592C113.124 102.998 118.883 101.328 126.364 98.0524C133.844 94.777 145.925 99.8617 150.21 98.9843C154.494 98.107 149.7 94.502 142.154 92.8518C134.608 91.2039 128.703 97.4705 116.447 95.0271C104.191 92.5813 101.845 67.4422 101.845 67.4422C109.305 72.4677 125.42 72.3609 126.841 69.6924C128.262 67.0262 106.33 60.746 103.182 58.873C100.036 56.9956 96.1217 48.3969 103.902 35.8887Z" fill="#DFEBFD"/>
<path d="M269.294 70.6107C263.727 61.6619 248.203 69.6447 248.203 69.6447C248.203 69.6447 242.161 90.0469 239.036 91.4289C235.91 92.8109 240.795 72.9768 240.795 72.9768C234.319 74.2588 220.602 86.7875 220.602 86.7875C220.602 86.7875 227.591 106.374 224.223 106.944C220.854 107.515 218.918 89.2855 218.918 89.2855C213.378 92.9404 209.828 101.753 209.828 101.753C206.2 115.457 223.984 119.407 223.984 119.407C223.984 119.407 226.259 126.246 224.375 135.443C224.375 135.443 223.852 137.193 223.62 139.971L225.28 139.473C225.282 138.986 225.302 138.511 225.343 138.05C225.343 138.048 225.343 138.045 225.343 138.041C225.343 138.034 225.346 138.027 225.346 138.02C225.382 137.73 225.436 137.316 225.507 136.809V136.807V136.804C225.716 135.659 225.839 134.822 225.896 134.229C225.896 134.227 225.896 134.225 225.896 134.225C226.48 130.651 227.448 125.933 228.653 124.642C228.653 124.642 228.391 124.439 228.069 123.987C228.255 124.196 228.448 124.414 228.653 124.642C233.324 129.876 247.837 126.624 255.265 122.621C262.693 118.618 258.572 117.423 253.221 115.079C247.871 112.736 239.227 116.375 236.16 115.745C233.094 115.118 236.524 112.538 241.925 111.358C247.323 110.179 251.549 114.663 260.315 112.915C269.085 111.165 270.762 93.1814 270.762 93.1814C265.425 96.7772 253.894 96.6999 252.878 94.7929C251.862 92.8859 267.553 88.3922 269.805 87.0534C272.06 85.7124 274.86 79.5594 269.294 70.6107Z" fill="#E4EAF0"/>
<path d="M195.558 295.843C195.558 295.843 187.659 282.491 177.815 277.954C177.815 277.954 179.179 307.855 173.596 307.764C168.018 307.676 174.481 274.336 174.481 274.336C174.481 274.336 149.253 257.486 138.486 257.011C138.486 257.011 151.251 287.828 145.868 286.367C140.481 284.905 125.709 253.456 125.709 253.456C125.709 253.456 98.6812 244.387 91.8986 260.205C85.116 276.022 91.1508 285.262 95.1149 286.873C99.0835 288.483 125.514 291.874 124.345 295.204C123.175 298.534 104.58 301.496 95.0785 297.004C95.0785 297.004 102.213 325.625 116.799 326.294C131.385 326.96 137.101 318.679 146.107 319.257C155.115 319.832 161.286 323.15 156.49 324.919C151.698 326.687 136.849 322.941 128.787 328.042C120.725 333.14 114.367 336.086 127.343 340.716C140.32 345.348 164.548 347.03 170.798 337.429C173.062 339.218 175.785 346.596 177.608 352.219V352.226C177.849 353.172 178.251 354.492 178.87 356.29C178.87 356.293 178.872 356.293 178.872 356.293C178.872 356.295 178.872 356.295 178.872 356.297C179.001 356.727 179.115 357.115 179.213 357.456H181.729C181.518 356.79 181.315 356.206 181.131 355.713C180.681 354.486 180.363 353.81 180.363 353.81C175.058 339.429 177.047 327.826 177.047 327.826C177.047 327.826 204.786 317.072 195.558 295.843ZM170.812 337.409C171.078 336.999 171.332 336.602 171.578 336.227C171.221 336.936 170.887 337.327 170.812 337.409Z" fill="#B8D9F2"/>
<path d="M214.61 243.609V357.468L204.971 357.456H204.609V243.609H214.61Z" fill="#85BCE4"/>
<path d="M105.951 243.61H219.873V178.207C219.873 146.749 194.37 121.246 162.912 121.246C131.454 121.246 105.951 146.749 105.951 178.207V243.61Z" fill="#B8D9F2"/>
<path d="M252.271 121.246H159.436V195.416H240.931L252.271 121.246Z" fill="#B8D9F2"/>
<path d="M195.309 243.61H309.23V178.207C309.23 146.749 283.728 121.246 252.269 121.246C220.811 121.246 195.309 146.749 195.309 178.207V243.61Z" fill="#77B5E3"/>
<path d="M201.438 237.025H303.099V178.661C303.099 150.588 280.342 127.831 252.268 127.831C224.195 127.831 201.438 150.588 201.438 178.661V237.025Z" fill="#233862"/>
<path d="M399.706 243.61H193.596C191.778 243.61 190.303 242.134 190.303 240.316C190.303 238.498 191.778 237.022 193.596 237.022H399.706C401.524 237.022 402.999 238.498 402.999 240.316C402.997 242.134 401.524 243.61 399.706 243.61Z" fill="#77B5E3"/>
<path d="M186.271 249.647H234.549C236.256 249.647 237.643 248.262 237.643 246.553V243.459H182.998V246.373C183 248.183 184.464 249.647 186.271 249.647Z" fill="#85BCE4"/>
<path d="M293.086 70.3152C293.086 70.3152 292.402 62.8485 300.744 62.8485C300.744 62.8485 298.216 63.5349 296.907 64.9055C296.907 64.9055 302.228 61.7825 308.019 66.583C313.811 71.3835 310.213 83.4212 311.972 85.7078C313.734 87.9945 320.591 88.4513 319.752 95.8408C318.914 103.233 297.989 112.488 299.332 118.605C299.332 118.605 291.131 106.549 296.995 101.048C296.995 101.048 294.138 103.739 293.845 106.94C293.845 106.94 293.07 100.691 297.045 98.6934C300.564 96.925 303.446 90.4561 303.142 89.3014C302.839 88.1467 293.086 70.3152 293.086 70.3152Z" fill="#2C3A64"/>
<path d="M304.864 101.671C304.864 101.671 292.995 131.624 290.435 130.515C287.876 129.406 272.802 124.617 272.802 124.617L271.811 128.285C271.811 128.285 286.155 139.339 293.536 139.823C300.916 140.307 310.915 118.557 310.915 118.557L304.864 101.671Z" fill="#FFD5B9"/>
<path d="M304.987 123.164L316.693 164.076C316.865 164.678 316.922 165.289 316.884 165.88C316.743 168.031 315.27 169.96 313.081 170.588L242.032 190.917C239.832 191.547 237.557 190.672 236.302 188.908C235.963 188.433 235.697 187.894 235.529 187.301L223.828 146.408C223.028 143.61 224.644 140.698 227.435 139.898L298.484 119.568C301.268 118.771 304.178 120.375 304.987 123.164Z" fill="#3683BC"/>
<path d="M316.886 165.878C316.745 168.028 315.273 169.958 313.084 170.585L242.035 190.915C239.835 191.545 237.559 190.67 236.305 188.906L272.493 155.938L316.886 165.878Z" fill="#2575AF"/>
<path d="M304.987 123.164L273.179 162.664L224.424 148.501L223.826 146.408C223.026 143.61 224.642 140.698 227.433 139.898L298.482 119.568C301.269 118.771 304.178 120.375 304.987 123.164Z" fill="#58A7E1"/>
<path d="M278.06 125.383C278.06 125.383 271.56 122.637 270.66 126.112C270.184 127.949 269.066 130.376 271.073 130.192C273.078 130.01 275.092 128.665 275.315 127.569C275.537 126.476 278.06 125.383 278.06 125.383Z" fill="#FFD5B9"/>
<path d="M359.88 151.47C359.826 151.567 359.767 151.67 359.71 151.772C358.346 154.143 355.216 159.952 351.77 166.308C350.14 169.324 348.433 172.463 346.815 175.418C344.026 180.516 341.487 185.055 340.008 187.456C338.501 189.894 337.394 191.608 336.944 192.295C336.939 192.299 336.939 192.299 336.939 192.299C336.805 192.511 336.775 192.758 336.794 193.006C336.95 195.159 336.907 197.295 336.696 199.4C334.616 220.082 320.671 231.163 320.671 231.163L316.525 231.776C316.525 231.776 322.392 210.038 324.122 197.748C324.413 195.666 324.54 193.977 324.44 192.877C324.133 189.674 324.704 184.973 325.779 179.577C327.693 169.985 331.204 158.214 334.257 148.792C334.45 148.19 340.28 127.097 340.28 127.097C345.174 131.374 363.026 133.14 363.026 133.14C363.026 133.14 366.049 140.496 359.88 151.47Z" fill="#2B478B"/>
<path d="M307.82 237.02H325.125C325.125 237.02 325.54 234.383 324.636 232.381C323.77 230.46 322.536 230.399 324.479 227.39C323.379 228.521 319.844 228.99 317.342 228.653C317.035 229.151 315.367 232.486 314.341 233.22C313.212 234.036 308.17 233.745 307.82 237.02Z" fill="#233862"/>
<path d="M359.881 151.47C359.827 151.567 359.768 151.67 359.711 151.772C358.347 154.143 350.971 167.767 347.525 174.122C351.519 157.693 348.741 141.264 348.741 141.264L359.881 151.47Z" fill="#233862"/>
<path d="M295.448 69.2674C295.334 68.8128 305.331 73.7861 305.837 74.3475C310.527 79.5481 309.19 86.3352 306.506 86.4011C304.785 86.442 305.119 89.3037 305.119 89.3037L285.951 81.196C285.951 81.1937 288.26 67.7354 295.448 69.2674Z" fill="#2C3A64"/>
<path d="M301.889 102.296C301.889 102.296 299.336 104.94 299.336 112.852C299.336 112.852 302.852 118.405 311.976 119.809C311.974 119.809 304.132 102.292 301.889 102.296Z" fill="#3683BC"/>
<path d="M346.387 134.425L346.328 131.188C352.777 132.002 368.562 123.482 368.562 123.482C368.562 123.482 375.309 127.969 376.231 140.784C376.681 147.04 379.534 173.49 379.85 181.389C379.966 184.251 380.002 186.294 380.016 187.11C380.014 187.115 380.014 187.117 380.016 187.119C380.02 187.369 380.136 187.587 380.291 187.785C381.625 189.481 382.782 191.279 383.785 193.14C393.624 211.449 388.478 236.325 388.478 236.325L386.194 235.743C386.194 235.743 377.873 209.954 372.436 198.798C371.513 196.907 370.674 195.434 369.972 194.581C367.926 192.097 365.771 187.881 363.646 182.805C359.632 173.213 346.387 134.425 346.387 134.425Z" fill="#2B478B"/>
<path d="M374.719 237.02H392.023C392.023 237.02 392.439 234.384 391.534 232.381C390.668 230.46 389.311 229.588 389.636 227.265C388.536 228.396 386.745 229.665 384.243 229.328C383.936 229.826 382.263 232.486 381.24 233.22C380.108 234.036 375.067 233.745 374.719 237.02Z" fill="#233862"/>
<path d="M313.142 123.526C315.467 123.921 312.762 125.769 315.96 126.117C320.511 126.615 325.209 126.953 327.67 127.935C328.568 128.294 329.168 128.735 329.357 129.301C330.423 132.509 337.181 138.021 337.181 138.021C367.314 136.65 368.568 123.483 368.568 123.483C349.011 104.489 331.03 93.2882 317.299 91.804C314.949 91.5494 311.978 93.0405 309.862 93.9838C305.052 96.1249 301.893 102.296 301.893 102.296C301.893 102.296 304.309 122.019 313.142 123.526Z" fill="#3683BC"/>
<path d="M315.963 126.117C320.513 126.615 325.212 126.953 327.673 127.935C328.678 112.906 321.586 101.603 321.586 101.603C321.586 101.603 316.958 120.43 315.963 126.117Z" fill="#1B6093"/>
<path d="M312.033 99.0571C312.033 99.0571 323.475 98.432 325.509 105.617C327.544 112.802 321.695 141.478 320.434 144.437C318.14 149.826 306.969 165.205 306.969 165.205L302.861 163.955C302.861 163.955 310.31 140.462 311.971 138.136C314.583 134.486 308.61 102.182 312.033 99.0571Z" fill="#FFD5B9"/>
<path d="M302.866 163.955C302.866 163.955 302.655 165.778 301.884 166.717C301.113 167.658 298.875 169.933 298.836 171.265C298.836 171.265 298.95 171.856 299.429 171.749C299.909 171.642 301.577 169.99 302.434 170.108C302.434 170.108 301.977 172.779 301.525 173.529C301.073 174.281 301.432 177.47 301.704 178.118C301.977 178.766 305.314 174.634 306.687 172.788C308.06 170.942 306.71 163.453 306.71 163.453L302.866 163.955Z" fill="#FFD5B9"/>
<path d="M327.768 115.225C327.738 115.393 316.939 117.211 310.184 113.784C310.184 113.784 304.54 96.1067 312.604 96.9523C320.669 97.7978 325.442 100.337 325.647 104.199C325.851 108.058 327.768 115.225 327.768 115.225Z" fill="#3683BC"/>
<path d="M309.86 93.9838C309.86 93.9838 306.678 105.856 301.891 102.296C302.025 101.723 301.191 100.057 300.206 98.3638C298.947 96.2022 297.449 93.9906 297.449 93.9906L303.927 88.3172L304.314 87.9786C306.296 91.4426 308.241 92.8018 309.86 93.9838Z" fill="#FFD5B9"/>
<path d="M297.449 93.9928C297.449 93.9928 298.947 96.1976 300.204 98.3638C304.23 95.8817 304.234 90.8993 303.925 88.3172L297.449 93.9928Z" fill="#FABA8F"/>
<path d="M297.268 96.8364C297.268 96.8364 307.042 91.3971 303.562 85.3624C300.082 79.3276 298.998 74.5612 292.611 77.7774C286.224 80.996 286.349 83.9918 287.022 86.2875C287.692 88.5877 294.636 98.0956 297.268 96.8364Z" fill="#FFD5B9"/>
<path d="M285.371 82.7712C285.819 80.0913 287.18 79.8367 288.128 80.014C291.738 74.0452 297.636 76.375 297.636 76.375C300.786 80.3277 305.339 81.0028 305.339 81.0028C305.339 81.0028 304.205 83.1121 299.532 84.4191C298.104 84.8191 296.484 84.5759 294.922 84.0508C298.163 85.8579 301.555 86.5511 301.555 86.5511C295.397 87.1148 289.538 81.4847 288.928 80.8823C288.644 81.7551 288.146 83.5826 288.444 84.9169C288.849 86.7307 290.46 90.0197 289.476 90.4447C289.478 90.4425 284.701 86.7875 285.371 82.7712Z" fill="#2C3A64"/>
<path d="M165.762 170.783C166.372 171.481 166.449 172.258 166.146 173.09C166.146 173.093 166.144 173.099 166.14 173.102C165.583 174.64 163.744 176.359 161.607 178.075C161.335 178.295 161.091 178.495 160.88 178.682C160.825 178.73 160.769 178.78 160.716 178.827C160.673 178.866 160.632 178.905 160.591 178.941C158.6 180.778 159.348 181.198 155.77 184.926C151.688 189.172 148.879 189.249 148.081 188.863C147.403 188.533 148.779 186.28 150.302 183.748C150.374 183.626 150.447 183.503 150.524 183.38C150.727 183.044 150.929 182.703 151.129 182.364C152.913 179.318 152.454 177.889 152.031 173.354C151.688 169.669 146.299 152.77 146.299 152.77L154.12 151.422C154.12 151.422 156.475 164.878 159.071 166.951C160.457 168.056 162.012 168.069 163.346 168.888C163.439 168.944 163.533 169.003 163.623 169.063C164.38 169.567 165.153 170.085 165.762 170.783Z" fill="#FFD5B9"/>
<path d="M165.763 170.783C166.372 171.481 166.45 172.258 166.147 173.09C166.147 173.093 166.145 173.099 166.14 173.102C165.459 174.638 163.665 176.347 161.601 178.059C161.331 178.284 161.094 178.489 160.881 178.682C160.826 178.73 160.769 178.78 160.717 178.827C160.674 178.866 160.633 178.905 160.592 178.941C158.601 180.778 159.349 181.198 155.771 184.926C151.689 189.172 148.879 189.249 148.082 188.863C147.404 188.533 148.779 186.28 150.302 183.748C151.098 183.457 154.787 181.957 157.578 178.389C160.035 175.252 161.674 171.224 163.347 168.89C163.44 168.947 163.533 169.006 163.624 169.065C164.381 169.567 165.154 170.085 165.763 170.783Z" fill="#233862"/>
<path d="M102.699 165.899C102.217 168.312 98.7759 167.91 94.93 166.971C91.0864 166.033 92.0002 167.149 86.5268 166.544C81.0558 165.939 79.3965 163.898 79.2306 163.085C79.0806 162.362 81.7854 162.107 84.6857 161.773C85.0494 161.732 85.4176 161.687 85.7836 161.641C89.0589 161.23 91.4547 159.118 94.43 157.382C97.2462 155.738 101.451 149.042 101.451 149.042L108.954 149.638C108.954 149.638 105.018 155.618 103.492 158.218C102.597 159.748 102.645 161.771 102.756 163.332C102.815 164.18 102.87 165.048 102.699 165.899Z" fill="#FFD5B9"/>
<path d="M94.9301 166.971C91.0864 166.033 92.0002 167.149 86.5268 166.544C81.0558 165.939 79.3965 163.898 79.2306 163.085C79.0806 162.362 81.7854 162.107 84.6857 161.773L84.713 161.83C84.713 161.83 87.9952 164.157 92.5502 164.267C96.262 164.357 100.194 163.294 102.758 163.335C102.817 164.182 102.872 165.051 102.701 165.901C102.215 168.312 98.7737 167.91 94.9301 166.971Z" fill="#233862"/>
<path d="M131.457 117.916L138.471 136.793L147.629 161.439C147.629 161.439 150.116 161.68 152.496 160.993C154.687 160.359 157.201 158.702 157.201 158.702C157.201 158.702 154.657 132.238 149.914 117.048C148.698 113.147 147.336 109.995 145.831 108.219C138.478 99.5298 131.457 117.916 131.457 117.916Z" fill="#233862"/>
<path d="M138.589 87.9376C143.185 86.4556 156.294 88.3581 169.461 90.9357L172.218 86.3875L200.658 84.1667C200.658 84.1667 210.043 104.978 204.904 118.241C204.149 120.189 202.649 121.439 200.089 121.482C200.089 121.485 199.676 121.482 199.673 121.482C199.673 121.482 182.747 121.473 177.25 121.473C163.106 121.473 147.318 111.752 145.274 111.343C141.931 110.674 140.594 117.361 137.251 124.38C133.907 131.402 105.824 155.472 105.824 155.472C105.824 155.472 101.508 155.516 99.7259 154.847C97.8075 154.129 97.1074 153.195 97.1074 153.195C97.1074 153.195 128.225 91.2812 138.589 87.9376Z" fill="#2B478B"/>
<path d="M164.291 46.849C173.26 54.143 194.872 66.7853 194.99 66.7307C194.99 66.7307 201.914 70.8789 206.637 68.8423C214.508 65.451 220.554 53.577 209.664 40.4392C204.234 33.8862 199.732 31.7291 200.788 23.019C201.934 13.5816 197.672 1.71666 186.81 1.2166C185.903 1.17569 180.402 0.43924 176.474 1.67347C166.469 4.81245 149.737 42.0166 164.291 46.849Z" fill="#24356C"/>
<path d="M193.711 35.8205C193.756 35.8273 191.524 40.6937 188.276 41.8734C184.824 43.1326 179.921 41.087 179.966 41.0597C180.553 40.7256 180.971 38.5117 180.744 35.85C180.732 35.725 180.723 35.5954 180.707 35.4659C180.403 32.486 179.541 29.2265 179.487 29.0129C179.484 29.0061 179.484 29.0038 179.484 29.0038L190.011 25.9944L190.636 25.8171C191.295 34.1316 192.281 35.6591 193.711 35.8205Z" fill="#FFD5B9"/>
<path d="M190.008 25.9921C188.988 29.0515 186.383 34.5771 180.707 35.4636C180.403 32.4837 179.541 29.2242 179.487 29.0106C179.484 29.0038 179.484 29.0015 179.484 29.0015L190.008 25.9921Z" fill="#F0A36E"/>
<path d="M177.732 32.17C177.732 32.17 191.92 31.2268 191.197 22.4008C190.474 13.5748 191.818 7.5082 182.728 7.73778C173.638 7.96735 172.156 11.4791 171.681 14.484C171.206 17.4889 174.022 32.1882 177.732 32.17Z" fill="#FFD5B9"/>
<path d="M175.182 7.58092C175.182 7.58092 178.707 17.9253 187.076 19.1277C193.181 20.005 195.607 18.3548 195.607 18.3548C195.607 18.3548 192.199 15.1159 190.352 10.1357C189.806 8.6674 188.519 7.5991 186.974 7.36044C182.628 6.68537 177.018 3.80777 175.182 7.58092Z" fill="#24356C"/>
<path d="M178.189 9.41068C178.189 9.41068 175.657 10.4335 173.888 14.2158C172.922 16.2819 172.225 21.2052 172.82 23.2327C172.82 23.2327 168.74 13.7953 171.695 9.54025C174.827 5.03065 178.189 9.41068 178.189 9.41068Z" fill="#24356C"/>
<path d="M205.522 68.3923C205.27 69.4628 205.054 70.4493 204.879 71.3585C204.59 72.8268 204.392 74.0906 204.254 75.2089C203.822 78.6889 203.951 80.7527 203.66 83.0075C203.499 84.269 203.201 85.5919 202.601 87.2535C202.015 88.8695 186.638 90.3106 177.889 89.731C175.112 89.5514 172.996 89.1582 172.243 88.5104C169.122 85.7987 169.434 91.7608 169.007 63.2371C168.8 49.3242 180.812 36.9319 180.812 36.9319C180.812 36.9319 181.772 42.8758 193.687 35.8023C194.109 35.5545 198.801 42.503 203.317 51.0585C208.29 60.5073 206.927 62.5075 205.522 68.3923Z" fill="#B8D9F2"/>
<path d="M138.473 136.793L147.63 161.439C147.63 161.439 150.117 161.68 152.497 160.994C154.688 160.359 157.202 158.702 157.202 158.702C157.202 158.702 154.659 132.238 149.915 117.048L138.473 136.793Z" fill="#2B478B"/>
<path d="M180.809 36.9297C180.809 36.9297 168.551 39.0072 167.11 44.2873C165.669 49.5674 155.725 79.0844 155.725 79.0844C155.725 79.0844 163.43 81.7142 166.31 78.8343C169.19 75.9545 176.327 52.1245 176.327 52.1245L180.809 36.9297Z" fill="#B8D9F2"/>
<path d="M180.098 26.5012C180.098 26.5012 179.75 28.0309 178.204 28.2878C176.659 28.5446 176.202 28.3832 175.856 28.1036C175.508 27.8241 175.115 27.2422 175.115 27.2422C175.115 27.2422 177.593 26.3103 180.098 26.5012Z" fill="white"/>
<path d="M204.252 75.2089C203.82 78.6889 203.949 80.7527 203.658 83.0075C192.528 83.0439 177.646 74.4111 177.646 74.4111L204.252 75.2089Z" fill="#85BCE4"/>
<path d="M177.645 67.1126C177.645 67.1126 194.985 66.5966 197.908 56.7387C201.12 45.9102 204.716 61.1914 204.716 61.1914L202.802 70.9448H183.777L177.645 67.1126Z" fill="#85BCE4"/>
<path d="M181.166 83.4576L154.263 83.7076L141.025 52.5973L167.928 52.345L181.166 83.4576Z" fill="#3683BC"/>
<path d="M177.647 69.3969L175.674 66.9739C175.674 66.9739 174.34 65.7829 173.372 65.5806C172.403 65.3783 170.358 64.1986 170.16 64.5305C169.962 64.8623 171.731 67.233 171.731 67.233L171.821 67.2467C169.789 68.7741 164.662 67.4263 164.03 68.049C163.261 68.8037 165.087 70.438 166.064 71.354C167.041 72.27 169.839 73.7997 172.021 73.1201C173.615 72.6246 176.124 72.12 176.124 72.12L177.647 69.3969Z" fill="#FFD5B9"/>
<path d="M193.685 35.8045C193.685 35.8045 204.941 36.541 207.755 40.9324C210.569 45.3215 214.058 67.6104 212.597 75.2658C211.133 82.9212 175.088 73.802 175.088 73.802L176.238 67.1603C176.238 67.1603 197.04 67.2808 198.227 64.5714C199.802 60.9664 193.685 35.8045 193.685 35.8045Z" fill="#B8D9F2"/>
<path d="M143.046 58.0684C143.046 58.0684 144.737 56.1477 145.812 57.0683C146.887 57.9911 145.53 62.5257 144.505 62.0643C143.482 61.6051 142.457 58.6321 143.046 58.0684Z" fill="#FFD5B9"/>
<g opacity="0.7">
<path opacity="0.7" d="M266.494 26.2466L235.463 30.6721L256.056 16.6365L257.102 21.137L264.648 22.503L266.494 26.2466Z" fill="#B8D9F2"/>
<path opacity="0.7" d="M235.463 30.6722L261.286 17.3593L286.594 16.0865L235.463 30.6722Z" fill="white"/>
<path opacity="0.7" d="M256.056 16.6365L235.463 30.6722L251.403 8.73563L256.056 16.6365Z" fill="white"/>
</g>
<path d="M107.001 357.456H105.194C95.7496 355.62 62.3254 348.398 62.6072 338.166C62.9164 327.105 101.491 353.613 107.001 357.456Z" fill="#E4EAF0"/>
<path d="M121.581 357.456H114.707C97.3441 346.116 71.348 326.648 73.3755 312.867C76.3963 292.313 93.88 318.847 99.5716 329.258C103.115 335.736 113.925 348.639 121.581 357.456Z" fill="#E4EAF0"/>
<path d="M37.8187 198.801L27.6085 212.505C27.4585 212.708 27.2766 212.873 27.0789 213.005C26.3583 213.485 25.3832 213.485 24.6491 212.937L0.848671 195.206C0.112225 194.655 -0.162806 193.717 0.0940411 192.887C0.162231 192.662 0.271334 192.446 0.419077 192.248L10.6248 178.549C11.3226 177.613 12.6454 177.419 13.5819 178.115L37.3823 195.847C38.3142 196.544 38.512 197.863 37.8187 198.801Z" fill="#E4EAF0"/>
<path d="M27.0789 213.005C26.3583 213.485 25.3832 213.485 24.6491 212.937L0.848671 195.206C0.112225 194.656 -0.162806 193.717 0.0940411 192.887L19.4348 196.41L27.0789 213.005Z" fill="#B8D9F2"/>
<path d="M37.8199 198.801L17.4608 198.27L10.1055 179.252L10.6283 178.551C11.3261 177.615 12.6489 177.422 13.5854 178.117L37.3858 195.849C38.3154 196.544 38.5132 197.863 37.8199 198.801Z" fill="#DFEBFD"/>
<path d="M331.24 273.933L339.947 321.888C340.075 322.595 340.073 323.297 339.959 323.966C339.554 326.403 337.657 328.434 335.09 328.899L251.806 344.022C249.226 344.491 246.732 343.236 245.502 341.084C245.169 340.504 244.928 339.858 244.802 339.165L236.098 291.23C235.503 287.95 237.674 284.815 240.947 284.221L324.231 269.098C327.501 268.505 330.633 270.663 331.24 273.933Z" fill="#3683BC"/>
<path d="M339.957 323.967C339.552 326.403 337.656 328.434 335.088 328.899L251.805 344.022C249.224 344.491 246.731 343.236 245.5 341.084L290.481 307.608L339.957 323.967Z" fill="#2575AF"/>
<path d="M331.24 273.933L290.513 315.35L236.546 293.683L236.1 291.23C235.505 287.95 237.676 284.815 240.949 284.221L324.233 269.098C327.501 268.505 330.633 270.663 331.24 273.933Z" fill="#58A7E1"/>
<path d="M285.099 307.466C285.52 305.923 286.202 304.887 287.648 304.871C289.822 304.847 290.582 306.09 290.945 307.49C291.436 309.383 289.46 310.079 288.023 310.225C285.965 310.437 284.719 308.862 285.099 307.466Z" fill="#2B478B"/>
</svg>
