<svg width="468" height="515" viewBox="0 0 468 515" fill="none" xmlns="http://www.w3.org/2000/svg">
<path d="M5.71787 20.6226C14.1712 6.13074 39.2877 18.1073 39.2877 18.1073C39.2877 18.1073 49.8643 50.2753 54.9104 52.3272C59.9566 54.379 51.25 23.0635 51.25 23.0635C61.6279 24.8006 84.0723 44.0925 84.0723 44.0925C84.0723 44.0925 73.841 75.5667 79.2373 76.315C84.6336 77.0659 86.8711 47.9856 86.8711 47.9856C95.8707 53.5439 101.938 67.3915 101.938 67.3915C108.357 89.0177 80.1983 96.1248 80.1983 96.1248C80.1983 96.1248 76.888 107.108 80.32 121.647C80.32 121.647 81.2339 124.407 81.733 128.813L79.0634 128.097C79.0386 127.324 78.984 126.571 78.8971 125.835C78.8996 125.83 78.8971 125.825 78.8946 125.822C78.8946 125.812 78.8921 125.8 78.8896 125.79C78.8176 125.329 78.7133 124.672 78.5767 123.872V123.869C78.5767 123.867 78.5742 123.867 78.5767 123.865C78.1918 122.053 77.9559 120.727 77.8367 119.786C77.8367 119.783 77.8367 119.781 77.8367 119.778C76.7415 114.123 74.9759 106.664 72.9966 104.667C72.9966 104.667 73.4039 104.332 73.8981 103.599C73.61 103.938 73.312 104.295 72.9966 104.667C65.7949 113.209 42.5161 108.709 30.4917 102.689C18.4674 96.67 24.9812 94.576 33.3997 90.6012C41.8182 86.6263 55.7647 92.0112 60.6196 90.8713C65.4771 89.7314 59.8895 85.7863 51.2301 84.1631C42.5707 82.5375 36.047 89.8652 21.9912 87.4912C7.93549 85.1172 4.42405 56.5895 4.42405 56.5895C13.0984 62.0586 31.4702 61.4019 32.9999 58.3217C34.5296 55.2414 9.31623 48.8232 5.66323 46.7961C2.01272 44.7666 -2.73544 35.1144 5.71787 20.6226Z" fill="#E4EAF0"/>
<path d="M58.6708 82.6712H187.484V116.701H95.888V152.918H176.607V186.947H95.888V252.82H58.6708V82.6712Z" fill="#B8D9F2"/>
<path d="M115.265 74.4996C118.183 79.9126 122.04 82.6291 122.04 82.6291H138.104C138.104 82.6291 113.04 70.3703 115.265 74.4996Z" fill="#24356C"/>
<path d="M126.452 116.075C126.857 116.565 126.895 117.1 126.673 117.667C126.673 117.669 126.671 117.672 126.668 117.674C126.258 118.719 124.961 119.866 123.463 121.003C123.272 121.149 123.1 121.281 122.953 121.406C122.914 121.438 122.876 121.47 122.839 121.503C122.809 121.527 122.779 121.555 122.749 121.577C121.346 122.801 121.854 123.105 119.326 125.595C116.444 128.433 114.513 128.433 113.971 128.152C113.513 127.913 114.498 126.393 115.591 124.684C115.643 124.602 115.695 124.518 115.75 124.435C115.894 124.209 116.041 123.978 116.185 123.749C117.467 121.692 117.181 120.702 116.974 117.58C116.807 115.045 113.423 103.343 113.423 103.343L118.82 102.565C118.82 102.565 120.186 111.846 121.928 113.318C122.861 114.102 123.926 114.142 124.827 114.729C124.892 114.769 124.954 114.811 125.014 114.853C125.526 115.214 126.046 115.582 126.452 116.075Z" fill="#FFD5B9"/>
<path d="M126.452 116.075C126.858 116.565 126.895 117.1 126.674 117.667C126.674 117.669 126.671 117.672 126.669 117.674C126.171 118.716 124.91 119.856 123.459 120.993C123.27 121.142 123.103 121.279 122.954 121.406C122.914 121.438 122.877 121.47 122.839 121.503C122.81 121.527 122.78 121.555 122.75 121.577C121.347 122.801 121.854 123.105 119.326 125.595C116.445 128.433 114.514 128.433 113.971 128.152C113.514 127.913 114.499 126.393 115.591 124.684C116.141 124.5 118.704 123.54 120.687 121.139C122.434 119.032 123.633 116.296 124.828 114.726C124.892 114.766 124.954 114.809 125.014 114.851C125.527 115.214 126.047 115.582 126.452 116.075Z" fill="#24356C"/>
<path d="M83.2395 111.542C82.8638 113.192 80.5074 112.851 77.8848 112.132C75.2622 111.415 75.8693 112.199 72.122 111.682C68.3747 111.164 67.2749 109.731 67.1753 109.169C67.0858 108.672 68.947 108.547 70.9451 108.371C71.1964 108.348 71.4477 108.326 71.7015 108.301C73.9583 108.08 75.6429 106.674 77.7181 105.54C79.6838 104.465 82.6946 99.9452 82.6946 99.9452L87.8353 100.492C87.8353 100.492 85.0186 104.525 83.9237 106.281C83.2793 107.313 83.2743 108.704 83.3216 109.779C83.349 110.363 83.3714 110.96 83.2395 111.542Z" fill="#FFD5B9"/>
<path d="M77.8848 112.132C75.2622 111.415 75.8693 112.199 72.122 111.682C68.3747 111.164 67.2749 109.731 67.1753 109.169C67.0858 108.672 68.947 108.547 70.945 108.371L70.9625 108.41C70.9625 108.41 73.172 110.07 76.2973 110.229C78.8452 110.361 81.5649 109.704 83.3241 109.781C83.349 110.366 83.3689 110.963 83.237 111.542C82.8613 113.189 80.5074 112.848 77.8848 112.132Z" fill="#24356C"/>
<path d="M103.886 79.139L108.35 92.2287L114.177 109.321C114.177 109.321 115.879 109.532 117.526 109.107C119.042 108.714 120.801 107.622 120.801 107.622C120.801 107.622 119.549 89.4053 116.576 78.8878C115.815 76.1887 114.936 73.9972 113.938 72.7509C109.051 66.6464 103.886 79.139 103.886 79.139Z" fill="#24356C"/>
<path d="M109.343 58.6911C112.525 57.7582 121.493 59.3105 130.486 61.3279L132.464 58.2582L152.036 57.2657C152.036 57.2657 158.09 71.7285 154.316 80.736C153.761 82.0594 152.78 82.649 151.024 82.6291C151.024 82.6291 150.879 82.6291 150.675 82.6291C150.675 82.6291 139.048 82.7311 135.273 82.6291C125.561 82.3654 114.894 75.2037 113.498 74.8853C111.214 74.3629 110.172 78.9301 107.746 83.6863C105.319 88.4426 85.5827 104.443 85.5827 104.443C85.5827 104.443 82.6192 104.391 81.405 103.898C80.1011 103.368 79.6383 102.714 79.6383 102.714C79.6383 102.714 102.164 60.7931 109.343 58.6911Z" fill="#24356C"/>
<path d="M133.311 31.3724C140.161 35.3898 154.053 43.7108 154.128 43.661C154.128 43.661 159.261 45.7556 162.254 43.8824C167.246 40.7605 170.115 32.0714 161.353 24.2853C156.984 20.4021 153.831 19.4021 153.513 13.3847C153.339 10.121 149.178 -0.752266 141.751 0.0412728C141.131 0.108438 140.504 0.150721 139.882 0.113407C139.019 0.061168 137.588 0.148231 136.1 0.981572C131.843 3.3597 122.925 29.6062 133.311 31.3724Z" fill="#24356C"/>
<path d="M139.228 28.2728C139.196 28.2927 142.617 29.5639 144.953 28.6062C147.151 27.7057 148.895 24.1783 148.862 24.1758C147.875 24.1036 146.815 23.2106 146.133 17.5215L145.707 17.6608L138.566 20.0116C138.566 20.0116 139.017 22.2952 139.29 24.4643C139.519 26.2853 139.621 28.0266 139.228 28.2728Z" fill="#FFD5B9"/>
<path d="M138.566 20.0116C138.566 20.0116 139.017 22.2952 139.29 24.4644C143.373 23.845 145.078 19.8399 145.71 17.6608L138.566 20.0116Z" fill="#ED975D"/>
<path d="M137.45 22.2355C137.45 22.2355 147.162 21.2007 146.425 15.1633C145.686 9.12592 146.445 4.92687 140.212 5.33235C133.979 5.73783 133.058 8.1881 132.814 10.2627C132.571 12.3374 134.905 22.3499 137.45 22.2355Z" fill="#FFD5B9"/>
<path d="M133.259 6.97666C133.259 6.97666 139.308 12.4817 143.511 13.0264C147.713 13.5712 149.346 12.2628 149.346 12.2628C149.346 12.2628 146.917 10.1334 145.514 6.76521C145.101 5.77266 144.187 5.07365 143.12 4.95176C140.117 4.61345 134.416 4.33982 133.259 6.97666Z" fill="#24356C"/>
<path d="M137.142 6.60353C137.142 6.60353 135.014 8.55131 134.323 10.019C133.653 11.4369 133.372 14.8598 133.835 16.2355C133.835 16.2355 130.777 9.86972 132.688 6.86969C134.716 3.69056 137.142 6.60353 137.142 6.60353Z" fill="#24356C"/>
<path d="M130.689 42.3028C130.448 61.8951 130.348 57.7955 132.438 59.7135C132.943 60.1762 134.387 60.4821 136.293 60.6588C142.289 61.2209 152.874 60.5194 153.307 59.4199C154.798 55.6189 153.852 54.3975 155.168 48.5517C155.305 47.9298 155.474 47.2581 155.669 46.5243C156.743 42.5118 157.719 41.1635 154.474 34.5839C151.533 28.6236 148.443 23.7678 148.147 23.932C139.833 28.5639 139.286 24.4644 139.286 24.4644C139.286 24.4644 130.806 32.7455 130.689 42.3028Z" fill="white"/>
<path d="M108.347 92.2287L114.175 109.321C114.175 109.321 115.877 109.532 117.524 109.107C119.039 108.714 120.799 107.622 120.799 107.622C120.799 107.622 119.547 89.4053 116.574 78.8878L108.347 92.2287Z" fill="#24356C"/>
<path d="M139.291 24.4644C139.291 24.4644 130.834 25.6609 129.746 29.2579C128.659 32.855 122.262 53.9969 122.262 53.9969C122.262 53.9969 126.519 54.8825 128.552 52.9596C130.582 51.0367 135.93 34.8102 135.93 34.8102L139.291 24.4644Z" fill="white"/>
<path d="M136.296 60.6587C142.293 61.2209 152.878 60.5194 153.31 59.4199C154.801 55.6189 153.855 54.3975 155.172 48.5516L152.497 40.3177C152.497 40.3177 152.728 49.4124 149.984 51.7283C147.242 54.0442 138.889 56.0418 137.533 58.002C136.876 58.9423 136.438 59.8901 136.296 60.6587Z" fill="#EBF3FF"/>
<path d="M143.281 57.0269C143.281 57.0269 137.391 55.5468 136.421 56.0468C135.451 56.5468 133.062 58.3975 132.751 59.0567C132.44 59.716 134.893 58.609 135.687 58.4199C136.199 58.298 137.531 58.8005 138.19 59.0393C140.962 60.0468 142.689 59.614 142.689 59.614L143.281 57.0269Z" fill="#FFD5B9"/>
<path d="M148.154 23.9271C148.154 23.9271 156.097 24.6335 158.747 28.549C162.477 34.0615 169.541 57.3129 165.05 60.2657C159.991 63.5916 142.431 60.5568 142.431 60.5568C142.431 60.5568 141.919 57.798 142.772 56.4945C143.626 55.191 156.948 53.4099 157.577 52.8154C158.207 52.2209 150.25 40.671 150.299 38.8352C150.349 36.9993 148.154 23.9271 148.154 23.9271Z" fill="white"/>
<path d="M136.09 57.6861C136.09 57.6861 134.803 59.2532 134.393 59.4323C133.98 59.6115 133.718 59.5567 133.718 59.5567L134.597 58.0741L136.09 57.6861Z" fill="#FFD5B9"/>
<path d="M136.422 56.0467L132.765 57.701C132.765 57.701 132.911 57.9572 133.357 57.9472C133.802 57.9398 134.934 57.5592 134.934 57.5592L136.422 56.0467Z" fill="#FFD5B9"/>
<path d="M134.33 61.8876L105.774 61.109L97.7647 39.5192L126.278 40.2953L134.33 61.8876Z" fill="#3683BC"/>
<path d="M105.462 60.2682L143.171 61.2955L143.149 62.1264L105.775 61.109L105.462 60.2682Z" fill="#3683BC"/>
<path d="M113.273 50.6288C113.079 49.8726 113.529 49.2756 114.281 49.2955C115.032 49.3154 115.798 49.9447 115.993 50.7034C116.187 51.4597 115.736 52.0567 114.985 52.0368C114.233 52.0144 113.467 51.385 113.273 50.6288Z" fill="white"/>
<path d="M229.416 137.997C240.053 123.187 265.68 138.938 265.68 138.938C265.68 138.938 273.529 175.026 278.717 177.806C283.905 180.585 277.966 145.628 277.966 145.628C288.904 148.65 310.875 172.054 310.875 172.054C310.875 172.054 296.493 205.11 302.197 206.516C307.902 207.922 313.455 176.59 313.455 176.59C322.502 183.609 327.501 199.309 327.501 199.309C332.038 223.494 301.078 228.133 301.078 228.133C301.078 228.133 296.339 239.697 298.438 255.859C298.438 255.859 299.119 258.956 299.175 263.794L296.39 262.725C296.447 261.882 296.471 261.058 296.458 260.251C296.46 260.245 296.46 260.24 296.458 260.237C296.458 260.226 296.458 260.213 296.458 260.202C296.431 259.693 296.39 258.97 296.331 258.086V258.083C296.331 258.08 296.331 258.08 296.331 258.078C296.113 256.068 296.006 254.605 295.981 253.569C295.981 253.566 295.981 253.563 295.981 253.558C295.419 247.298 294.337 239.006 292.432 236.621C292.432 236.621 292.906 236.303 293.514 235.56C293.169 235.9 292.809 236.251 292.432 236.621C283.787 245.108 259.314 237.676 247.076 229.822C234.838 221.971 242.047 220.41 251.505 217.016C260.963 213.622 275.329 220.994 280.66 220.287C285.99 219.58 280.428 214.688 271.32 211.974C262.212 209.262 254.424 216.504 239.611 212.387C224.799 208.27 224.131 176.911 224.131 176.911C232.836 183.8 252.605 185.097 254.58 181.918C256.556 178.739 230.218 169.014 226.523 166.414C222.824 163.811 218.782 152.811 229.416 137.997Z" fill="#E4EAF0"/>
<path d="M426.439 251.52C426.439 251.52 412.46 250.484 407.983 252.563L401.789 236.356C404.366 235.308 407.611 235.33 411.674 237.275C411.674 237.275 421.934 243.697 426.439 251.52Z" fill="#E4EAF0"/>
<path d="M432.612 306.254L409.264 250.775C415.293 251.691 429.37 248.838 429.37 248.838C429.37 248.838 444.454 266.904 446.291 274.582C446.291 274.582 423.391 265.329 425.15 269.174C426.906 273.019 450.52 283.708 450.52 283.708C450.52 283.708 460.529 303.02 450.647 307.775C441.781 312.047 435.088 308.979 432.612 306.254Z" fill="#E4EAF0"/>
<path d="M326.372 136.893H362.734L439.56 318.267H398.332L381.942 277.877H306.143L289.753 318.267H249.549L326.372 136.893ZM367.86 242.888L344.045 184.487L320.231 242.888H367.86Z" fill="#B8D9F2"/>
<path d="M348.514 185.577C349.236 187.514 350.483 189.762 351.794 190.32C353.28 190.955 353.899 191.85 353.899 191.85L355.098 191.153L356.53 190.32C356.53 190.32 356.497 190.16 356.427 189.903C356.359 189.645 356.25 189.284 356.104 188.889C356.104 188.889 355.664 188.324 355.933 187.614C356.202 186.906 356.147 185.811 355.689 185.141C355.23 184.474 354.786 182.827 354.509 182.876C353.839 182.99 354.837 185.252 354.552 185.672C354.292 186.052 353.969 185.922 353.909 185.892C353.907 185.889 353.901 185.889 353.899 185.886C352.019 185.059 349.74 180.606 348.731 181.206C348.354 181.431 348.207 184.753 348.514 185.577Z" fill="#FFD5B9"/>
<path d="M355.019 188.273L352.665 189.927C352.499 190.044 352.266 190.003 352.149 189.838L346.116 181.257C346 181.092 346.04 180.859 346.206 180.742L348.56 179.088C348.726 178.971 348.959 179.012 349.076 179.177L355.109 187.758C355.225 187.926 355.185 188.156 355.019 188.273Z" fill="#2B478B"/>
<path d="M352.862 189.789L351.481 190.76C351.353 190.849 351.177 190.817 351.088 190.692L344.954 181.968C344.865 181.84 344.897 181.664 345.022 181.577L346.403 180.606C346.53 180.517 346.707 180.549 346.796 180.674L352.929 189.398C353.019 189.523 352.989 189.699 352.862 189.789Z" fill="#233862"/>
<path d="M388.796 175.961C388.796 175.961 376.814 196.853 372.466 200.699L356.527 188.818C356.527 188.818 354.213 189.529 353.201 191.847C353.201 191.847 362.88 211.56 372.409 212.398C381.939 213.236 395.315 188.769 395.315 188.769L388.796 175.961Z" fill="#233862"/>
<path d="M415.911 318.062H422.834C423.705 317.59 424.483 316.505 424.728 314.892C425.067 312.663 427.565 311.445 428.107 309.623C428.647 307.8 425.878 305.232 425.878 305.232L425.414 304.635L424.931 304.014L420.336 305.096C420.336 305.096 420.222 306.192 420.154 307.583C420.105 308.589 420.078 309.75 420.135 310.77C420.271 313.202 419.454 315.819 417.292 316.294C415.695 316.644 415.765 317.593 415.911 318.062Z" fill="#233862"/>
<path d="M375.735 318.062H391.566C392.328 317.135 392.046 313.704 391.932 312.587C391.907 312.362 391.891 312.229 391.891 312.229C391.891 312.229 386.485 307.906 385.742 311.215C385.72 311.318 385.693 311.421 385.663 311.521C384.727 314.618 380.531 316.025 378.108 316.416C376.532 316.674 375.952 317.493 375.735 318.062Z" fill="#233862"/>
<path d="M378.751 229.714C378.751 229.714 379.573 239.954 380.535 252.263C381.846 268.982 383.424 289.522 383.579 293.411C383.848 300.166 384.93 310.973 384.93 310.973C384.93 310.973 387.496 313.541 392.634 312.459C392.634 312.459 397.21 297.031 398.517 280.708C398.536 280.44 398.558 280.171 398.577 279.903C399.792 263.287 401.686 228.295 401.686 228.295L378.751 229.714Z" fill="#3683BC"/>
<path d="M378.751 229.714C378.751 229.714 379.573 239.954 380.536 252.263L398.52 280.711C398.539 280.443 398.561 280.174 398.58 279.906C399.795 263.29 401.689 228.298 401.689 228.298L378.751 229.714Z" fill="#2171AB"/>
<path d="M382.5 230.928C382.5 230.928 397.298 268.011 407.028 285.441C416.758 302.87 419.799 307.732 419.799 307.732C419.799 307.732 425.373 305.503 425.881 303.985C425.881 303.985 422.159 270.341 415.643 262.14C411.962 257.505 407.635 243.599 407.435 238.733C407.231 233.871 406.116 224.244 406.116 224.244L382.5 230.928Z" fill="#3683BC"/>
<path d="M386.183 176.869C391.966 178.694 401.971 173.77 401.971 173.77C401.971 173.77 396.64 169.77 396.92 161.452L392.449 165.054L389.411 167.5C389.411 167.5 389.425 168.942 389.756 171.47C389.842 172.134 389.954 172.875 390.089 173.686C387.607 175.05 386.183 176.869 386.183 176.869Z" fill="#FFD5B9"/>
<path d="M389.411 167.502C389.411 167.502 389.424 168.945 389.755 171.473C393.122 170.895 396.938 165.458 396.938 165.458C395.224 164.964 393.724 164.875 392.449 165.056L389.411 167.502Z" fill="#ED975D"/>
<path d="M387.641 167.364C387.641 167.364 397.193 168.951 398.088 162.99C398.986 157.029 400.822 153.219 394.762 151.952C388.702 150.689 387.172 152.785 386.388 154.699C385.604 156.62 385.181 166.797 387.641 167.364Z" fill="#FFD5B9"/>
<path d="M378.114 230.565C378.287 230.709 378.491 230.796 378.721 230.796C380.892 230.766 387.226 231.973 392.583 231.422C397.1 230.988 401.098 229.651 405.389 227.728C405.959 227.474 407.272 226.774 407.242 226.137C407.223 225.44 407.153 224.428 407.066 223.153C406.762 218.722 406.233 211.104 406.748 202.312C406.841 200.674 406.889 199.053 406.895 197.453C406.938 185.539 404.576 175.06 399.828 171.513C399.422 171.223 396.934 172.438 394.645 173.566C392.531 174.608 390.418 174.724 388.419 174.32L386.423 176.086C383.989 178.345 381.326 181.412 380.167 186.074C379.183 190.038 378.605 197.19 378.285 204.601C378.141 207.959 378.024 211.346 377.994 214.559V214.673C377.967 214.991 377.967 215.34 377.967 215.658C377.853 223.907 377.97 230.448 378.114 230.565Z" fill="#2B478B"/>
<path d="M407.067 223.153C406.763 218.722 406.234 211.104 406.75 202.312C406.842 200.674 406.891 199.053 406.896 197.453C404.919 192.655 403.302 189.176 403.302 189.176H398.316C398.316 189.176 394.659 214.139 407.067 223.153Z" fill="#233862"/>
<path d="M432.606 251.441L411.341 254.471C408.575 254.864 405.987 252.925 405.593 250.156L404.28 240.944C403.887 238.177 405.827 235.59 408.596 235.197L429.861 232.168C432.627 231.775 435.215 233.714 435.609 236.483L436.922 245.695C437.315 248.461 435.373 251.048 432.606 251.441Z" fill="#233862"/>
<path d="M407.393 237.944C407.99 236.447 409.281 235.268 410.917 234.866H410.919C411.08 234.828 411.242 234.796 411.41 234.771L415.645 234.169L415.363 232.181C415.298 231.739 415.412 231.295 415.683 230.934C415.954 230.573 416.347 230.34 416.792 230.278L417.896 230.12L422.342 229.486L423.143 229.372C424.059 229.242 424.917 229.882 425.047 230.801L425.329 232.789L432.637 231.747C435.415 231.352 438.011 233.299 438.407 236.076L439.733 245.397C440.129 248.174 438.181 250.769 435.404 251.165L414.177 254.189C413.803 254.243 413.431 254.254 413.071 254.224C413.071 254.224 413.071 254.224 413.068 254.224C412.487 254.18 411.929 254.034 411.41 253.806C409.851 253.117 408.665 251.664 408.408 249.858L407.078 240.539C406.954 239.631 407.073 238.744 407.393 237.944ZM424.003 230.95C423.962 230.674 423.745 230.462 423.482 230.419C423.419 230.408 423.357 230.408 423.292 230.416L422.348 230.549L418.849 231.048L416.942 231.319C416.6 231.368 416.358 231.688 416.407 232.03L416.689 234.017L424.285 232.935L424.003 230.95Z" fill="#2B478B"/>
<path d="M416.438 224.01C416.438 224.01 417.555 225.497 417.599 226.09C417.9 230.118 416.058 230.676 420.824 232.914C420.824 232.914 422.859 233.689 422.894 232.111C422.929 230.533 421.481 230.505 421.746 228.295C422.05 225.746 422.02 225.722 420.347 224.39L419.237 222.56L416.438 224.01Z" fill="#FFD5B9"/>
<path d="M419.273 225.149C417.477 225.499 415.532 225.358 415.532 225.358C415.532 225.358 410.202 208.897 409.516 207.392C408.83 205.889 393.682 188.091 393.682 188.091L399.992 172.305C399.992 172.305 416.373 199.663 418.036 203.506C420.784 209.857 421.739 224.1 421.739 224.1C421.739 224.1 420.684 224.876 419.273 225.149Z" fill="#2B478B"/>
<path d="M398.098 162.415C398.098 162.415 397.119 162.252 397.276 160.902C397.433 159.551 397.433 157.788 396.335 158.117C395.236 158.445 395.182 159.323 394.732 158.811C394.281 158.298 394.273 156.137 391.007 155.985C387.741 155.833 386.415 156.972 384.896 156.302C383.376 155.635 383.298 153.335 383.298 153.335C383.298 153.335 383.729 154.157 384.383 154.417C384.383 154.417 381.849 150.952 384.782 148.576C387.714 146.2 390.706 147.754 392.404 147.857C396.145 148.082 398.562 148.308 399.782 150.765C401.003 153.222 400.499 160.05 398.098 162.415Z" fill="#2B478B"/>
<path d="M418.196 225.781C418.196 225.781 417.122 226.901 417.054 227.368C416.837 228.865 416.336 229.51 416.588 229.673C417.109 230.012 417.798 228.903 418.126 227.91C418.454 226.918 418.196 225.781 418.196 225.781Z" fill="#FFD5B9"/>
<path d="M162.252 504.405L110.117 504.266C111.205 501.964 104.553 497.254 94.9242 494.298C82.6667 490.534 72.0293 500.06 52.088 494.336C32.1496 488.609 31.7505 446.817 31.7505 446.817C43.396 456.137 70.0751 458.186 72.7951 453.983C75.5121 449.779 40.0995 436.395 35.1504 432.87C30.2013 429.345 24.9181 414.619 39.523 395.06C54.125 375.497 88.488 396.902 88.488 396.902C88.488 396.902 98.5074 445.111 105.47 448.901C112.429 452.689 104.973 406.015 104.973 406.015C119.702 410.218 148.998 441.756 148.998 441.756C148.998 441.756 129.039 485.565 136.723 487.528C144.406 489.491 152.41 447.84 152.41 447.84C164.516 457.34 171.015 478.338 171.015 478.338C173.146 490.351 168.688 498.681 162.252 504.405Z" fill="#E4EAF0"/>
<path d="M208.089 495.645C191.621 506.246 171.804 512.383 150.032 512.383C89.7418 512.383 46.4771 467.473 46.4771 411.404C46.4771 355.893 90.2985 310.425 150.588 310.425C210.878 310.425 254.143 355.334 254.143 411.404C254.143 431.767 248.002 451.292 236.838 467.471L256.935 484.485L229.582 514.89L208.089 495.645ZM176.271 467.471C176.271 467.471 195.773 457.443 203.904 438.74C207.438 430.608 209.208 421.722 209.208 411.404C209.208 377.928 184.644 350.036 150.035 350.036C115.425 350.036 91.4205 377.372 91.4205 411.404C91.4205 444.876 115.985 472.771 150.594 472.771C160.08 472.771 168.735 470.82 176.271 467.471Z" fill="#B8D9F2"/>
<path d="M153.322 408.284C153.322 408.284 150.022 413.164 148.141 423.425C146.492 432.412 145.047 435.729 142.667 437.572C140.287 439.415 127.027 444.854 127.027 444.854L128.018 447.178C128.018 447.178 147.453 444.53 149.636 441.284C151.818 438.038 160.141 418.849 159.495 414.429C158.849 410.009 153.322 408.284 153.322 408.284Z" fill="#FFD5B9"/>
<path d="M99.3585 510.869C99.1609 512.762 96.483 512.7 93.4541 512.252C90.4281 511.806 91.2096 512.599 86.9538 512.526C82.698 512.452 81.2764 511.001 81.0877 510.388C80.9196 509.843 82.9841 509.453 85.1931 508.988C85.4703 508.929 85.7505 508.87 86.0277 508.808C88.5199 508.256 90.2128 506.458 92.3776 504.91C94.4273 503.441 97.182 497.987 97.182 497.987L103.001 497.904C103.001 497.904 100.4 502.79 99.4146 504.901C98.8335 506.142 99.0164 507.696 99.214 508.89C99.3231 509.539 99.4293 510.202 99.3585 510.869Z" fill="#FFD5B9"/>
<path d="M93.454 512.251C90.4281 511.806 91.2096 512.599 86.9538 512.526C82.698 512.452 81.2764 511.001 81.0877 510.388C80.9196 509.843 82.9841 509.453 85.1931 508.987L85.2167 509.029C85.2167 509.029 87.9094 510.583 91.4249 510.341C94.2887 510.143 97.2409 509.043 99.2169 508.89C99.3231 509.539 99.4263 510.202 99.3585 510.869C99.1609 512.762 96.4829 512.7 93.454 512.251Z" fill="#3683BC"/>
<path d="M162.41 447.995C162.41 447.995 124.26 448.18 117.141 452.674C110.021 457.167 93.8091 503.444 93.8091 503.444C93.8091 503.444 95.0714 505.107 96.6404 505.322C99.1561 505.667 100.581 504.686 100.581 504.686C100.581 504.686 122.302 483.085 123.458 477.188C124.614 471.288 124.331 466.025 126.965 465.883C129.599 465.742 162.412 469.873 167.376 461.13C172.34 452.388 168.237 443.734 168.237 443.734L162.41 447.995Z" fill="#2171AC"/>
<path d="M119.623 509.996C119.584 511.898 116.909 512.06 113.857 511.868C110.804 511.677 111.651 512.402 107.404 512.685C103.157 512.968 101.617 511.641 101.378 511.046C101.166 510.518 103.189 509.955 105.351 509.306C105.622 509.226 105.897 509.141 106.168 509.055C108.604 508.298 110.141 506.363 112.17 504.638C114.09 503.005 116.378 497.338 116.378 497.338L122.171 496.769C122.171 496.769 119.988 501.855 119.183 504.043C118.708 505.328 119.021 506.862 119.319 508.035C119.475 508.672 119.637 509.324 119.623 509.996Z" fill="#FFD5B9"/>
<path d="M113.853 511.868C110.798 511.677 111.647 512.402 107.4 512.685C103.153 512.968 101.614 511.641 101.375 511.046C101.163 510.518 103.186 509.955 105.348 509.306L105.377 509.344C105.377 509.344 108.191 510.668 111.674 510.132C114.511 509.695 117.36 508.351 119.316 508.032C119.475 508.669 119.637 509.324 119.622 509.993C119.581 511.898 116.909 512.06 113.853 511.868Z" fill="#3683BC"/>
<path d="M169.82 450.339C169.82 450.339 136.218 451.928 129.279 456.696C122.339 461.463 112.592 501.604 112.592 501.604C112.592 501.604 114.051 503.536 115.541 504.069C117.434 504.747 119.988 503.981 119.988 503.981C119.988 503.981 133.478 487.732 134.405 481.79C135.331 475.849 136.779 472.797 139.404 472.553C142.028 472.308 167.814 477.344 179.6 466.231C186.917 459.332 169.82 450.339 169.82 450.339Z" fill="#3683BC"/>
<path d="M158.315 405.598C157.664 404.454 156.885 402.399 156.322 398.678C156.395 399.046 157.354 403.723 159.348 406.273C167.131 410.669 179.423 427.184 179.347 430.301C179.347 430.301 186.9 420.302 186.982 420.246C186.982 420.246 195.482 407.821 184.024 401.795C178.202 398.731 177.937 394.317 177.913 390.472C177.893 386.624 175.032 370.248 164.114 375.311C164.114 375.311 162.261 374.633 161.465 374.807C161.465 374.807 162.132 374.889 162.489 375.211C161.185 375.22 159.333 375.441 157.843 376.426C153.891 379.026 151.615 400.208 158.315 405.598Z" fill="#3683BC"/>
<path d="M171.232 402.661C171.232 402.661 168.103 402.364 164.973 402.661C162.847 402.865 160.741 403.522 159.544 404.024C156.583 405.262 156.892 410.502 163.107 409.532C169.321 408.561 171.668 404.218 171.232 402.661Z" fill="#FFD5B9"/>
<path d="M159.807 406.486C159.772 406.506 158.919 410.994 162.989 410.814C165.661 410.696 171.421 407.465 170.911 405.179C170.669 404.091 168.652 401.273 168.245 394.836L167.758 394.966L159.583 397.157C159.583 397.157 159.946 399.751 160.114 402.204C160.258 404.271 160.264 406.235 159.807 406.486Z" fill="#FFD5B9"/>
<path d="M159.583 397.159C159.583 397.159 159.946 399.754 160.114 402.207C164.741 401.768 166.909 397.378 167.758 394.966L159.583 397.159Z" fill="#FFB27D"/>
<path d="M168.553 394.008C168.553 394.008 170.727 390.009 171.09 386.686C171.349 384.316 169.577 375.712 160.932 377.543C160.932 377.543 158.414 377.962 156.137 379.731C154.326 381.137 151.775 384.083 155.34 391.457L156.305 393.963L168.553 394.008Z" fill="#3683BC"/>
<path d="M158.191 399.589C158.191 399.589 169.171 399.038 168.723 392.209C168.275 385.377 169.39 380.707 162.361 380.769C155.33 380.831 154.142 383.526 153.738 385.843C153.331 388.158 155.321 399.554 158.191 399.589Z" fill="#FFD5B9"/>
<path d="M157.354 380.931C157.354 380.931 160.89 388.744 165.579 389.623C170.269 390.502 172.183 389.134 172.183 389.134C172.183 389.134 168.461 386.563 167.399 381.709C167.402 381.709 159.365 376.968 157.354 380.931Z" fill="#3683BC"/>
<path d="M158.14 381.532C158.14 381.532 156.016 383.473 155.586 385.248C155.155 387.023 155.149 390.62 154.096 390.57C154.096 390.57 151.472 385.274 153.807 382.022C156.288 378.575 158.14 381.532 158.14 381.532Z" fill="#3683BC"/>
<path d="M147.203 448.567C148.091 449.628 150.866 449.955 153.83 450.442C156.163 450.828 158.614 451.309 160.357 452.335C164.315 454.658 177.247 462.51 181.037 462.153C182.506 462.015 182.232 459.211 181.341 455.49C179.94 449.613 177.006 441.452 177.006 437.902C177.006 435.965 176.36 431.383 175.501 426.143C175.431 425.722 175.36 425.294 175.289 424.867C173.587 414.68 171.228 402.667 171.228 402.667C171.228 402.667 168.597 408.405 163.474 408.405C158.351 408.405 159.54 404.03 159.54 404.03C159.54 404.03 154.865 404.578 153.759 405.769C152.653 406.96 149.851 412.1 149.297 413.503C149.297 413.503 149.185 415.287 153.603 416.136C153.603 416.136 152.526 420.98 152.4 424.209C152.305 426.594 154.028 434.06 154.523 438.704C154.7 440.349 154.721 441.641 154.455 442.224C154.113 442.973 153.007 443.722 151.748 444.454C149.253 445.904 146.147 447.305 147.203 448.567Z" fill="#2B478B"/>
<path d="M151.751 444.451C148.913 449.286 159.442 450.74 161.185 451.763C165.143 454.086 177.247 462.51 181.037 462.153C182.506 462.015 182.232 459.211 181.341 455.49C179.94 449.613 177.005 441.452 177.005 437.902C177.005 435.965 176.36 431.383 175.501 426.143L170.939 421.765C170.939 421.765 166.049 434.396 161.389 436.466C158.947 437.551 156.396 438.265 154.52 438.701C154.697 440.346 154.718 441.638 154.452 442.222C154.113 442.97 153.007 443.719 151.751 444.451Z" fill="#24356C"/>
<path d="M172.634 406.444C172.634 406.444 176.535 404.077 180.308 408.57C184.08 413.064 177.627 445.179 172.038 446.83C165.83 448.664 147.898 446.535 147.898 446.535L148.243 443.734C148.243 443.734 167.334 440.075 168.127 439.055C168.92 438.035 170.652 406.963 172.634 406.444Z" fill="#FFD5B9"/>
<path d="M171.233 402.661C171.233 402.661 179.243 403.384 181.57 406.02C183.897 408.653 184.576 415.791 184.576 415.791C184.576 415.791 177.521 421.485 169.021 419.276L171.233 402.661Z" fill="#2B478B"/>
<path d="M149.798 443.566C149.798 443.566 143.581 442.363 142.879 442.664C142.177 442.964 138.266 446.473 138.667 447.175C139.068 447.877 140.673 448.378 142.478 447.776C144.283 447.175 148.193 446.874 148.895 445.972C149.597 445.07 149.798 443.566 149.798 443.566Z" fill="#FFD5B9"/>
<path d="M144.797 451.682H155.38V450.432H144.797V451.682Z" fill="#24356C"/>
<path d="M147.045 451.509C146.942 451.096 137.318 435.988 137.318 435.988H115.903L126.645 451.105L147.045 451.509Z" fill="#24356C"/>
<path d="M146.142 451.68C146.039 451.267 136.383 435.988 136.383 435.988H115.9L126.12 451.68H146.142Z" fill="#3683BC"/>
<path d="M128.089 443.885C128.298 444.498 128.967 444.993 129.578 444.993C130.188 444.993 130.516 444.498 130.303 443.885C130.094 443.271 129.425 442.776 128.814 442.776C128.204 442.776 127.879 443.274 128.089 443.885Z" fill="#24356C"/>
<path d="M275 376.666C275 376.666 280.108 379.571 281.538 379.571C282.969 379.571 288.581 378.485 290.147 379.285C291.714 380.084 294.545 383.3 295.076 384.35C296.031 386.24 291.23 385.406 288.959 383.796C288.629 383.563 288.219 383.474 287.823 383.563C286.647 383.819 284.205 384.265 283.025 383.825C281.438 383.238 273.083 382.587 273.083 382.587L275 376.666Z" fill="#FFD5B9"/>
<path d="M236.129 337.109C236.129 337.109 241.426 374.741 250.195 378.111C254.521 379.774 273.647 383.545 279.304 383.923C279.304 383.923 280.69 382.799 280.351 378.223C280.351 378.223 260.314 370.87 257.468 366.871C253.232 360.918 260.098 342.555 254.781 336.965C249.469 331.374 240.515 328.974 236.129 337.109Z" fill="#2674AD"/>
<path d="M237.915 416.394C239.461 419.016 241.248 421.469 243.088 423.795C248.78 430.981 254.977 436.904 256.056 442.503C256.272 443.618 256.611 444.821 257.056 446.086C257.507 447.368 258.065 448.716 258.708 450.111C261.123 455.356 264.736 461.235 268.343 466.578C274.578 475.816 280.441 483.52 280.441 483.52L291.194 483.063C290.764 481.987 286.074 469.232 279.801 453.649C277.253 447.321 274.545 440.593 271.932 434.103C271.584 433.236 271.236 432.372 270.891 431.517C270.092 429.53 269.305 427.575 268.538 425.673C262.648 411.04 257.956 399.387 257.956 399.387C257.956 399.387 234.411 390.471 231.967 396.25C229.949 401.009 231.592 405.674 237.915 416.394Z" fill="#233862"/>
<path d="M280.774 481.565C280.774 481.565 281.326 490.434 283.042 490.561C283.269 490.579 291.749 490.579 291.749 490.579L302.57 490.517C302.57 490.517 302.499 487.91 299.334 487.359C296.17 486.808 290.876 484.584 288.959 480.406C286.944 476.007 280.774 481.565 280.774 481.565Z" fill="#24356C"/>
<path d="M242.574 453.669C242.574 453.669 234.54 457.473 235.059 459.112C235.127 459.331 238.274 467.2 238.274 467.2L242.35 477.225C242.35 477.225 244.745 476.193 244.084 473.05C243.423 469.91 243.521 464.169 246.694 460.837C250.024 457.334 242.574 453.669 242.574 453.669Z" fill="#24356C"/>
<path d="M245.437 462.521C245.437 462.521 240.925 457.959 240.099 454.934C240.099 454.934 255.621 439.853 261.172 436.191C267.539 431.989 271.677 431.965 270.654 430.933C267.306 427.56 239.17 417.718 234.59 410.595C233.012 408.142 232.118 405.809 231.632 403.775C230.594 399.429 231.414 396.427 231.414 396.427L266.41 395.416C266.41 395.416 292.431 422.398 292.281 432.555C292.122 443.529 245.437 462.521 245.437 462.521Z" fill="#132A72"/>
<path d="M256.836 334.738C249.755 336.569 238.019 330.012 238.019 330.012C238.019 330.012 242.576 326.949 244.266 320.223C244.351 319.884 244.428 319.536 244.499 319.179C245.239 319.023 246.64 318.725 248.135 318.41L253.541 323.254C253.541 323.254 253.418 325.265 252.742 328.721C252.624 329.325 252.491 329.971 252.335 330.661C255.234 332.456 256.836 334.738 256.836 334.738Z" fill="#FFD5B9"/>
<path d="M230.523 364.076C231.537 377.71 230.204 398.447 231.354 402.038C232.348 405.137 243.659 403.294 248.174 402.259C249.846 401.876 251.869 401.331 253.961 400.682C259.791 398.877 266.147 396.297 266.828 394.384C266.855 394.31 266.878 394.236 266.89 394.163C266.952 393.886 266.94 393.623 266.878 393.361C266.651 392.385 265.775 391.329 265.672 388.914C265.557 386.217 265.575 383.041 265.472 379.627C265.466 379.243 265.46 378.822 265.419 378.441L265.416 378.303C265.413 378.229 265.413 378.158 265.41 378.085C265.312 374.275 265.112 370.274 264.882 366.302C264.734 363.808 264.566 361.34 264.369 358.972C263.861 352.866 263.174 347.432 262.269 344C260.785 338.401 257.517 334.75 254.542 332.076L252.389 330.23C249.988 330.755 247.148 330.407 244.579 329.189C241.801 327.868 240.839 326.925 240.355 327.282C233.944 332.235 229.328 347.405 230.523 364.076Z" fill="#3683BC"/>
<path d="M253.96 400.685C259.791 398.88 266.147 396.3 266.828 394.387C266.855 394.313 266.878 394.239 266.89 394.166C266.887 393.897 266.884 393.632 266.878 393.364C266.651 392.388 265.775 391.332 265.672 388.917C265.557 386.219 265.575 383.044 265.471 379.63C265.465 379.246 265.46 378.825 265.418 378.444L265.415 378.306C265.412 378.232 265.412 378.161 265.409 378.087L241.839 348.06C241.839 348.06 225.992 381.051 253.96 400.685Z" fill="#2674AD"/>
<path d="M253.541 323.251C253.541 323.251 253.417 325.262 252.742 328.718C247.463 327.01 245.068 322.243 244.266 320.22C244.351 319.881 244.428 319.533 244.498 319.176C245.239 319.02 246.64 318.722 248.135 318.407L253.541 323.251Z" fill="#FFD5B9"/>
<path d="M254.249 326.3C254.249 326.3 242.735 324.378 244.041 317.227C245.348 310.077 244.743 305.012 252.152 305.938C259.56 306.86 260.484 309.85 260.628 312.345C260.773 314.836 257.281 326.615 254.249 326.3Z" fill="#FFD5B9"/>
<path d="M299.613 387.483L300.628 387.812L309.271 361.23L308.255 360.9L299.613 387.483Z" fill="#3683BC"/>
<path d="M271.257 387.139L300.59 387.767L300.628 386.013L271.294 385.385L271.257 387.139Z" fill="#3683BC"/>
<path d="M271.848 388.587C271.848 388.587 281.274 391.073 284.807 390.81C288.341 390.551 291.281 388.87 291.726 387.991C292.172 387.113 293.107 385.559 290.7 385.845C288.294 386.131 285.008 386.644 284.908 386.181C284.804 385.718 286.869 385.762 286.869 385.762C286.869 385.762 287.494 384.854 286.707 384.822C285.919 384.789 283.631 384.167 282.778 384.592C281.926 385.016 281.142 386.588 280.519 386.523C279.897 386.458 272.633 383.25 272.633 383.25L271.848 388.587Z" fill="#FFD5B9"/>
<path d="M238.467 338.654C238.467 338.654 239.582 376.64 247.925 380.956C252.043 383.085 270.635 388.941 276.215 389.94C276.215 389.94 277.716 388.976 277.884 384.391C277.884 384.391 258.782 374.874 256.393 370.584C252.839 364.2 261.69 346.706 257.021 340.565C252.355 334.426 243.723 331.05 238.467 338.654Z" fill="#3683BC"/>
<path d="M244.266 320.223C244.266 320.223 244.133 317.77 245.649 316.363C245.649 316.363 245.121 313.904 246.094 313.497C247.067 313.091 247.271 315.16 247.716 314.836C248.162 314.512 250.149 312.97 251.002 310.699C251.854 308.429 259.649 311.18 260.557 311.587C261.466 311.994 264.386 310.496 264.955 309.278C264.955 309.278 263.333 307.981 262.601 307.008C261.873 306.035 256.762 299.466 249.622 301.332C242.484 303.198 241.511 306.604 241.915 309.523C242.322 312.442 241.343 319.241 244.266 320.223Z" fill="#132A72"/>
</svg>
