<svg width="1280" height="312" viewBox="0 0 1280 312" fill="none" xmlns="http://www.w3.org/2000/svg">
<rect y="1" width="1280" height="310" fill="#F4FAFF"/>
<mask id="mask0" mask-type="alpha" maskUnits="userSpaceOnUse" x="0" y="5" width="1280" height="306">
<rect y="5" width="1280" height="306" fill="#F4FAFF"/>
</mask>
<g mask="url(#mask0)">
<rect x="-0.000244141" y="-180" width="1280" height="406" fill="#F4FAFF"/>
<path d="M1102.86 179.508L1124.14 193.1L1102.86 179.508Z" fill="#DAEFFF"/>
<path d="M1366.99 124.646L1366.99 124.647C1360.69 139.031 1351.62 152.869 1337.36 160.131L1337.36 160.131C1331.69 163.022 1324.66 164.887 1317.82 164.866C1310.97 164.844 1304.34 162.938 1299.39 158.335L1299.39 158.335C1296.86 155.973 1295.14 153.085 1293.71 149.896C1292.41 147.026 1291.18 144.131 1289.95 141.23C1289.66 140.552 1289.37 139.873 1289.08 139.194L1289.08 139.194C1286 131.971 1282.82 124.707 1278.69 117.962C1274.9 111.788 1270.25 105.844 1264.29 101.549L1264.29 101.549C1259.08 97.7999 1252.97 95.3795 1246.62 94.5129C1232.87 92.6324 1219.69 98.5071 1211.37 109.482C1206.32 116.137 1203.15 124.094 1201.47 132.203C1199.88 139.864 1200.13 147.555 1200.72 155.246L1200.72 155.246C1200.78 155.941 1200.83 156.636 1200.88 157.331C1201.42 164.067 1201.95 170.799 1200.99 177.447C1199.85 185.309 1196.37 192.445 1190.79 198.091C1186.21 202.727 1180.72 206.294 1175.21 209.867C1174.49 210.336 1173.77 210.805 1173.05 211.277L1173.31 211.669L1173.05 211.277C1166.54 215.544 1160.31 220.169 1155.17 226.153L1155.54 226.467L1155.17 226.153C1144.6 238.471 1139.7 254.459 1141.33 270.587C1142.73 284.499 1148.61 298.14 1158.76 307.942L1158.76 307.942C1161.18 310.283 1163.83 312.373 1166.65 314.212C1166.89 314.37 1167.17 314.409 1167.42 314.33C1167.66 314.256 1167.85 314.091 1167.96 313.906C1168.07 313.722 1168.14 313.486 1168.1 313.242C1168.06 312.985 1167.92 312.75 1167.68 312.592L1167.68 312.591C1155.57 304.698 1147.55 291.857 1144.43 277.821L1143.94 277.929L1144.43 277.821C1140.92 262.032 1143.7 245.383 1153 232.068C1157.72 225.319 1163.82 219.842 1170.61 215.2C1172.41 213.975 1174.24 212.784 1176.08 211.589C1180.17 208.928 1184.29 206.248 1188.08 203.135L1188.08 203.135C1193.63 198.57 1198.18 192.997 1200.75 186.178C1203.44 178.999 1203.68 171.287 1203.26 163.797C1203.14 161.522 1202.96 159.26 1202.78 157.004C1202.37 151.754 1201.96 146.54 1202.21 141.293C1202.61 133.113 1204.81 124.834 1208.56 117.551C1212.11 110.665 1217.27 104.513 1224 100.651L1224 100.651C1229.76 97.3406 1236.44 95.8078 1243.08 96.1088L1243.08 96.1088C1249.6 96.4026 1256.01 98.4572 1261.51 101.979C1267.73 105.961 1272.58 111.85 1276.51 118.101L1276.94 117.834L1276.51 118.101C1280.59 124.583 1283.74 131.604 1286.77 138.67L1286.77 138.67C1287.25 139.776 1287.72 140.884 1288.19 141.994C1289.24 144.475 1290.3 146.961 1291.39 149.427L1291.39 149.427C1292.8 152.606 1294.3 155.709 1296.73 158.367L1296.73 158.367C1305.63 168.143 1320.65 168.128 1332.17 164.321L1332.17 164.321C1346.55 159.571 1357 147.859 1364.06 134.997L1364.06 134.997C1365.79 131.84 1367.35 128.596 1368.79 125.304C1368.9 125.041 1368.9 124.754 1368.76 124.509C1368.63 124.282 1368.41 124.15 1368.21 124.092C1367.81 123.978 1367.24 124.095 1366.99 124.646Z" fill="#E8F5FF" stroke="#DAEFFF"/>
<path d="M1138.8 -9.90543C1158.91 -1.45552 1168.36 21.6932 1159.91 41.7975C1151.46 61.9061 1128.31 71.3553 1108.2 62.9054C1088.09 54.4555 1078.64 31.3068 1087.09 11.2025C1095.54 -8.90612 1118.69 -18.3553 1138.8 -9.90543Z" fill="#E8F5FF"/>
<path d="M658.212 206.494C651.874 206.594 627.124 218.866 623.542 222.809C619.96 226.753 629.516 244.359 636.256 247.479C642.996 250.598 667.443 253.518 700.585 225.774C733.727 198.03 739.243 170.504 738.479 164.79C737.715 159.075 724.898 149.195 718.601 148.007C712.303 146.819 690.711 172.19 691.475 177.905C692.239 183.619 704.553 186.96 706.283 191.951C708.153 196.961 687.97 217.503 670.987 225.711C666.983 227.582 662.82 206.434 658.212 206.494Z" fill="#E8F5FF"/>
<path d="M509.575 315.337C504.555 304.224 499.489 292.916 498.581 280.826C497.551 268.662 501.266 255.577 510.749 248.049C517.891 242.422 528.937 241.038 535.972 246.708C543.007 252.378 542.657 265.697 534.415 269.311C526.437 269.242 518.712 264.15 515.797 256.673C513.758 251.574 513.947 245.841 514.62 240.408C517.902 214.189 533.227 189.038 556.767 177.135C580.112 165.279 611.503 168.573 629.951 187.455" stroke="#DAEFFF" stroke-width="2" stroke-miterlimit="10" stroke-linecap="round" stroke-linejoin="round" stroke-dasharray="8 8"/>
</g>
<path d="M10.288 311C95.9633 205.8 49.4306 60.5 15.4548 1H7C94.1784 143.8 43.3243 267.167 7 311H10.288Z" fill="#E8F5FF" stroke="#DAEFFF" stroke-width="2"/>
</svg>
