<svg width="276" height="164" viewBox="0 0 276 164" fill="none" xmlns="http://www.w3.org/2000/svg">
<g clip-path="url(#clip0)">
<g opacity="0.3">
<path fill-rule="evenodd" clip-rule="evenodd" d="M6.71695 78.3585C6.71695 80.2132 5.21319 81.717 3.35848 81.717C1.50376 81.717 0 80.2132 0 78.3585C0 76.5038 1.50376 75 3.35848 75C5.21319 75 6.71695 76.5038 6.71695 78.3585Z" fill="#3683BC"/>
<path fill-rule="evenodd" clip-rule="evenodd" d="M40.3029 78.3585C40.3029 80.2132 38.7991 81.717 36.9444 81.717C35.0897 81.717 33.5859 80.2132 33.5859 78.3585C33.5859 76.5038 35.0897 75 36.9444 75C38.7991 75 40.3029 76.5038 40.3029 78.3585Z" fill="#3683BC"/>
<path fill-rule="evenodd" clip-rule="evenodd" d="M73.8869 78.3585C73.8869 80.2132 72.3831 81.717 70.5284 81.717C68.6737 81.717 67.1699 80.2132 67.1699 78.3585C67.1699 76.5038 68.6737 75 70.5284 75C72.3831 75 73.8869 76.5038 73.8869 78.3585Z" fill="#3683BC"/>
<path fill-rule="evenodd" clip-rule="evenodd" d="M107.471 78.3585C107.471 80.2132 105.967 81.717 104.112 81.717C102.258 81.717 100.754 80.2132 100.754 78.3585C100.754 76.5038 102.258 75 104.112 75C105.967 75 107.471 76.5038 107.471 78.3585Z" fill="#3683BC"/>
<path fill-rule="evenodd" clip-rule="evenodd" d="M141.055 78.3585C141.055 80.2132 139.551 81.717 137.696 81.717C135.842 81.717 134.338 80.2132 134.338 78.3585C134.338 76.5038 135.842 75 137.696 75C139.551 75 141.055 76.5038 141.055 78.3585Z" fill="#3683BC"/>
<path fill-rule="evenodd" clip-rule="evenodd" d="M174.641 78.3585C174.641 80.2132 173.137 81.717 171.282 81.717C169.428 81.717 167.924 80.2132 167.924 78.3585C167.924 76.5038 169.428 75 171.282 75C173.137 75 174.641 76.5038 174.641 78.3585Z" fill="#3683BC"/>
<path fill-rule="evenodd" clip-rule="evenodd" d="M208.227 78.3585C208.227 80.2132 206.723 81.717 204.868 81.717C203.014 81.717 201.51 80.2132 201.51 78.3585C201.51 76.5038 203.014 75 204.868 75C206.723 75 208.227 76.5038 208.227 78.3585Z" fill="#3683BC"/>
<path fill-rule="evenodd" clip-rule="evenodd" d="M241.809 78.3585C241.809 80.2132 240.305 81.717 238.45 81.717C236.596 81.717 235.092 80.2132 235.092 78.3585C235.092 76.5038 236.596 75 238.45 75C240.305 75 241.809 76.5038 241.809 78.3585Z" fill="#3683BC"/>
<path fill-rule="evenodd" clip-rule="evenodd" d="M6.71695 111.943C6.71695 113.798 5.21319 115.302 3.35848 115.302C1.50376 115.302 0 113.798 0 111.943C0 110.089 1.50376 108.585 3.35848 108.585C5.21319 108.585 6.71695 110.089 6.71695 111.943Z" fill="#3683BC"/>
<path fill-rule="evenodd" clip-rule="evenodd" d="M40.3029 111.943C40.3029 113.798 38.7991 115.302 36.9444 115.302C35.0897 115.302 33.5859 113.798 33.5859 111.943C33.5859 110.089 35.0897 108.585 36.9444 108.585C38.7991 108.585 40.3029 110.089 40.3029 111.943Z" fill="#3683BC"/>
<path fill-rule="evenodd" clip-rule="evenodd" d="M73.8869 111.943C73.8869 113.798 72.3831 115.302 70.5284 115.302C68.6737 115.302 67.1699 113.798 67.1699 111.943C67.1699 110.089 68.6737 108.585 70.5284 108.585C72.3831 108.585 73.8869 110.089 73.8869 111.943Z" fill="#3683BC"/>
<path fill-rule="evenodd" clip-rule="evenodd" d="M107.471 111.943C107.471 113.798 105.967 115.302 104.112 115.302C102.258 115.302 100.754 113.798 100.754 111.943C100.754 110.089 102.258 108.585 104.112 108.585C105.967 108.585 107.471 110.089 107.471 111.943Z" fill="#3683BC"/>
<path fill-rule="evenodd" clip-rule="evenodd" d="M141.055 111.943C141.055 113.798 139.551 115.302 137.696 115.302C135.842 115.302 134.338 113.798 134.338 111.943C134.338 110.089 135.842 108.585 137.696 108.585C139.551 108.585 141.055 110.089 141.055 111.943Z" fill="#3683BC"/>
<path fill-rule="evenodd" clip-rule="evenodd" d="M174.641 111.943C174.641 113.798 173.137 115.302 171.282 115.302C169.428 115.302 167.924 113.798 167.924 111.943C167.924 110.089 169.428 108.585 171.282 108.585C173.137 108.585 174.641 110.089 174.641 111.943Z" fill="#3683BC"/>
<path fill-rule="evenodd" clip-rule="evenodd" d="M208.227 111.943C208.227 113.798 206.723 115.302 204.868 115.302C203.014 115.302 201.51 113.798 201.51 111.943C201.51 110.089 203.014 108.585 204.868 108.585C206.723 108.585 208.227 110.089 208.227 111.943Z" fill="#3683BC"/>
<path fill-rule="evenodd" clip-rule="evenodd" d="M241.809 111.943C241.809 113.798 240.305 115.302 238.45 115.302C236.596 115.302 235.092 113.798 235.092 111.943C235.092 110.089 236.596 108.585 238.45 108.585C240.305 108.585 241.809 110.089 241.809 111.943Z" fill="#3683BC"/>
<path fill-rule="evenodd" clip-rule="evenodd" d="M6.71695 145.528C6.71695 147.383 5.21319 148.886 3.35848 148.886C1.50376 148.886 0 147.383 0 145.528C0 143.673 1.50376 142.169 3.35848 142.169C5.21319 142.169 6.71695 143.673 6.71695 145.528Z" fill="#3683BC"/>
<path fill-rule="evenodd" clip-rule="evenodd" d="M40.3029 145.528C40.3029 147.383 38.7991 148.886 36.9444 148.886C35.0897 148.886 33.5859 147.383 33.5859 145.528C33.5859 143.673 35.0897 142.169 36.9444 142.169C38.7991 142.169 40.3029 143.673 40.3029 145.528Z" fill="#3683BC"/>
<path fill-rule="evenodd" clip-rule="evenodd" d="M73.8869 145.528C73.8869 147.383 72.3831 148.886 70.5284 148.886C68.6737 148.886 67.1699 147.383 67.1699 145.528C67.1699 143.673 68.6737 142.169 70.5284 142.169C72.3831 142.169 73.8869 143.673 73.8869 145.528Z" fill="#3683BC"/>
<path fill-rule="evenodd" clip-rule="evenodd" d="M107.471 145.528C107.471 147.383 105.967 148.886 104.112 148.886C102.258 148.886 100.754 147.383 100.754 145.528C100.754 143.673 102.258 142.169 104.112 142.169C105.967 142.169 107.471 143.673 107.471 145.528Z" fill="#3683BC"/>
<path fill-rule="evenodd" clip-rule="evenodd" d="M141.055 145.528C141.055 147.383 139.551 148.886 137.696 148.886C135.842 148.886 134.338 147.383 134.338 145.528C134.338 143.673 135.842 142.169 137.696 142.169C139.551 142.169 141.055 143.673 141.055 145.528Z" fill="#3683BC"/>
<path fill-rule="evenodd" clip-rule="evenodd" d="M174.641 145.528C174.641 147.383 173.137 148.886 171.282 148.886C169.428 148.886 167.924 147.383 167.924 145.528C167.924 143.673 169.428 142.169 171.282 142.169C173.137 142.169 174.641 143.673 174.641 145.528Z" fill="#3683BC"/>
<path fill-rule="evenodd" clip-rule="evenodd" d="M208.227 145.528C208.227 147.383 206.723 148.886 204.868 148.886C203.014 148.886 201.51 147.383 201.51 145.528C201.51 143.673 203.014 142.169 204.868 142.169C206.723 142.169 208.227 143.673 208.227 145.528Z" fill="#3683BC"/>
<path fill-rule="evenodd" clip-rule="evenodd" d="M241.809 145.528C241.809 147.383 240.305 148.886 238.45 148.886C236.596 148.886 235.092 147.383 235.092 145.528C235.092 143.673 236.596 142.169 238.45 142.169C240.305 142.169 241.809 143.673 241.809 145.528Z" fill="#3683BC"/>
<path fill-rule="evenodd" clip-rule="evenodd" d="M6.71695 43.867C6.71695 45.7217 5.21319 47.2255 3.35848 47.2255C1.50376 47.2255 0 45.7217 0 43.867C0 42.0123 1.50376 40.5085 3.35848 40.5085C5.21319 40.5085 6.71695 42.0123 6.71695 43.867Z" fill="#3683BC"/>
<path fill-rule="evenodd" clip-rule="evenodd" d="M6.71695 12.867C6.71695 14.7217 5.21319 16.2255 3.35848 16.2255C1.50376 16.2255 0 14.7217 0 12.867C0 11.0123 1.50376 9.50854 3.35848 9.50854C5.21319 9.50854 6.71695 11.0123 6.71695 12.867Z" fill="#3683BC"/>
<path fill-rule="evenodd" clip-rule="evenodd" d="M40.3029 43.867C40.3029 45.7217 38.7991 47.2255 36.9444 47.2255C35.0897 47.2255 33.5859 45.7217 33.5859 43.867C33.5859 42.0123 35.0897 40.5085 36.9444 40.5085C38.7991 40.5085 40.3029 42.0123 40.3029 43.867Z" fill="#3683BC"/>
<path fill-rule="evenodd" clip-rule="evenodd" d="M40.3029 12.867C40.3029 14.7217 38.7991 16.2255 36.9444 16.2255C35.0897 16.2255 33.5859 14.7217 33.5859 12.867C33.5859 11.0123 35.0897 9.50854 36.9444 9.50854C38.7991 9.50854 40.3029 11.0123 40.3029 12.867Z" fill="#3683BC"/>
<path fill-rule="evenodd" clip-rule="evenodd" d="M73.8869 43.867C73.8869 45.7217 72.3831 47.2255 70.5284 47.2255C68.6737 47.2255 67.1699 45.7217 67.1699 43.867C67.1699 42.0123 68.6737 40.5085 70.5284 40.5085C72.3831 40.5085 73.8869 42.0123 73.8869 43.867Z" fill="#3683BC"/>
<path fill-rule="evenodd" clip-rule="evenodd" d="M73.8869 12.867C73.8869 14.7217 72.3831 16.2255 70.5284 16.2255C68.6737 16.2255 67.1699 14.7217 67.1699 12.867C67.1699 11.0123 68.6737 9.50854 70.5284 9.50854C72.3831 9.50854 73.8869 11.0123 73.8869 12.867Z" fill="#3683BC"/>
<path fill-rule="evenodd" clip-rule="evenodd" d="M107.471 43.867C107.471 45.7217 105.967 47.2255 104.112 47.2255C102.258 47.2255 100.754 45.7217 100.754 43.867C100.754 42.0123 102.258 40.5085 104.112 40.5085C105.967 40.5085 107.471 42.0123 107.471 43.867Z" fill="#3683BC"/>
<path fill-rule="evenodd" clip-rule="evenodd" d="M107.471 12.867C107.471 14.7217 105.967 16.2255 104.112 16.2255C102.258 16.2255 100.754 14.7217 100.754 12.867C100.754 11.0123 102.258 9.50854 104.112 9.50854C105.967 9.50854 107.471 11.0123 107.471 12.867Z" fill="#3683BC"/>
<path fill-rule="evenodd" clip-rule="evenodd" d="M272.358 81.717C270.504 81.717 269 80.2132 269 78.3585C269 76.5038 270.504 75 272.358 75C274.213 75 275.717 76.5038 275.717 78.3585C275.717 80.2132 274.213 81.717 272.358 81.717Z" fill="#3683BC"/>
<path fill-rule="evenodd" clip-rule="evenodd" d="M272.358 115.303C270.504 115.303 269 113.799 269 111.944C269 110.09 270.504 108.586 272.358 108.586C274.213 108.586 275.717 110.09 275.717 111.944C275.717 113.799 274.213 115.303 272.358 115.303Z" fill="#3683BC"/>
<path fill-rule="evenodd" clip-rule="evenodd" d="M272.358 148.887C270.504 148.887 269 147.383 269 145.528C269 143.674 270.504 142.17 272.358 142.17C274.213 142.17 275.717 143.674 275.717 145.528C275.717 147.383 274.213 148.887 272.358 148.887Z" fill="#3683BC"/>
</g>
</g>
<defs>
<clipPath id="clip0">
<rect width="276" height="164" fill="white"/>
</clipPath>
</defs>
</svg>
