<svg width="67" height="72" viewBox="0 0 67 72" fill="none" xmlns="http://www.w3.org/2000/svg">
<path d="M66.4938 57.67C66.3394 57.1226 65.9786 56.6566 65.4874 56.37C64.9962 56.0835 64.4129 55.9988 63.8604 56.1339L58.3963 57.6042C61.3863 53.1966 63.1993 48.0975 63.6629 42.7917C64.1112 37.8276 63.3853 32.8277 61.5441 28.196C59.7028 23.5643 56.7978 19.4307 53.0638 16.1292C52.6321 15.7722 52.0803 15.5937 51.5213 15.6305C50.9624 15.6672 50.4386 15.9163 50.0574 16.3267C49.6738 16.7634 49.4792 17.3345 49.5162 17.9146C49.5532 18.4947 49.8189 19.0364 50.2549 19.4208C53.4725 22.261 55.9757 25.8192 57.5617 29.8071C59.1477 33.7951 59.772 38.1006 59.3838 42.3747C59.0079 46.8767 57.498 51.2101 54.9949 54.9708L54.4463 49.4628C54.4877 49.1386 54.4561 48.8093 54.3539 48.4989C54.2518 48.1885 54.0816 47.9048 53.8558 47.6686C53.63 47.4324 53.3543 47.2496 53.0488 47.1335C52.7433 47.0175 52.4157 46.9711 52.09 46.9978C51.7643 47.0246 51.4487 47.1237 51.1662 47.288C50.8838 47.4523 50.6415 47.6776 50.4573 47.9475C50.273 48.2173 50.1513 48.5249 50.1011 48.8479C50.0509 49.1708 50.0735 49.5008 50.1671 49.8139L51.2643 63.9461L64.9796 60.3033C65.5229 60.1444 65.9838 59.7817 66.266 59.291C66.5481 58.8003 66.6298 58.2195 66.4938 57.67Z" fill="#3683BC"/>
<path d="M2.45847 37.4811C2.75013 37.6687 3.08003 37.7886 3.42403 37.8322C3.99673 37.9073 4.57597 37.7536 5.03608 37.4045C5.49619 37.0553 5.80007 36.5387 5.8818 35.9669C6.78854 29.272 10.1909 23.1668 15.4077 18.8738C20.6244 14.5807 27.2703 12.4169 34.0146 12.8156L29.099 16.1731C28.7512 16.4351 28.4892 16.7946 28.3464 17.206C28.2036 17.6174 28.1864 18.0619 28.297 18.4831C28.4075 18.9043 28.6409 19.283 28.9674 19.5711C29.2939 19.8593 29.6988 20.0438 30.1304 20.1011C30.6248 20.1463 31.1199 20.0225 31.5349 19.75L43.2312 11.7183L33.2246 1.66778C33.0465 1.39493 32.8099 1.16515 32.532 0.995127C32.254 0.825106 31.9417 0.719109 31.6177 0.684831C31.2937 0.650554 30.9661 0.688856 30.6588 0.796957C30.3514 0.905058 30.072 1.08025 29.8408 1.3098C29.6095 1.53935 29.4323 1.81752 29.322 2.12409C29.2117 2.43066 29.171 2.75795 29.203 3.0822C29.2349 3.40645 29.3387 3.71952 29.5067 3.99868C29.6747 4.27784 29.9027 4.51608 30.1743 4.69611L33.9049 8.42667C26.1164 8.05426 18.4713 10.6153 12.4789 15.6043C6.48649 20.5932 2.5822 27.6475 1.53681 35.3744C1.48054 35.7765 1.5369 36.1862 1.69961 36.5582C1.86233 36.9301 2.12502 37.2496 2.45847 37.4811Z" fill="#3683BC"/>
<path d="M40.6838 65.6797C37.2571 66.7743 33.6424 67.1552 30.0627 66.7989C25.7032 66.3716 21.5131 64.8896 17.8543 62.481C14.1954 60.0724 11.1778 56.8094 9.0619 52.9739L14.5261 55.0147C15.0298 55.1021 15.5481 55.0109 15.9917 54.7568C16.4353 54.5027 16.7763 54.1017 16.9558 53.6231C17.1353 53.1444 17.1421 52.6181 16.9749 52.135C16.8077 51.6519 16.4772 51.2423 16.0402 50.9769L5.96773 47.2464L2.7419 46.0833L0.306065 60.0181C0.22162 60.5749 0.354498 61.1429 0.677196 61.6045C0.999894 62.066 1.48771 62.3859 2.03968 62.4978H2.41273C2.92922 62.5072 3.43246 62.3341 3.83387 62.0089C4.23528 61.6838 4.50911 61.2275 4.60718 60.7203L5.52884 55.4536C8.01082 59.8014 11.497 63.4923 15.6963 66.218C19.8956 68.9437 24.6861 70.6252 29.6677 71.1219C33.8327 71.5347 38.038 71.0865 42.0225 69.8053C42.5298 69.5952 42.9399 69.2026 43.1719 68.7049C43.4039 68.2072 43.4408 67.6406 43.2755 67.117C43.1101 66.5934 42.7545 66.1508 42.2788 65.8765C41.803 65.6023 41.2418 65.5164 40.7058 65.6358L40.6838 65.6797Z" fill="#3683BC"/>
<path d="M41.2773 28.5278H23.7218C23.1398 28.5278 22.5816 28.759 22.1701 29.1705C21.7585 29.5821 21.5273 30.1402 21.5273 30.7222V48.2778C21.5273 48.8598 21.7585 49.418 22.1701 49.8295C22.5816 50.241 23.1398 50.4722 23.7218 50.4722H41.2773C41.8593 50.4722 42.4175 50.241 42.8291 49.8295C43.2406 49.418 43.4718 48.8598 43.4718 48.2778V30.7222C43.4718 30.1402 43.2406 29.5821 42.8291 29.1705C42.4175 28.759 41.8593 28.5278 41.2773 28.5278ZM39.0829 46.0833H25.9162V32.9167H39.0829V46.0833Z" fill="#3683BC"/>
</svg>
