<svg width="170" height="55" viewBox="0 0 170 55" fill="none" xmlns="http://www.w3.org/2000/svg">
<g clip-path="url(#clip0)">
<rect y="0.884766" width="170" height="54" rx="27" fill="#3683BC"/>
<path fill-rule="evenodd" clip-rule="evenodd" d="M40.3846 29.3223V35.8848H45.3077V30.8848H46.5385V35.8848C46.5385 36.5723 45.9846 37.1348 45.3077 37.1348H40.3846V40.8848L33.6769 37.4848C33.2708 37.2723 33 36.8348 33 36.3473V22.1348C33 21.4473 33.5538 20.8848 34.2308 20.8848H45.3077C45.9846 20.8848 46.5385 21.4473 46.5385 22.1348V25.8848H45.3077V22.1348H35.4615L40.3846 24.6348V27.4473L44.0769 24.6348V27.1348H49V29.6348H44.0769V32.1348L40.3846 29.3223Z" fill="white"/>
<path d="M65.744 19.9808C65.144 19.9808 64.568 19.8928 64.016 19.7168C63.472 19.5328 63.036 19.2888 62.708 18.9848C62.588 18.8728 62.528 18.7328 62.528 18.5648C62.528 18.4528 62.56 18.3568 62.624 18.2768C62.688 18.1888 62.764 18.1448 62.852 18.1448C62.956 18.1448 63.068 18.1888 63.188 18.2768C63.932 18.8528 64.78 19.1408 65.732 19.1408C66.42 19.1408 66.948 19.0088 67.316 18.7448C67.684 18.4808 67.868 18.1048 67.868 17.6168C67.868 17.3368 67.78 17.1128 67.604 16.9448C67.428 16.7688 67.196 16.6288 66.908 16.5248C66.62 16.4208 66.232 16.3128 65.744 16.2008C65.088 16.0488 64.548 15.8888 64.124 15.7208C63.708 15.5528 63.368 15.3128 63.104 15.0008C62.848 14.6888 62.72 14.2808 62.72 13.7768C62.72 13.2968 62.848 12.8728 63.104 12.5048C63.368 12.1288 63.732 11.8408 64.196 11.6408C64.668 11.4328 65.204 11.3288 65.804 11.3288C66.364 11.3288 66.884 11.4168 67.364 11.5928C67.852 11.7608 68.26 12.0048 68.588 12.3248C68.716 12.4528 68.78 12.5928 68.78 12.7448C68.78 12.8568 68.748 12.9568 68.684 13.0448C68.62 13.1248 68.544 13.1648 68.456 13.1648C68.368 13.1648 68.252 13.1208 68.108 13.0328C67.716 12.7128 67.352 12.4888 67.016 12.3608C66.68 12.2328 66.276 12.1688 65.804 12.1688C65.14 12.1688 64.624 12.3088 64.256 12.5888C63.888 12.8608 63.704 13.2448 63.704 13.7408C63.704 14.1648 63.864 14.4848 64.184 14.7008C64.512 14.9088 65.012 15.0928 65.684 15.2528C66.412 15.4288 66.984 15.5928 67.4 15.7448C67.816 15.8888 68.16 16.1088 68.432 16.4048C68.712 16.7008 68.852 17.0968 68.852 17.5928C68.852 18.0648 68.72 18.4808 68.456 18.8408C68.2 19.2008 67.836 19.4808 67.364 19.6808C66.892 19.8808 66.352 19.9808 65.744 19.9808ZM71.2218 19.9448C71.0778 19.9448 70.9578 19.9048 70.8618 19.8248C70.7738 19.7368 70.7298 19.6168 70.7298 19.4648V14.4008C70.7298 14.2488 70.7738 14.1328 70.8618 14.0528C70.9578 13.9648 71.0778 13.9208 71.2218 13.9208C71.3658 13.9208 71.4818 13.9648 71.5698 14.0528C71.6578 14.1328 71.7018 14.2488 71.7018 14.4008V19.4648C71.7018 19.6248 71.6578 19.7448 71.5698 19.8248C71.4818 19.9048 71.3658 19.9448 71.2218 19.9448ZM71.2218 12.6608C71.0298 12.6608 70.8738 12.6048 70.7538 12.4928C70.6338 12.3808 70.5738 12.2328 70.5738 12.0488C70.5738 11.8728 70.6338 11.7288 70.7538 11.6168C70.8738 11.5048 71.0298 11.4488 71.2218 11.4488C71.4138 11.4488 71.5698 11.5048 71.6898 11.6168C71.8098 11.7288 71.8698 11.8728 71.8698 12.0488C71.8698 12.2328 71.8098 12.3808 71.6898 12.4928C71.5698 12.6048 71.4138 12.6608 71.2218 12.6608ZM78.6824 13.9208C78.8344 13.9208 78.9544 13.9648 79.0424 14.0528C79.1304 14.1408 79.1744 14.2568 79.1744 14.4008V19.4888C79.1744 20.3608 78.9504 21.0168 78.5024 21.4568C78.0544 21.9048 77.3904 22.1288 76.5104 22.1288C75.6544 22.1288 74.9424 21.9608 74.3744 21.6248C74.0864 21.4648 73.9424 21.2808 73.9424 21.0728C73.9424 20.9608 73.9704 20.8688 74.0264 20.7968C74.0904 20.7248 74.1704 20.6888 74.2664 20.6888C74.3464 20.6888 74.4904 20.7448 74.6984 20.8568C74.9784 21.0008 75.2544 21.1168 75.5264 21.2048C75.7984 21.2928 76.1224 21.3368 76.4984 21.3368C77.0664 21.3368 77.4944 21.1848 77.7824 20.8808C78.0704 20.5848 78.2144 20.1488 78.2144 19.5728V18.5408C78.0464 18.9168 77.7864 19.2048 77.4344 19.4048C77.0904 19.6048 76.6824 19.7048 76.2104 19.7048C75.6984 19.7048 75.2424 19.5848 74.8424 19.3448C74.4504 19.1048 74.1424 18.7648 73.9184 18.3248C73.7024 17.8848 73.5944 17.3768 73.5944 16.8008C73.5944 16.2248 73.7024 15.7168 73.9184 15.2768C74.1424 14.8368 74.4504 14.4968 74.8424 14.2568C75.2424 14.0168 75.6984 13.8968 76.2104 13.8968C76.6744 13.8968 77.0784 13.9968 77.4224 14.1968C77.7664 14.3968 78.0264 14.6808 78.2024 15.0488V14.4008C78.2024 14.2568 78.2424 14.1408 78.3224 14.0528C78.4104 13.9648 78.5304 13.9208 78.6824 13.9208ZM76.4024 18.9008C76.9624 18.9008 77.4024 18.7168 77.7224 18.3488C78.0424 17.9728 78.2024 17.4568 78.2024 16.8008C78.2024 16.1528 78.0424 15.6448 77.7224 15.2768C77.4104 14.9008 76.9704 14.7128 76.4024 14.7128C75.8344 14.7128 75.3864 14.9008 75.0584 15.2768C74.7384 15.6448 74.5784 16.1528 74.5784 16.8008C74.5784 17.4568 74.7384 17.9728 75.0584 18.3488C75.3864 18.7168 75.8344 18.9008 76.4024 18.9008ZM84.3372 13.8968C85.7372 13.8968 86.4372 14.6688 86.4372 16.2128V19.4648C86.4372 19.6168 86.3932 19.7368 86.3052 19.8248C86.2252 19.9048 86.1092 19.9448 85.9572 19.9448C85.8052 19.9448 85.6852 19.9048 85.5972 19.8248C85.5092 19.7368 85.4652 19.6168 85.4652 19.4648V16.2728C85.4652 15.7288 85.3572 15.3328 85.1412 15.0848C84.9332 14.8368 84.5972 14.7128 84.1332 14.7128C83.5972 14.7128 83.1692 14.8768 82.8492 15.2048C82.5292 15.5328 82.3692 15.9768 82.3692 16.5368V19.4648C82.3692 19.6168 82.3252 19.7368 82.2372 19.8248C82.1572 19.9048 82.0412 19.9448 81.8892 19.9448C81.7372 19.9448 81.6172 19.9048 81.5292 19.8248C81.4412 19.7368 81.3972 19.6168 81.3972 19.4648V14.4008C81.3972 14.2568 81.4412 14.1408 81.5292 14.0528C81.6172 13.9648 81.7372 13.9208 81.8892 13.9208C82.0332 13.9208 82.1452 13.9648 82.2252 14.0528C82.3132 14.1408 82.3572 14.2528 82.3572 14.3888V15.0008C82.5492 14.6408 82.8172 14.3688 83.1612 14.1848C83.5052 13.9928 83.8972 13.8968 84.3372 13.8968ZM96.5983 13.9208C96.7503 13.9208 96.8663 13.9648 96.9463 14.0528C97.0343 14.1408 97.0783 14.2568 97.0783 14.4008V19.4768C97.0783 19.6128 97.0343 19.7248 96.9463 19.8128C96.8663 19.9008 96.7503 19.9448 96.5983 19.9448C96.4543 19.9448 96.3383 19.9048 96.2503 19.8248C96.1703 19.7368 96.1303 19.6248 96.1303 19.4888V18.8888C95.9463 19.2408 95.6863 19.5088 95.3503 19.6928C95.0223 19.8768 94.6503 19.9688 94.2343 19.9688C93.5383 19.9688 93.0143 19.7768 92.6623 19.3928C92.3103 19.0008 92.1343 18.4248 92.1343 17.6648V14.4008C92.1343 14.2568 92.1783 14.1408 92.2663 14.0528C92.3543 13.9648 92.4743 13.9208 92.6263 13.9208C92.7783 13.9208 92.8943 13.9648 92.9743 14.0528C93.0623 14.1408 93.1063 14.2568 93.1063 14.4008V17.6408C93.1063 18.1608 93.2103 18.5448 93.4183 18.7928C93.6263 19.0328 93.9543 19.1528 94.4023 19.1528C94.9143 19.1528 95.3263 18.9888 95.6383 18.6608C95.9503 18.3248 96.1063 17.8848 96.1063 17.3408V14.4008C96.1063 14.2568 96.1503 14.1408 96.2383 14.0528C96.3263 13.9648 96.4463 13.9208 96.5983 13.9208ZM102.248 13.8968C102.76 13.8968 103.212 14.0248 103.604 14.2808C103.996 14.5368 104.3 14.8968 104.516 15.3608C104.732 15.8168 104.84 16.3488 104.84 16.9568C104.84 17.5648 104.732 18.0968 104.516 18.5528C104.3 19.0008 103.996 19.3488 103.604 19.5968C103.22 19.8448 102.768 19.9688 102.248 19.9688C101.792 19.9688 101.392 19.8688 101.048 19.6688C100.712 19.4688 100.456 19.1848 100.28 18.8168V21.6368C100.28 21.7808 100.236 21.8928 100.148 21.9728C100.068 22.0608 99.9524 22.1048 99.8004 22.1048C99.6484 22.1048 99.5284 22.0608 99.4404 21.9728C99.3524 21.8848 99.3084 21.7728 99.3084 21.6368V14.4008C99.3084 14.2568 99.3524 14.1408 99.4404 14.0528C99.5284 13.9648 99.6484 13.9208 99.8004 13.9208C99.9524 13.9208 100.068 13.9648 100.148 14.0528C100.236 14.1408 100.28 14.2568 100.28 14.4008V15.0488C100.456 14.6808 100.712 14.3968 101.048 14.1968C101.392 13.9968 101.792 13.8968 102.248 13.8968ZM102.056 19.1648C102.624 19.1648 103.064 18.9728 103.376 18.5888C103.688 18.2048 103.844 17.6608 103.844 16.9568C103.844 16.2528 103.688 15.7048 103.376 15.3128C103.064 14.9128 102.624 14.7128 102.056 14.7128C101.488 14.7128 101.048 14.9048 100.736 15.2888C100.432 15.6728 100.28 16.2208 100.28 16.9328C100.28 17.6448 100.432 18.1968 100.736 18.5888C101.048 18.9728 101.488 19.1648 102.056 19.1648ZM113.174 13.8968C114.574 13.8968 115.274 14.6688 115.274 16.2128V19.4648C115.274 19.6168 115.23 19.7368 115.142 19.8248C115.062 19.9048 114.946 19.9448 114.794 19.9448C114.642 19.9448 114.522 19.9048 114.434 19.8248C114.346 19.7368 114.302 19.6168 114.302 19.4648V16.2728C114.302 15.7288 114.194 15.3328 113.978 15.0848C113.77 14.8368 113.434 14.7128 112.97 14.7128C112.434 14.7128 112.006 14.8768 111.686 15.2048C111.366 15.5328 111.206 15.9768 111.206 16.5368V19.4648C111.206 19.6168 111.162 19.7368 111.074 19.8248C110.994 19.9048 110.878 19.9448 110.726 19.9448C110.574 19.9448 110.454 19.9048 110.366 19.8248C110.278 19.7368 110.234 19.6168 110.234 19.4648V14.4008C110.234 14.2568 110.278 14.1408 110.366 14.0528C110.454 13.9648 110.574 13.9208 110.726 13.9208C110.87 13.9208 110.982 13.9648 111.062 14.0528C111.15 14.1408 111.194 14.2528 111.194 14.3888V15.0008C111.386 14.6408 111.654 14.3688 111.998 14.1848C112.342 13.9928 112.734 13.8968 113.174 13.8968ZM119.901 19.9688C119.349 19.9688 118.861 19.8448 118.437 19.5968C118.021 19.3488 117.697 18.9968 117.465 18.5408C117.241 18.0768 117.129 17.5408 117.129 16.9328C117.129 16.3248 117.241 15.7928 117.465 15.3368C117.697 14.8728 118.021 14.5168 118.437 14.2688C118.861 14.0208 119.349 13.8968 119.901 13.8968C120.453 13.8968 120.941 14.0208 121.365 14.2688C121.789 14.5168 122.113 14.8728 122.337 15.3368C122.569 15.7928 122.685 16.3248 122.685 16.9328C122.685 17.5408 122.569 18.0768 122.337 18.5408C122.113 18.9968 121.789 19.3488 121.365 19.5968C120.941 19.8448 120.453 19.9688 119.901 19.9688ZM119.901 19.1648C120.477 19.1648 120.917 18.9768 121.221 18.6008C121.533 18.2168 121.689 17.6608 121.689 16.9328C121.689 16.2208 121.533 15.6728 121.221 15.2888C120.909 14.8968 120.469 14.7008 119.901 14.7008C119.333 14.7008 118.893 14.8968 118.581 15.2888C118.269 15.6728 118.113 16.2208 118.113 16.9328C118.113 17.6528 118.265 18.2048 118.569 18.5888C118.881 18.9728 119.325 19.1648 119.901 19.1648ZM132.479 14.2328C132.559 14.0408 132.691 13.9448 132.875 13.9448C132.995 13.9448 133.103 13.9848 133.199 14.0648C133.295 14.1448 133.343 14.2448 133.343 14.3648C133.343 14.4208 133.331 14.4808 133.307 14.5448L131.315 19.5848C131.267 19.6888 131.195 19.7728 131.099 19.8368C131.011 19.8928 130.911 19.9208 130.799 19.9208C130.695 19.9208 130.595 19.8928 130.499 19.8368C130.411 19.7728 130.343 19.6888 130.295 19.5848L128.639 15.3728L126.995 19.5848C126.955 19.6888 126.887 19.7728 126.791 19.8368C126.695 19.8928 126.591 19.9208 126.479 19.9208C126.375 19.9208 126.275 19.8928 126.179 19.8368C126.083 19.7728 126.011 19.6888 125.963 19.5848L123.971 14.5568C123.947 14.4928 123.935 14.4368 123.935 14.3888C123.935 14.2608 123.987 14.1528 124.091 14.0648C124.203 13.9768 124.323 13.9328 124.451 13.9328C124.643 13.9328 124.779 14.0288 124.859 14.2208L126.503 18.6488L128.195 14.2568C128.243 14.1528 128.307 14.0728 128.387 14.0168C128.475 13.9608 128.567 13.9328 128.663 13.9328C128.767 13.9328 128.859 13.9608 128.939 14.0168C129.027 14.0728 129.091 14.1528 129.131 14.2568L130.823 18.6368L132.479 14.2328Z" fill="white"/>
<path d="M69.792 35.0928C70.4427 35.2634 70.944 35.5834 71.296 36.0528C71.6587 36.5221 71.84 37.1088 71.84 37.8128C71.84 38.8048 71.5147 39.5674 70.864 40.1008C70.2133 40.6234 69.2907 40.8848 68.096 40.8848H64.064C63.8613 40.8848 63.696 40.8261 63.568 40.7088C63.4507 40.5914 63.392 40.4368 63.392 40.2448V30.2448C63.392 30.0528 63.4507 29.8981 63.568 29.7808C63.696 29.6634 63.8613 29.6048 64.064 29.6048H67.92C69.0827 29.6048 69.984 29.8608 70.624 30.3728C71.264 30.8848 71.584 31.6101 71.584 32.5488C71.584 33.1568 71.424 33.6794 71.104 34.1168C70.7947 34.5541 70.3573 34.8794 69.792 35.0928ZM64.688 34.6128H67.728C68.5707 34.6128 69.2053 34.4421 69.632 34.1008C70.0693 33.7594 70.288 33.2634 70.288 32.6128C70.288 31.3328 69.4347 30.6928 67.728 30.6928H64.688V34.6128ZM67.968 39.7968C68.8533 39.7968 69.504 39.6368 69.92 39.3168C70.3467 38.9861 70.56 38.4741 70.56 37.7808C70.56 36.3941 69.696 35.7008 67.968 35.7008H64.688V39.7968H67.968ZM78.4373 32.9328C78.8853 32.9008 79.1093 33.0821 79.1093 33.4768C79.1093 33.6474 79.0613 33.7861 78.9653 33.8928C78.8693 33.9888 78.7039 34.0474 78.4693 34.0688L77.9893 34.1168C77.2746 34.1808 76.7413 34.4368 76.3893 34.8848C76.0479 35.3221 75.8773 35.8394 75.8773 36.4368V40.3248C75.8773 40.5381 75.8186 40.6981 75.7013 40.8048C75.5839 40.9114 75.4293 40.9648 75.2373 40.9648C75.0453 40.9648 74.8853 40.9114 74.7573 40.8048C74.6399 40.6874 74.5813 40.5274 74.5813 40.3248V33.5728C74.5813 33.3701 74.6453 33.2154 74.7733 33.1088C74.9013 32.9914 75.0559 32.9328 75.2373 32.9328C75.4079 32.9328 75.5519 32.9914 75.6693 33.1088C75.7866 33.2154 75.8453 33.3648 75.8453 33.5568V34.4528C76.0693 33.9834 76.3839 33.6261 76.7893 33.3808C77.2053 33.1354 77.6799 32.9914 78.2133 32.9488L78.4373 32.9328ZM83.8976 40.9968C83.1616 40.9968 82.511 40.8314 81.9456 40.5008C81.391 40.1701 80.959 39.7008 80.6496 39.0928C80.351 38.4741 80.2016 37.7594 80.2016 36.9488C80.2016 36.1381 80.351 35.4288 80.6496 34.8208C80.959 34.2021 81.391 33.7274 81.9456 33.3968C82.511 33.0661 83.1616 32.9008 83.8976 32.9008C84.6336 32.9008 85.2843 33.0661 85.8496 33.3968C86.415 33.7274 86.847 34.2021 87.1456 34.8208C87.455 35.4288 87.6096 36.1381 87.6096 36.9488C87.6096 37.7594 87.455 38.4741 87.1456 39.0928C86.847 39.7008 86.415 40.1701 85.8496 40.5008C85.2843 40.8314 84.6336 40.9968 83.8976 40.9968ZM83.8976 39.9248C84.6656 39.9248 85.2523 39.6741 85.6576 39.1728C86.0736 38.6608 86.2816 37.9194 86.2816 36.9488C86.2816 35.9994 86.0736 35.2688 85.6576 34.7568C85.2416 34.2341 84.655 33.9728 83.8976 33.9728C83.1403 33.9728 82.5536 34.2341 82.1376 34.7568C81.7216 35.2688 81.5136 35.9994 81.5136 36.9488C81.5136 37.9088 81.7163 38.6448 82.1216 39.1568C82.5376 39.6688 83.1296 39.9248 83.8976 39.9248ZM100.703 33.3488C100.81 33.0928 100.986 32.9648 101.231 32.9648C101.391 32.9648 101.535 33.0181 101.663 33.1248C101.791 33.2314 101.855 33.3648 101.855 33.5248C101.855 33.5994 101.839 33.6794 101.807 33.7648L99.1509 40.4848C99.0869 40.6234 98.9909 40.7354 98.8629 40.8208C98.7455 40.8954 98.6122 40.9328 98.4629 40.9328C98.3242 40.9328 98.1909 40.8954 98.0629 40.8208C97.9455 40.7354 97.8549 40.6234 97.7909 40.4848L95.5829 34.8688L93.3909 40.4848C93.3375 40.6234 93.2469 40.7354 93.1189 40.8208C92.9909 40.8954 92.8522 40.9328 92.7029 40.9328C92.5642 40.9328 92.4309 40.8954 92.3029 40.8208C92.1749 40.7354 92.0789 40.6234 92.0149 40.4848L89.3589 33.7808C89.3269 33.6954 89.3109 33.6208 89.3109 33.5568C89.3109 33.3861 89.3802 33.2421 89.5189 33.1248C89.6682 33.0074 89.8282 32.9488 89.9989 32.9488C90.2549 32.9488 90.4362 33.0768 90.5429 33.3328L92.7349 39.2368L94.9909 33.3808C95.0549 33.2421 95.1402 33.1354 95.2469 33.0608C95.3642 32.9861 95.4869 32.9488 95.6149 32.9488C95.7535 32.9488 95.8762 32.9861 95.9829 33.0608C96.1002 33.1354 96.1855 33.2421 96.2389 33.3808L98.4949 39.2208L100.703 33.3488ZM106.599 40.9968C106.108 40.9968 105.639 40.9381 105.191 40.8208C104.754 40.7034 104.364 40.5381 104.023 40.3248C103.831 40.1968 103.692 40.0794 103.607 39.9728C103.532 39.8554 103.495 39.7168 103.495 39.5568C103.495 39.4181 103.532 39.3061 103.607 39.2208C103.692 39.1248 103.799 39.0768 103.927 39.0768C104.055 39.0768 104.242 39.1568 104.487 39.3168C104.807 39.5088 105.122 39.6634 105.431 39.7808C105.751 39.8874 106.146 39.9408 106.615 39.9408C107.191 39.9408 107.639 39.8394 107.959 39.6368C108.279 39.4341 108.439 39.1408 108.439 38.7568C108.439 38.5221 108.38 38.3354 108.263 38.1968C108.146 38.0474 107.943 37.9194 107.655 37.8128C107.367 37.6954 106.946 37.5781 106.391 37.4608C105.452 37.2581 104.78 36.9861 104.375 36.6448C103.97 36.3034 103.767 35.8394 103.767 35.2528C103.767 34.7941 103.895 34.3888 104.151 34.0368C104.407 33.6848 104.759 33.4074 105.207 33.2048C105.666 33.0021 106.183 32.9008 106.759 32.9008C107.175 32.9008 107.575 32.9594 107.959 33.0768C108.354 33.1834 108.7 33.3381 108.999 33.5408C109.362 33.7968 109.543 34.0634 109.543 34.3408C109.543 34.4794 109.5 34.5968 109.415 34.6928C109.33 34.7888 109.228 34.8368 109.111 34.8368C108.983 34.8368 108.791 34.7461 108.535 34.5648C108.236 34.3728 107.954 34.2234 107.687 34.1168C107.42 34.0101 107.09 33.9568 106.695 33.9568C106.194 33.9568 105.788 34.0688 105.479 34.2928C105.18 34.5168 105.031 34.8154 105.031 35.1888C105.031 35.4234 105.084 35.6154 105.191 35.7648C105.308 35.9034 105.495 36.0314 105.751 36.1488C106.018 36.2554 106.396 36.3621 106.887 36.4688C107.612 36.6288 108.172 36.8048 108.567 36.9968C108.972 37.1888 109.26 37.4234 109.431 37.7008C109.602 37.9781 109.687 38.3301 109.687 38.7568C109.687 39.4288 109.404 39.9728 108.839 40.3888C108.274 40.7941 107.527 40.9968 106.599 40.9968ZM118.295 39.0768C118.412 39.0768 118.513 39.1248 118.599 39.2208C118.684 39.3168 118.727 39.4394 118.727 39.5888C118.727 39.8554 118.54 40.1008 118.167 40.3248C117.783 40.5488 117.377 40.7194 116.951 40.8368C116.524 40.9434 116.108 40.9968 115.703 40.9968C114.497 40.9968 113.543 40.6394 112.839 39.9248C112.145 39.2101 111.799 38.2234 111.799 36.9648C111.799 36.1648 111.953 35.4608 112.263 34.8528C112.572 34.2341 113.004 33.7541 113.559 33.4128C114.124 33.0714 114.764 32.9008 115.479 32.9008C116.492 32.9008 117.297 33.2314 117.895 33.8928C118.492 34.5541 118.791 35.4501 118.791 36.5808C118.791 36.7941 118.748 36.9488 118.663 37.0448C118.577 37.1408 118.439 37.1888 118.247 37.1888H113.095C113.191 39.0234 114.06 39.9408 115.703 39.9408C116.119 39.9408 116.476 39.8874 116.775 39.7808C117.073 39.6634 117.393 39.5088 117.735 39.3168C118.012 39.1568 118.199 39.0768 118.295 39.0768ZM115.495 33.9088C114.812 33.9088 114.263 34.1221 113.847 34.5488C113.441 34.9754 113.201 35.5781 113.127 36.3568H117.655C117.633 35.5674 117.436 34.9648 117.063 34.5488C116.689 34.1221 116.167 33.9088 115.495 33.9088ZM125.156 32.9328C125.604 32.9008 125.828 33.0821 125.828 33.4768C125.828 33.6474 125.78 33.7861 125.684 33.8928C125.588 33.9888 125.423 34.0474 125.188 34.0688L124.708 34.1168C123.993 34.1808 123.46 34.4368 123.108 34.8848C122.767 35.3221 122.596 35.8394 122.596 36.4368V40.3248C122.596 40.5381 122.537 40.6981 122.42 40.8048C122.303 40.9114 122.148 40.9648 121.956 40.9648C121.764 40.9648 121.604 40.9114 121.476 40.8048C121.359 40.6874 121.3 40.5274 121.3 40.3248V33.5728C121.3 33.3701 121.364 33.2154 121.492 33.1088C121.62 32.9914 121.775 32.9328 121.956 32.9328C122.127 32.9328 122.271 32.9914 122.388 33.1088C122.505 33.2154 122.564 33.3648 122.564 33.5568V34.4528C122.788 33.9834 123.103 33.6261 123.508 33.3808C123.924 33.1354 124.399 32.9914 124.932 32.9488L125.156 32.9328Z" fill="white"/>
</g>
<defs>
<clipPath id="clip0">
<rect width="170" height="54" fill="white" transform="translate(0 0.884766)"/>
</clipPath>
</defs>
</svg>
