<svg width="88" height="60" viewBox="0 0 88 60" fill="none" xmlns="http://www.w3.org/2000/svg">
<path d="M86.3416 1.42286C85.421 0.505715 84.197 0 82.8958 0C82.0833 0 81.2758 0.205714 80.5627 0.593143C79.8496 0.980571 79.2393 1.54629 78.7987 2.22686L75.9393 6.648C75.5565 7.23909 74.9872 7.6848 74.3302 7.91914C74.1545 7.98189 73.2064 8.17474 72.9312 8.25789C71.7197 8.62406 70.6308 9.33189 69.8038 10.3029C68.789 11.4943 68.2284 13.0131 68.2284 14.5766V18.6309C68.2284 19.0954 68.0536 19.5377 67.7364 19.8789C67.4193 20.2114 67.0198 20.3983 66.5793 20.4137C66.557 20.4154 66.3627 20.4087 66.334 20.4057C65.4751 20.3143 64.8014 19.5886 64.7998 18.713V17.0895C64.7998 15.7387 64.289 14.4564 63.3615 13.4775C62.9073 12.9958 62.3724 12.6118 61.769 12.3358C61.1813 12.0645 60.5577 11.9119 59.9146 11.8797C59.8711 11.8774 59.6415 11.873 59.6415 11.873C58.9353 11.873 58.2444 12.0341 57.6427 12.3375C56.8644 12.7284 56.1924 13.361 55.6438 14.2147C55.145 14.9981 54.8295 15.8141 54.6101 16.4398C54.5604 16.589 53.2781 18.6615 52.7793 19.2598C52.2821 19.8667 51.7387 20.3861 51.5004 20.537C51.1798 20.7598 50.6107 20.9827 50.1615 20.9758C49.9233 20.9741 49.733 20.9295 49.5427 20.8301C49.3798 20.7427 49.1587 20.5901 48.8964 20.1924C48.7884 20.0158 48.7353 19.8735 48.7284 19.5461C48.7061 18.809 49.2255 17.4187 50.1204 15.8278C50.4238 15.281 50.7393 14.6844 50.9964 14.0261C51.3153 13.2015 51.4575 12.521 51.461 11.8215C51.4627 11.1787 51.317 10.5513 51.0427 10.0027C50.753 9.42154 50.2953 8.85669 49.7193 8.43326C48.821 7.76983 47.7084 7.37126 46.5838 7.37126H46.577C45.8673 7.37126 45.173 7.54183 44.5147 7.81097C43.841 8.08697 43.2195 8.50303 42.7018 9.0192L41.9998 9.72V7.23086C41.9998 6.37371 41.6973 5.55429 41.1178 4.92171C40.5401 4.29086 39.7615 3.9 38.9078 3.82286C38.9078 3.82286 14.941 1.644 14.6787 1.644C13.7719 1.644 12.8791 1.78629 12.0185 2.06743C11.1751 2.34343 10.3841 2.74457 9.66412 3.264C8.18297 4.33029 7.10177 5.81143 6.53606 7.54457C5.69434 10.1263 4.86154 12.4834 4.06097 14.5509C3.0324 17.2097 2.03469 19.4246 1.17429 20.9537C0.406286 22.3251 0 23.892 0 25.4863C0 26.8731 0.317143 28.2669 0.917143 29.5183C1.51543 30.7697 2.40514 31.8909 3.48514 32.7634L6.696 35.3486C7.73486 36.1851 8.38629 37.4263 8.48571 38.7531C8.592 40.1897 9.07714 41.5817 9.89143 42.7766C10.7006 43.9646 11.8131 44.9297 13.1074 45.5674C15.4474 46.7229 17.8217 48.3994 20.1617 50.5509C20.9811 51.3034 21.996 51.7989 23.0931 51.9857C23.4103 52.0389 23.7343 52.0663 24.0531 52.0663C25.6577 52.0663 27.2006 51.3891 28.2874 50.2097L29.7309 48.6394L29.7326 48.6377C29.7343 48.6377 29.736 48.6377 29.7377 48.6394L32.3263 52.4794C33.3086 53.9383 34.8737 54.9163 36.6171 55.1614C37.5703 56.166 38.9297 56.7429 40.3131 56.7429C41.0674 56.7429 41.8474 56.5671 42.5331 56.2363C43.2617 55.8849 43.8806 55.3786 44.3709 54.7323L45.228 53.6057C45.7046 52.9646 46.6234 52.3389 47.8166 51.8469C48.708 51.4714 52.4571 50.2284 54.5434 50.057C54.8727 50.0299 55.5 50.1367 55.8411 50.3064C56.1669 50.4744 56.4446 50.689 56.7377 51.2067C58.0937 53.6753 59.6931 55.6932 61.4914 57.2069C62.4017 57.9732 63.3514 58.5931 64.3149 59.0525C65.3177 59.5308 66.3429 59.8373 67.3612 59.9642C67.5566 59.9882 67.7537 60 67.9646 60C68.5714 59.9931 69.4903 59.9193 70.4503 59.3398C70.7966 59.1273 71.2886 58.7467 71.6674 58.133C71.92 57.7275 72.0972 57.2553 72.1898 56.7487C72.2165 56.6019 72.264 56.069 72.264 55.9507C72.2606 54.7815 71.7926 53.6724 70.944 52.8255L68.5491 50.4375C67.5806 49.4724 67.0457 48.1867 67.044 46.8187C67.0457 45.7455 67.3766 44.717 68.0023 43.8444L71.1069 39.5193C71.8149 38.5318 72.4663 37.4895 73.0406 36.4181C73.2566 36.0153 73.3029 35.5524 73.1709 35.1135C73.0389 34.6747 72.744 34.3147 72.3411 34.097C72.0926 33.9633 71.8114 33.893 71.532 33.893C70.8977 33.893 70.3183 34.2393 70.02 34.7964C69.6597 35.4672 69.2647 36.1248 68.8431 36.7611L61.6035 36.4109L65.9803 23.8161C66.1567 23.8341 66.6413 23.8421 66.6979 23.8402C67.3819 23.8162 68.0453 23.6568 68.6659 23.3654C69.2625 23.0859 69.7922 22.7019 70.2396 22.2202C71.1533 21.2448 71.6573 19.9694 71.6573 18.6305V14.5762C71.6556 13.0162 72.7802 11.6997 74.3299 11.4459C76.171 11.1442 77.8065 10.0728 78.8196 8.50937L81.6773 4.0884C81.9447 3.67526 82.399 3.4284 82.8962 3.4284C83.6916 3.43011 84.3413 4.07469 84.343 4.86497V7.2444C84.343 7.53069 84.2573 7.80669 84.0979 8.04326C84.0979 8.04326 75.9567 20.0998 75.7562 20.4255C75.5162 20.8164 75.4408 21.2758 75.547 21.7215C75.6516 22.1673 75.9242 22.5444 76.3133 22.7861C76.5842 22.9524 76.8962 23.0415 77.2133 23.0415C77.8116 23.0415 78.3585 22.7381 78.6739 22.2273C78.8539 21.9358 86.9385 9.96497 86.9385 9.96497C87.4836 9.15754 87.7716 8.21811 87.7716 7.2444V4.86497C87.7696 3.564 87.2621 2.34171 86.3416 1.42286ZM38.5713 7.23771V13.848C38.5713 14.544 39.0024 15.1646 39.6453 15.432C39.8544 15.5177 40.0836 15.5623 40.3101 15.5623C40.7661 15.5623 41.2005 15.3857 41.5245 15.0617L45.1368 11.4651C45.5157 11.0846 46.0413 10.8669 46.5761 10.8669C46.9875 10.8686 47.3436 11.0155 47.6824 11.2269C48.0286 11.4429 48.0237 11.9981 48.0038 12.1053C47.9671 12.3033 47.8966 12.5388 47.8011 12.78C47.6589 13.1486 47.4429 13.5891 47.1223 14.1651C46.044 16.1349 45.3206 17.8046 45.3 19.5463C45.2949 20.4566 45.552 21.3514 46.0251 22.0663C46.1145 22.2036 46.2101 22.3339 46.3085 22.4609L43.6479 25.3315L32.2737 17.3119C31.5084 16.7724 30.4515 16.9467 29.9001 17.7038L23.1007 27.0398L17.2471 23.598L25.9474 6.08263L38.5713 7.23771ZM41.616 28.0941L37.5084 35.1814L26.0918 28.7566L31.6776 21.0869L41.616 28.0941ZM9.79526 8.60743C10.4827 6.49372 12.4473 5.07257 14.6827 5.07257C14.8404 5.07257 22.3003 5.74783 22.3003 5.74783L14.2219 21.9807L6.31217 18.1334C6.61954 17.4034 8.9364 11.244 9.79526 8.60743ZM14.6244 42.4935C13.0713 41.7255 12.029 40.1947 11.9038 38.4993C11.8198 37.3661 11.5095 36.2793 10.9798 35.273C10.4518 34.265 9.73354 33.3924 8.84726 32.6793L5.6364 30.0924C4.2324 28.9627 3.4284 27.2829 3.4284 25.4863C3.4284 24.4783 3.68383 23.4909 4.16554 22.632C4.40417 22.2058 4.64589 21.7473 4.89154 21.2549L21.4754 30.0615L16.5953 43.5727C15.9343 43.1762 15.2753 42.8143 14.6244 42.4935ZM46.4878 48.6855C45.653 49.0404 44.9827 49.3935 44.3827 49.7947C43.6233 50.3038 43.0078 50.8713 42.5004 51.5295L41.6433 52.6558C41.3175 53.0793 40.8564 53.3073 40.3147 53.3124C39.7301 53.3055 39.233 53.0398 38.9175 52.5633C38.5987 52.0815 38.0638 51.7935 37.4844 51.7935C36.5535 51.7935 35.6878 51.3341 35.1684 50.5644L32.5798 46.721C32.261 46.2478 31.8238 45.857 31.3164 45.5947C30.8295 45.3427 30.2736 45.209 29.7336 45.209C28.7839 45.209 27.8537 45.6118 27.209 46.3164L25.7638 47.8884C25.2375 48.4593 24.4387 48.7335 23.6638 48.605C23.2215 48.5295 22.8118 48.329 22.481 48.0255C21.5117 47.1343 20.521 46.3092 19.524 45.5568L24.4956 31.7925L37.302 38.9995C37.5127 39.1179 37.7378 39.1853 37.9639 39.209C38.01 39.2157 47.1111 39.2199 47.1111 39.2199L47.5215 48.2899C47.1831 48.4092 46.836 48.5397 46.4878 48.6855ZM66.4839 40.0797L65.2164 41.8457C64.6901 42.5794 64.2856 43.3851 64.013 44.2423C63.749 45.0771 63.6153 45.9446 63.6153 46.8189C63.6153 47.9297 63.8278 49.0166 64.2495 50.0486C64.6833 51.108 65.3141 52.056 66.1284 52.8669L68.5233 55.2531C69.0374 55.7035 68.7735 56.2903 68.7513 56.328C68.7187 56.376 68.4802 56.6196 67.781 56.5611C66.4576 56.4 65.045 55.716 63.6993 54.5829C62.2455 53.3623 60.8775 51.6223 59.7427 49.5531C59.1855 48.528 58.3387 47.7 57.3547 47.2234C56.5233 46.8154 55.6027 46.6166 54.5381 46.6166C53.1276 46.6226 51.8496 46.9593 50.9064 47.2431L50.5474 39.3089L66.4839 40.0797ZM58.0335 36.2383C58.0335 36.2383 51.1054 35.8493 48.7934 35.7933C46.8751 35.7468 41.1177 35.791 41.1177 35.791L45.2727 28.6217L49.2593 24.2895C49.5519 24.3446 50.1615 24.3425 50.1615 24.3425C51.3067 24.3425 52.4021 24.0202 53.4135 23.3499C53.8507 23.0534 54.2587 22.7088 54.7764 22.1602C55.397 21.5002 56.0244 20.7142 56.5953 19.8725C57.0461 19.1954 57.5484 18.397 57.8467 17.5656C58.1261 16.7496 58.4868 16.1081 58.7655 15.7437C59.2142 15.157 59.9489 15.3228 60.0693 15.354C60.3693 15.4322 60.6418 15.5945 60.8709 15.8343C61.1949 16.1755 61.3714 16.6215 61.3714 17.0895V18.713C61.3731 20.0782 61.9035 21.3617 62.8673 22.3289L58.0335 36.2383Z" fill="#454545"/>
<path d="M74.1684 30.0994C75.1152 30.0994 75.8827 29.3319 75.8827 28.3852C75.8827 27.4384 75.1152 26.6709 74.1684 26.6709C73.2216 26.6709 72.4541 27.4384 72.4541 28.3852C72.4541 29.3319 73.2216 30.0994 74.1684 30.0994Z" fill="#454545"/>
</svg>
