<svg width="29" height="26" viewBox="0 0 29 26" fill="none" xmlns="http://www.w3.org/2000/svg">
<path d="M28.3698 4.49812C28.1044 2.7801 26.5757 1.27875 24.8839 1.07958C17.9798 0.306575 11.0144 0.306808 4.11037 1.08027C2.42461 1.27875 0.895959 2.77983 0.629161 4.50436C-0.210037 10.1375 -0.209718 15.869 0.630106 21.502C0.895824 23.22 2.42461 24.7212 4.11604 24.9201C7.56457 25.3066 11.031 25.5002 14.5 25.5C17.9689 25.5002 21.4354 25.3066 24.8839 24.9201L24.8894 24.9196C26.5753 24.7214 28.1042 23.2201 28.3709 21.4955C29.2101 15.8625 29.2097 10.131 28.3698 4.49812ZM19.4222 13.9237L12.9379 18.3652C12.7752 18.4767 12.5861 18.5406 12.3907 18.5503C12.1953 18.56 12.0011 18.5151 11.8286 18.4203C11.6562 18.3254 11.512 18.1843 11.4115 18.0119C11.311 17.8395 11.2579 17.6423 11.2579 17.4414V8.55845C11.2579 8.35747 11.311 8.16026 11.4115 7.98785C11.512 7.81544 11.6562 7.67429 11.8287 7.57947C12.0011 7.48464 12.1954 7.43969 12.3908 7.4494C12.5862 7.45911 12.7753 7.52313 12.9381 7.63462L19.4223 12.0761C19.5703 12.1775 19.6917 12.3149 19.7756 12.476C19.8595 12.6372 19.9035 12.8171 19.9035 12.9999C19.9035 13.1827 19.8595 13.3626 19.7756 13.5238C19.6917 13.685 19.5703 13.8223 19.4223 13.9237H19.4222Z" fill="#3683BC"/>
</svg>
