<svg width="46" height="51" viewBox="0 0 46 51" fill="none" xmlns="http://www.w3.org/2000/svg">
<path d="M23.223 26.0293C22.6506 26.6017 21.724 26.6019 21.1514 26.0293L19.0798 23.9577C18.5087 23.3865 18.5087 22.4572 19.0798 21.8861L20.1155 20.8504L11.8292 12.564L10.7935 13.5998C6.79541 17.5978 6.79541 24.103 10.7935 28.101L17.0083 34.3158C21.0062 38.3137 27.5113 38.3139 31.5095 34.3158L32.5453 33.2801L24.2589 24.9937L23.223 26.0293ZM19.0798 32.244L12.8649 26.0292C10.364 23.5282 10.0535 19.6532 11.9332 16.811L16.1498 21.0276C15.3716 22.6609 15.6577 24.6787 17.0081 26.0291L19.0797 28.1007C19.9097 28.9308 21.0133 29.3878 22.1871 29.3878C22.8541 29.3878 23.4983 29.2402 24.0827 28.9605L28.2979 33.1758C25.4557 35.0556 21.5807 34.745 19.0798 32.244Z" fill="#3683BC"/>
<path d="M38.5527 4.08926V0.600098H4.86133C2.43818 0.600098 0.466797 2.57148 0.466797 4.99463V46.2056C0.466797 48.6287 2.43818 50.6001 4.86133 50.6001H38.5527V47.1109L44.4121 44.1813C44.4121 39.4255 44.4121 11.5526 44.4121 7.01904L38.5527 4.08926ZM41.4824 8.82969V15.9058L38.5527 17.3706V7.36484L41.4824 8.82969ZM35.623 47.6704H4.86133C4.05361 47.6704 3.39648 47.0133 3.39648 46.2056V4.99463C3.39648 4.18691 4.05361 3.52979 4.86133 3.52979H35.623V47.6704ZM41.4824 42.3705L38.5527 43.8354V38.2241L41.4824 36.7593V42.3705ZM41.4824 33.4838L38.5527 34.9486V29.4351L41.4824 27.9702V33.4838ZM41.4824 24.6947L38.5527 26.1596V20.646L41.4824 19.1812V24.6947Z" fill="#3683BC"/>
</svg>
