<svg width="14" height="14" viewBox="0 0 14 14" fill="none" xmlns="http://www.w3.org/2000/svg">
<circle cx="6.94677" cy="6.70849" r="6.69091" fill="#AAAAAA"/>
<path d="M9.7447 4.18089C9.5893 3.84123 9.36842 3.53599 9.08649 3.27515C8.51374 2.74347 7.75341 2.45044 6.94757 2.45044C6.14173 2.45044 5.3814 2.74347 4.80866 3.27404C4.52672 3.53599 4.30584 3.84012 4.15044 4.18089C3.98839 4.53608 3.90625 4.91236 3.90625 5.30085V5.60054C3.90625 5.66936 3.96175 5.72486 4.03057 5.72486H4.62995C4.69877 5.72486 4.75427 5.66936 4.75427 5.60054V5.30085C4.75427 4.19642 5.7377 3.29846 6.94757 3.29846C8.15744 3.29846 9.14088 4.19642 9.14088 5.30085C9.14088 5.75372 8.97993 6.17994 8.67469 6.53514C8.37278 6.887 7.94655 7.13896 7.47481 7.24552C7.20509 7.30657 6.962 7.45863 6.78996 7.67619C6.61851 7.893 6.52506 8.16122 6.52467 8.43763V8.78616C6.52467 8.85498 6.58017 8.91047 6.64899 8.91047H7.24837C7.31719 8.91047 7.37269 8.85498 7.37269 8.78616V8.43763C7.37269 8.26336 7.49368 8.11019 7.66128 8.07245C8.30951 7.92593 8.89779 7.57629 9.31847 7.0879C9.53048 6.84038 9.69586 6.5651 9.81019 6.26652C9.92896 5.95684 9.98889 5.63162 9.98889 5.30085C9.98889 4.91236 9.90676 4.53497 9.7447 4.18089ZM6.94757 9.79845C6.60459 9.79845 6.32599 10.0771 6.32599 10.42C6.32599 10.763 6.60459 11.0416 6.94757 11.0416C7.29055 11.0416 7.56916 10.763 7.56916 10.42C7.56916 10.0771 7.29055 9.79845 6.94757 9.79845Z" fill="white" stroke="white" stroke-width="0.669091"/>
</svg>
