<svg width="80" height="80" viewBox="0 0 80 80" fill="none" xmlns="http://www.w3.org/2000/svg">
<path d="M69.2304 45.1372C70.1547 41.9577 70.6235 38.6621 70.6235 35.3117C70.6235 15.8779 54.7438 0 35.3117 0C15.8779 0 0 15.8797 0 35.3117C0 54.6965 15.8408 70.4672 35.3117 70.4672C40.1543 70.4672 44.9393 69.4902 49.301 67.6326C51.8947 73.2475 56.7132 77.7071 62.8513 79.753L63.5924 80L64.3335 79.753C73.7031 76.6299 79.9983 67.8832 79.9983 57.988V47.0302H77.6546C74.4484 47.0302 71.4839 46.1153 69.2304 45.1372ZM47.1865 47.0302V57.988C47.1865 59.7668 47.391 61.5084 47.7791 63.1869C43.9134 64.887 39.6418 65.7798 35.3117 65.7798C18.4254 65.7798 4.6874 52.1119 4.6874 35.3117C4.6874 18.4254 18.4254 4.6874 35.3117 4.6874C52.1981 4.6874 65.9361 18.4254 65.9361 35.3117C65.9361 37.8628 65.6222 40.3759 65.0042 42.8155C64.9999 42.8122 63.5947 41.7727 63.5947 41.7727L62.1971 42.8036C62.1396 42.8458 56.3868 47.0302 49.5302 47.0302H47.1865ZM75.3109 57.988C75.3109 65.5986 70.634 72.3545 63.5924 75.0414C56.5508 72.3545 51.8739 65.5986 51.8739 57.988V51.5934C57.1271 51.0425 61.4674 48.7894 63.5924 47.4919C65.7173 48.7894 70.0577 51.0425 75.3109 51.5934V57.988Z" fill="#454545"/>
<path d="M62.6037 53.3276C59.6553 54.6982 57.638 55.1829 56.5605 55.5446V57.9888C56.5605 62.377 58.6805 66.5077 62.2315 69.0381L63.5916 70.0073L64.9518 69.0381C68.5028 66.5077 70.6227 62.3771 70.6227 57.9888V55.5446C69.5817 55.1951 67.5733 54.7192 64.5796 53.3276L63.5916 52.8683L62.6037 53.3276ZM65.8852 58.9357C65.6822 60.843 64.8716 62.6274 63.5916 64.0196C62.3118 62.6274 61.5011 60.8428 61.2981 58.9357C62.0642 58.6574 62.8303 58.3524 63.5916 58.0221C64.3532 58.3524 65.1191 58.6574 65.8852 58.9357Z" fill="#454545"/>
<path d="M32.9688 9.37476H37.6562V14.0623H32.9688V9.37476Z" fill="#454545"/>
<path d="M32.9688 56.405H37.6562V61.0925H32.9688V56.405Z" fill="#454545"/>
<path d="M9.375 32.968H14.0625V37.6555H9.375V32.968Z" fill="#454545"/>
<path d="M56.5605 32.968H61.248V37.6555H56.5605V32.968Z" fill="#454545"/>
<path d="M37.6551 18.7496H32.9677V34.341L24.2793 43.0293L27.5938 46.3439L36.2822 37.6555H47.1862V32.9681H37.6551V18.7496Z" fill="#454545"/>
</svg>
