<svg width="107" height="75" viewBox="0 0 107 75" fill="none" xmlns="http://www.w3.org/2000/svg">
<g clip-path="url(#clip0)">
<path d="M38.2915 1.34562L1.85467 33.3793C-0.623097 35.5505 -0.623097 39.419 1.85467 41.5903L38.2915 73.6392C41.803 76.7279 47.2905 74.2202 47.2905 69.526L47.2905 5.45876C47.2753 0.779861 41.803 -1.72778 38.2915 1.34562Z" fill="#3683BC"/>
<path d="M60.789 63.104C62.9019 63.104 64.6196 61.3762 64.6196 59.2508C64.6196 57.1254 62.9019 55.3976 60.789 55.3976C58.676 55.3976 56.9583 57.1254 56.9583 59.2508C56.9583 61.3915 58.6608 63.104 60.789 63.104Z" fill="#3683BC"/>
<path d="M60.789 48.6086C62.9019 48.6086 64.6196 46.8808 64.6196 44.7554C64.6196 42.63 62.9019 40.9022 60.789 40.9022C58.676 40.9022 56.9583 42.63 56.9583 44.7554C56.9583 46.8808 58.6608 48.6086 60.789 48.6086Z" fill="#3683BC"/>
<path d="M60.789 26.3915C58.6734 26.3915 56.9583 28.1166 56.9583 30.2447C56.9583 32.3728 58.6734 34.0979 60.789 34.0979C62.9046 34.0979 64.6196 32.3728 64.6196 30.2447C64.6196 28.1166 62.9046 26.3915 60.789 26.3915Z" fill="#3683BC"/>
<path d="M60.789 19.5872C62.9019 19.5872 64.6196 17.8593 64.6196 15.734C64.6196 13.6086 62.9019 11.8807 60.789 11.8807C58.676 11.8807 56.9583 13.6086 56.9583 15.734C56.9583 17.8593 58.6608 19.5872 60.789 19.5872Z" fill="#3683BC"/>
<path d="M74.9106 63.104C77.0235 63.104 78.7412 61.3762 78.7412 59.2508C78.7412 57.1254 77.0235 55.3976 74.9106 55.3976C72.7976 55.3976 71.0799 57.1254 71.0799 59.2508C71.0799 61.3915 72.7976 63.104 74.9106 63.104Z" fill="#3683BC"/>
<path d="M74.9106 48.6086C77.0235 48.6086 78.7412 46.8808 78.7412 44.7554C78.7412 42.63 77.0235 40.9022 74.9106 40.9022C72.7976 40.9022 71.0799 42.63 71.0799 44.7554C71.0799 46.8808 72.7976 48.6086 74.9106 48.6086Z" fill="#3683BC"/>
<path d="M74.9106 34.0979C77.0235 34.0979 78.7412 32.3701 78.7412 30.2447C78.7412 28.1193 77.0235 26.3915 74.9106 26.3915C72.7976 26.3915 71.0799 28.1193 71.0799 30.2447C71.0799 32.3701 72.7976 34.0979 74.9106 34.0979Z" fill="#3683BC"/>
<path d="M74.9106 19.5872C77.0235 19.5872 78.7412 17.8593 78.7412 15.734C78.7412 13.6086 77.0235 11.8807 74.9106 11.8807C72.7976 11.8807 71.0799 13.6086 71.0799 15.734C71.0799 17.8593 72.7976 19.5872 74.9106 19.5872Z" fill="#3683BC"/>
<path d="M89.0326 48.6086C91.1456 48.6086 92.8633 46.8808 92.8633 44.7554C92.8633 42.63 91.1456 40.9022 89.0326 40.9022C86.9197 40.9022 85.202 42.63 85.202 44.7554C85.202 46.8808 86.9197 48.6086 89.0326 48.6086Z" fill="#3683BC"/>
<path d="M89.0326 34.0979C91.1456 34.0979 92.8633 32.3701 92.8633 30.2447C92.8633 28.1193 91.1456 26.3915 89.0326 26.3915C86.9197 26.3915 85.202 28.1193 85.202 30.2447C85.202 32.3701 86.9197 34.0979 89.0326 34.0979Z" fill="#3683BC"/>
<path d="M103.169 48.6086C105.282 48.6086 107 46.8808 107 44.7554C107 42.63 105.282 40.9022 103.169 40.9022C101.056 40.9022 99.3387 42.63 99.3387 44.7554C99.3387 46.8808 101.056 48.6086 103.169 48.6086Z" fill="#3683BC"/>
<path d="M103.169 26.3915C101.054 26.3915 99.3387 28.1166 99.3387 30.2447C99.3387 32.3728 101.054 34.0979 103.169 34.0979C105.285 34.0979 107 32.3728 107 30.2447C107 28.1166 105.285 26.3915 103.169 26.3915Z" fill="#3683BC"/>
</g>
<defs>
<clipPath id="clip0">
<rect width="107" height="75" fill="white" transform="translate(107 75) rotate(-180)"/>
</clipPath>
</defs>
</svg>
