<svg width="98" height="186" viewBox="0 0 98 186" fill="none" xmlns="http://www.w3.org/2000/svg">
<mask id="mask0" mask-type="alpha" maskUnits="userSpaceOnUse" x="0" y="0" width="98" height="186">
<rect width="98" height="186" fill="#C4C4C4"/>
</mask>
<g mask="url(#mask0)">
<path fill-rule="evenodd" clip-rule="evenodd" d="M13.3619 91.144C14.273 92.0552 14.273 93.5327 13.3619 94.4439C12.4507 95.355 10.9732 95.355 10.062 94.4439C9.15086 93.5327 9.15086 92.0552 10.062 91.144C10.9732 90.2329 12.4507 90.2329 13.3619 91.144" fill="#3683BC"/>
<path fill-rule="evenodd" clip-rule="evenodd" d="M29.861 74.6449C30.7722 75.5561 30.7722 77.0336 29.861 77.9447C28.9498 78.8559 27.4723 78.8559 26.5612 77.9447C25.65 77.0336 25.65 75.5561 26.5612 74.6449C27.4723 73.7337 28.9498 73.7337 29.861 74.6449" fill="#3683BC"/>
<path fill-rule="evenodd" clip-rule="evenodd" d="M46.3602 58.1457C47.2713 59.0569 47.2713 60.5344 46.3602 61.4455C45.449 62.3567 43.9715 62.3567 43.0603 61.4455C42.1492 60.5344 42.1492 59.0569 43.0603 58.1457C43.9715 57.2345 45.449 57.2345 46.3602 58.1457" fill="#3683BC"/>
<path fill-rule="evenodd" clip-rule="evenodd" d="M62.8593 41.6466C63.7705 42.5577 63.7705 44.0352 62.8593 44.9464C61.9481 45.8576 60.4706 45.8576 59.5595 44.9464C58.6483 44.0352 58.6483 42.5577 59.5595 41.6466C60.4706 40.7354 61.9481 40.7354 62.8593 41.6466" fill="#3683BC"/>
<path fill-rule="evenodd" clip-rule="evenodd" d="M79.3585 25.1474C80.2697 26.0585 80.2697 27.536 79.3585 28.4472C78.4473 29.3584 76.9698 29.3584 76.0587 28.4472C75.1475 27.536 75.1475 26.0585 76.0587 25.1474C76.9698 24.2362 78.4473 24.2362 79.3585 25.1474" fill="#3683BC"/>
<path fill-rule="evenodd" clip-rule="evenodd" d="M95.8576 8.64824C96.7688 9.5594 96.7688 11.0369 95.8576 11.9481C94.9464 12.8592 93.4689 12.8592 92.5578 11.9481C91.6466 11.0369 91.6466 9.55941 92.5578 8.64824C93.469 7.73707 94.9465 7.73707 95.8576 8.64824" fill="#3683BC"/>
<path fill-rule="evenodd" clip-rule="evenodd" d="M29.861 107.643C30.7722 108.554 30.7722 110.032 29.861 110.943C28.9499 111.854 27.4724 111.854 26.5612 110.943C25.65 110.032 25.65 108.554 26.5612 107.643C27.4724 106.732 28.9499 106.732 29.861 107.643" fill="#3683BC"/>
<path fill-rule="evenodd" clip-rule="evenodd" d="M46.3601 91.144C47.2713 92.0552 47.2713 93.5327 46.3601 94.4439C45.449 95.355 43.9715 95.355 43.0603 94.4439C42.1492 93.5327 42.1491 92.0552 43.0603 91.144C43.9715 90.2329 45.449 90.2329 46.3601 91.144" fill="#3683BC"/>
<path fill-rule="evenodd" clip-rule="evenodd" d="M62.8593 74.6449C63.7705 75.556 63.7705 77.0335 62.8593 77.9447C61.9482 78.8558 60.4707 78.8559 59.5595 77.9447C58.6483 77.0335 58.6483 75.556 59.5595 74.6449C60.4707 73.7337 61.9482 73.7337 62.8593 74.6449" fill="#3683BC"/>
<path fill-rule="evenodd" clip-rule="evenodd" d="M79.3585 58.1457C80.2696 59.0569 80.2696 60.5344 79.3585 61.4455C78.4473 62.3567 76.9698 62.3567 76.0586 61.4455C75.1475 60.5344 75.1475 59.0569 76.0586 58.1457C76.9698 57.2345 78.4473 57.2345 79.3585 58.1457" fill="#3683BC"/>
<path fill-rule="evenodd" clip-rule="evenodd" d="M95.8577 41.6465C96.7688 42.5577 96.7688 44.0352 95.8577 44.9464C94.9465 45.8575 93.469 45.8575 92.5578 44.9464C91.6467 44.0352 91.6467 42.5577 92.5578 41.6465C93.469 40.7354 94.9465 40.7354 95.8577 41.6465" fill="#3683BC"/>
<path fill-rule="evenodd" clip-rule="evenodd" d="M46.3602 124.142C47.2713 125.054 47.2713 126.531 46.3602 127.442C45.449 128.353 43.9715 128.353 43.0603 127.442C42.1492 126.531 42.1492 125.054 43.0603 124.142C43.9715 123.231 45.449 123.231 46.3602 124.142" fill="#3683BC"/>
<path fill-rule="evenodd" clip-rule="evenodd" d="M62.8593 107.643C63.7705 108.554 63.7705 110.032 62.8593 110.943C61.9481 111.854 60.4706 111.854 59.5595 110.943C58.6483 110.032 58.6483 108.554 59.5595 107.643C60.4706 106.732 61.9481 106.732 62.8593 107.643" fill="#3683BC"/>
<path fill-rule="evenodd" clip-rule="evenodd" d="M79.3585 91.144C80.2697 92.0552 80.2697 93.5327 79.3585 94.4438C78.4473 95.355 76.9698 95.355 76.0587 94.4438C75.1475 93.5327 75.1475 92.0552 76.0587 91.144C76.9698 90.2328 78.4473 90.2328 79.3585 91.144" fill="#3683BC"/>
<path fill-rule="evenodd" clip-rule="evenodd" d="M95.8576 74.6449C96.7688 75.556 96.7688 77.0335 95.8576 77.9447C94.9465 78.8559 93.469 78.8559 92.5578 77.9447C91.6466 77.0335 91.6466 75.556 92.5578 74.6449C93.469 73.7337 94.9465 73.7337 95.8576 74.6449" fill="#3683BC"/>
<path fill-rule="evenodd" clip-rule="evenodd" d="M62.8593 140.641C63.7705 141.553 63.7705 143.03 62.8593 143.941C61.9482 144.852 60.4707 144.852 59.5595 143.941C58.6483 143.03 58.6483 141.553 59.5595 140.641C60.4707 139.73 61.9482 139.73 62.8593 140.641" fill="#3683BC"/>
<path fill-rule="evenodd" clip-rule="evenodd" d="M79.3585 124.142C80.2696 125.054 80.2696 126.531 79.3585 127.442C78.4473 128.353 76.9698 128.353 76.0586 127.442C75.1475 126.531 75.1475 125.054 76.0586 124.142C76.9698 123.231 78.4473 123.231 79.3585 124.142" fill="#3683BC"/>
<path fill-rule="evenodd" clip-rule="evenodd" d="M95.8577 107.643C96.7688 108.554 96.7688 110.032 95.8577 110.943C94.9465 111.854 93.469 111.854 92.5578 110.943C91.6467 110.032 91.6467 108.554 92.5578 107.643C93.469 106.732 94.9465 106.732 95.8577 107.643" fill="#3683BC"/>
<path fill-rule="evenodd" clip-rule="evenodd" d="M79.3585 157.141C80.2697 158.052 80.2697 159.529 79.3585 160.44C78.4473 161.352 76.9698 161.352 76.0587 160.44C75.1475 159.529 75.1475 158.052 76.0587 157.141C76.9698 156.229 78.4473 156.229 79.3585 157.141" fill="#3683BC"/>
<path fill-rule="evenodd" clip-rule="evenodd" d="M95.8576 140.642C96.7688 141.553 96.7688 143.03 95.8576 143.941C94.9465 144.853 93.469 144.853 92.5578 143.941C91.6466 143.03 91.6466 141.553 92.5578 140.642C93.469 139.73 94.9465 139.73 95.8576 140.642" fill="#3683BC"/>
<path fill-rule="evenodd" clip-rule="evenodd" d="M95.8577 173.64C96.7688 174.551 96.7688 176.028 95.8577 176.94C94.9465 177.851 93.469 177.851 92.5578 176.94C91.6467 176.028 91.6467 174.551 92.5578 173.64C93.469 172.729 94.9465 172.729 95.8577 173.64" fill="#3683BC"/>
</g>
</svg>
