<svg width="429" height="419" viewBox="0 0 429 419" fill="none" xmlns="http://www.w3.org/2000/svg">
<mask id="mask0" mask-type="alpha" maskUnits="userSpaceOnUse" x="12" y="6" width="397" height="397">
<path fill-rule="evenodd" clip-rule="evenodd" d="M58.4091 101.733C-26.6186 201.295 20.911 277.341 91.8614 285.996C162.812 294.651 186.114 421.481 267.577 399.662C349.04 377.843 287.43 209.479 362.3 204.011C437.171 198.543 420.071 -0.073827 321.965 7.09063C223.859 14.2551 143.437 2.17023 58.4091 101.733Z" fill="white"/>
</mask>
<g mask="url(#mask0)">
<rect x="13.6818" y="404.391" width="393.111" height="403.824" transform="rotate(-90 13.6818 404.391)" fill="#F0F8FE"/>
</g>
<path fill-rule="evenodd" clip-rule="evenodd" d="M102.141 386.535C103.203 386.535 104.064 387.396 104.064 388.458C104.064 389.52 103.203 390.381 102.141 390.381C101.079 390.381 100.218 389.52 100.218 388.458C100.218 387.396 101.079 386.535 102.141 386.535" fill="#AAAAAA"/>
<path fill-rule="evenodd" clip-rule="evenodd" d="M102.141 367.305C103.203 367.305 104.064 368.166 104.064 369.228C104.064 370.29 103.203 371.151 102.141 371.151C101.079 371.151 100.218 370.29 100.218 369.228C100.218 368.166 101.079 367.305 102.141 367.305" fill="#AAAAAA"/>
<path fill-rule="evenodd" clip-rule="evenodd" d="M102.141 348.075C103.203 348.075 104.064 348.936 104.064 349.998C104.064 351.06 103.203 351.921 102.141 351.921C101.079 351.921 100.218 351.06 100.218 349.998C100.218 348.936 101.079 348.075 102.141 348.075" fill="#AAAAAA"/>
<path fill-rule="evenodd" clip-rule="evenodd" d="M102.141 328.846C103.203 328.846 104.064 329.707 104.064 330.769C104.064 331.831 103.203 332.692 102.141 332.692C101.079 332.692 100.218 331.831 100.218 330.769C100.218 329.707 101.079 328.846 102.141 328.846" fill="#AAAAAA"/>
<path fill-rule="evenodd" clip-rule="evenodd" d="M102.141 309.616C103.203 309.616 104.064 310.477 104.064 311.539C104.064 312.601 103.203 313.462 102.141 313.462C101.079 313.462 100.218 312.601 100.218 311.539C100.218 310.477 101.079 309.616 102.141 309.616" fill="#AAAAAA"/>
<path fill-rule="evenodd" clip-rule="evenodd" d="M102.141 290.386C103.203 290.386 104.064 291.247 104.064 292.309C104.064 293.371 103.203 294.232 102.141 294.232C101.079 294.232 100.218 293.371 100.218 292.309C100.218 291.247 101.079 290.386 102.141 290.386" fill="#AAAAAA"/>
<path fill-rule="evenodd" clip-rule="evenodd" d="M102.141 271.156C103.203 271.156 104.064 272.018 104.064 273.079C104.064 274.141 103.203 275.002 102.141 275.002C101.079 275.002 100.218 274.141 100.218 273.079C100.218 272.018 101.079 271.156 102.141 271.156" fill="#F0F8FE"/>
<path fill-rule="evenodd" clip-rule="evenodd" d="M102.141 251.927C103.203 251.927 104.064 252.788 104.064 253.85C104.064 254.912 103.203 255.773 102.141 255.773C101.079 255.773 100.218 254.912 100.218 253.85C100.218 252.788 101.079 251.927 102.141 251.927" fill="#F0F8FE"/>
<path fill-rule="evenodd" clip-rule="evenodd" d="M121.37 386.535C122.432 386.535 123.293 387.396 123.293 388.458C123.293 389.52 122.432 390.381 121.37 390.381C120.308 390.381 119.447 389.52 119.447 388.458C119.447 387.396 120.308 386.535 121.37 386.535" fill="#AAAAAA"/>
<path fill-rule="evenodd" clip-rule="evenodd" d="M121.37 367.305C122.432 367.305 123.293 368.166 123.293 369.228C123.293 370.29 122.432 371.151 121.37 371.151C120.308 371.151 119.447 370.29 119.447 369.228C119.447 368.166 120.308 367.305 121.37 367.305" fill="#AAAAAA"/>
<path fill-rule="evenodd" clip-rule="evenodd" d="M121.37 348.075C122.432 348.075 123.293 348.936 123.293 349.998C123.293 351.06 122.432 351.921 121.37 351.921C120.308 351.921 119.447 351.06 119.447 349.998C119.447 348.936 120.308 348.075 121.37 348.075" fill="#AAAAAA"/>
<path fill-rule="evenodd" clip-rule="evenodd" d="M121.37 328.846C122.432 328.846 123.293 329.707 123.293 330.769C123.293 331.831 122.432 332.692 121.37 332.692C120.308 332.692 119.447 331.831 119.447 330.769C119.447 329.707 120.308 328.846 121.37 328.846" fill="#AAAAAA"/>
<path fill-rule="evenodd" clip-rule="evenodd" d="M121.37 309.616C122.432 309.616 123.293 310.477 123.293 311.539C123.293 312.601 122.432 313.462 121.37 313.462C120.308 313.462 119.447 312.601 119.447 311.539C119.447 310.477 120.308 309.616 121.37 309.616" fill="#AAAAAA"/>
<path fill-rule="evenodd" clip-rule="evenodd" d="M121.37 290.386C122.432 290.386 123.293 291.247 123.293 292.309C123.293 293.371 122.432 294.232 121.37 294.232C120.308 294.232 119.447 293.371 119.447 292.309C119.447 291.247 120.308 290.386 121.37 290.386" fill="#F0F8FE"/>
<path fill-rule="evenodd" clip-rule="evenodd" d="M121.37 271.156C122.432 271.156 123.293 272.018 123.293 273.079C123.293 274.141 122.432 275.002 121.37 275.002C120.308 275.002 119.447 274.141 119.447 273.079C119.447 272.018 120.308 271.156 121.37 271.156" fill="#F0F8FE"/>
<path fill-rule="evenodd" clip-rule="evenodd" d="M121.37 251.927C122.432 251.927 123.293 252.788 123.293 253.85C123.293 254.912 122.432 255.773 121.37 255.773C120.308 255.773 119.447 254.912 119.447 253.85C119.447 252.788 120.308 251.927 121.37 251.927" fill="#F0F8FE"/>
<path fill-rule="evenodd" clip-rule="evenodd" d="M140.6 386.535C141.662 386.535 142.523 387.396 142.523 388.458C142.523 389.52 141.662 390.381 140.6 390.381C139.538 390.381 138.677 389.52 138.677 388.458C138.677 387.396 139.538 386.535 140.6 386.535" fill="#AAAAAA"/>
<path fill-rule="evenodd" clip-rule="evenodd" d="M140.6 367.305C141.662 367.305 142.523 368.166 142.523 369.228C142.523 370.29 141.662 371.151 140.6 371.151C139.538 371.151 138.677 370.29 138.677 369.228C138.677 368.166 139.538 367.305 140.6 367.305" fill="#AAAAAA"/>
<path fill-rule="evenodd" clip-rule="evenodd" d="M140.6 348.075C141.662 348.075 142.523 348.936 142.523 349.998C142.523 351.06 141.662 351.921 140.6 351.921C139.538 351.921 138.677 351.06 138.677 349.998C138.677 348.936 139.538 348.075 140.6 348.075" fill="#AAAAAA"/>
<path fill-rule="evenodd" clip-rule="evenodd" d="M140.6 328.846C141.662 328.846 142.523 329.707 142.523 330.769C142.523 331.831 141.662 332.692 140.6 332.692C139.538 332.692 138.677 331.831 138.677 330.769C138.677 329.707 139.538 328.846 140.6 328.846" fill="#AAAAAA"/>
<path fill-rule="evenodd" clip-rule="evenodd" d="M140.6 309.616C141.662 309.616 142.523 310.477 142.523 311.539C142.523 312.601 141.662 313.462 140.6 313.462C139.538 313.462 138.677 312.601 138.677 311.539C138.677 310.477 139.538 309.616 140.6 309.616" fill="#F0F8FE"/>
<path fill-rule="evenodd" clip-rule="evenodd" d="M140.6 290.386C141.662 290.386 142.523 291.247 142.523 292.309C142.523 293.371 141.662 294.232 140.6 294.232C139.538 294.232 138.677 293.371 138.677 292.309C138.677 291.247 139.538 290.386 140.6 290.386" fill="#F0F8FE"/>
<path fill-rule="evenodd" clip-rule="evenodd" d="M140.6 271.156C141.662 271.156 142.523 272.018 142.523 273.079C142.523 274.141 141.662 275.002 140.6 275.002C139.538 275.002 138.677 274.141 138.677 273.079C138.677 272.018 139.538 271.156 140.6 271.156" fill="#F0F8FE"/>
<path fill-rule="evenodd" clip-rule="evenodd" d="M140.6 251.927C141.662 251.927 142.523 252.788 142.523 253.85C142.523 254.912 141.662 255.773 140.6 255.773C139.538 255.773 138.677 254.912 138.677 253.85C138.677 252.788 139.538 251.927 140.6 251.927" fill="#F0F8FE"/>
<path fill-rule="evenodd" clip-rule="evenodd" d="M159.83 386.535C160.892 386.535 161.753 387.396 161.753 388.458C161.753 389.52 160.892 390.381 159.83 390.381C158.768 390.381 157.907 389.52 157.907 388.458C157.907 387.396 158.768 386.535 159.83 386.535" fill="#AAAAAA"/>
<path fill-rule="evenodd" clip-rule="evenodd" d="M159.83 367.305C160.892 367.305 161.753 368.166 161.753 369.228C161.753 370.29 160.892 371.151 159.83 371.151C158.768 371.151 157.907 370.29 157.907 369.228C157.907 368.166 158.768 367.305 159.83 367.305" fill="#AAAAAA"/>
<path fill-rule="evenodd" clip-rule="evenodd" d="M159.83 348.075C160.892 348.075 161.753 348.936 161.753 349.998C161.753 351.06 160.892 351.921 159.83 351.921C158.768 351.921 157.907 351.06 157.907 349.998C157.907 348.936 158.768 348.075 159.83 348.075" fill="#AAAAAA"/>
<path fill-rule="evenodd" clip-rule="evenodd" d="M159.83 328.846C160.892 328.846 161.753 329.707 161.753 330.769C161.753 331.831 160.892 332.692 159.83 332.692C158.768 332.692 157.907 331.831 157.907 330.769C157.907 329.707 158.768 328.846 159.83 328.846" fill="#F0F8FE"/>
<path fill-rule="evenodd" clip-rule="evenodd" d="M159.83 309.616C160.892 309.616 161.753 310.477 161.753 311.539C161.753 312.601 160.892 313.462 159.83 313.462C158.768 313.462 157.907 312.601 157.907 311.539C157.907 310.477 158.768 309.616 159.83 309.616" fill="#F0F8FE"/>
<path fill-rule="evenodd" clip-rule="evenodd" d="M159.83 290.386C160.892 290.386 161.753 291.247 161.753 292.309C161.753 293.371 160.892 294.232 159.83 294.232C158.768 294.232 157.907 293.371 157.907 292.309C157.907 291.247 158.768 290.386 159.83 290.386" fill="#F0F8FE"/>
<path fill-rule="evenodd" clip-rule="evenodd" d="M159.83 271.156C160.892 271.156 161.753 272.018 161.753 273.079C161.753 274.141 160.892 275.002 159.83 275.002C158.768 275.002 157.907 274.141 157.907 273.079C157.907 272.018 158.768 271.156 159.83 271.156" fill="#F0F8FE"/>
<path fill-rule="evenodd" clip-rule="evenodd" d="M159.83 251.927C160.892 251.927 161.753 252.788 161.753 253.85C161.753 254.912 160.892 255.773 159.83 255.773C158.768 255.773 157.907 254.912 157.907 253.85C157.907 252.788 158.768 251.927 159.83 251.927" fill="#F0F8FE"/>
<path fill-rule="evenodd" clip-rule="evenodd" d="M179.061 386.535C180.123 386.535 180.984 387.396 180.984 388.458C180.984 389.52 180.123 390.381 179.061 390.381C177.999 390.381 177.138 389.52 177.138 388.458C177.138 387.396 177.999 386.535 179.061 386.535" fill="#AAAAAA"/>
<path fill-rule="evenodd" clip-rule="evenodd" d="M179.061 367.305C180.123 367.305 180.984 368.166 180.984 369.228C180.984 370.29 180.123 371.151 179.061 371.151C177.999 371.151 177.138 370.29 177.138 369.228C177.138 368.166 177.999 367.305 179.061 367.305" fill="#AAAAAA"/>
<path fill-rule="evenodd" clip-rule="evenodd" d="M179.061 348.075C180.123 348.075 180.984 348.936 180.984 349.998C180.984 351.06 180.123 351.921 179.061 351.921C177.999 351.921 177.138 351.06 177.138 349.998C177.138 348.936 177.999 348.075 179.061 348.075" fill="#F0F8FE"/>
<path fill-rule="evenodd" clip-rule="evenodd" d="M179.061 328.846C180.123 328.846 180.984 329.707 180.984 330.769C180.984 331.831 180.123 332.692 179.061 332.692C177.999 332.692 177.138 331.831 177.138 330.769C177.138 329.707 177.999 328.846 179.061 328.846" fill="#F0F8FE"/>
<path fill-rule="evenodd" clip-rule="evenodd" d="M179.061 309.616C180.123 309.616 180.984 310.477 180.984 311.539C180.984 312.601 180.123 313.462 179.061 313.462C177.999 313.462 177.138 312.601 177.138 311.539C177.138 310.477 177.999 309.616 179.061 309.616" fill="#F0F8FE"/>
<path fill-rule="evenodd" clip-rule="evenodd" d="M179.061 290.386C180.123 290.386 180.984 291.247 180.984 292.309C180.984 293.371 180.123 294.232 179.061 294.232C177.999 294.232 177.138 293.371 177.138 292.309C177.138 291.247 177.999 290.386 179.061 290.386" fill="#F0F8FE"/>
<path fill-rule="evenodd" clip-rule="evenodd" d="M179.061 271.157C180.123 271.157 180.984 272.018 180.984 273.079C180.984 274.141 180.123 275.002 179.061 275.002C177.999 275.002 177.138 274.141 177.138 273.079C177.138 272.018 177.999 271.157 179.061 271.157" fill="#F0F8FE"/>
<path fill-rule="evenodd" clip-rule="evenodd" d="M179.061 251.927C180.123 251.927 180.984 252.788 180.984 253.85C180.984 254.912 180.123 255.773 179.061 255.773C177.999 255.773 177.138 254.912 177.138 253.85C177.138 252.788 177.999 251.927 179.061 251.927" fill="#F0F8FE"/>
<path fill-rule="evenodd" clip-rule="evenodd" d="M198.29 386.535C199.352 386.535 200.213 387.396 200.213 388.458C200.213 389.52 199.352 390.381 198.29 390.381C197.228 390.381 196.367 389.52 196.367 388.458C196.367 387.396 197.228 386.535 198.29 386.535" fill="#AAAAAA"/>
<path fill-rule="evenodd" clip-rule="evenodd" d="M198.29 367.305C199.352 367.305 200.213 368.166 200.213 369.228C200.213 370.29 199.352 371.151 198.29 371.151C197.228 371.151 196.367 370.29 196.367 369.228C196.367 368.166 197.228 367.305 198.29 367.305" fill="#F0F8FE"/>
<path fill-rule="evenodd" clip-rule="evenodd" d="M198.29 348.075C199.352 348.075 200.213 348.936 200.213 349.998C200.213 351.06 199.352 351.921 198.29 351.921C197.228 351.921 196.367 351.06 196.367 349.998C196.367 348.936 197.228 348.075 198.29 348.075" fill="#F0F8FE"/>
<path fill-rule="evenodd" clip-rule="evenodd" d="M198.29 328.846C199.352 328.846 200.213 329.707 200.213 330.769C200.213 331.831 199.352 332.692 198.29 332.692C197.228 332.692 196.367 331.831 196.367 330.769C196.367 329.707 197.228 328.846 198.29 328.846" fill="#F0F8FE"/>
<path fill-rule="evenodd" clip-rule="evenodd" d="M198.29 309.616C199.352 309.616 200.213 310.477 200.213 311.539C200.213 312.601 199.352 313.462 198.29 313.462C197.228 313.462 196.367 312.601 196.367 311.539C196.367 310.477 197.228 309.616 198.29 309.616" fill="#F0F8FE"/>
<path fill-rule="evenodd" clip-rule="evenodd" d="M198.29 290.386C199.352 290.386 200.213 291.247 200.213 292.309C200.213 293.371 199.352 294.232 198.29 294.232C197.228 294.232 196.367 293.371 196.367 292.309C196.367 291.247 197.228 290.386 198.29 290.386" fill="#F0F8FE"/>
<path fill-rule="evenodd" clip-rule="evenodd" d="M198.29 271.157C199.352 271.157 200.213 272.018 200.213 273.08C200.213 274.141 199.352 275.002 198.29 275.002C197.228 275.002 196.367 274.141 196.367 273.08C196.367 272.018 197.228 271.157 198.29 271.157" fill="#F0F8FE"/>
<path fill-rule="evenodd" clip-rule="evenodd" d="M198.29 251.927C199.352 251.927 200.213 252.788 200.213 253.85C200.213 254.912 199.352 255.773 198.29 255.773C197.228 255.773 196.367 254.912 196.367 253.85C196.367 252.788 197.228 251.927 198.29 251.927" fill="#F0F8FE"/>
<path fill-rule="evenodd" clip-rule="evenodd" d="M217.519 386.535C218.581 386.535 219.442 387.396 219.442 388.458C219.442 389.52 218.581 390.381 217.519 390.381C216.457 390.381 215.596 389.52 215.596 388.458C215.596 387.396 216.457 386.535 217.519 386.535" fill="#F0F8FE"/>
<path fill-rule="evenodd" clip-rule="evenodd" d="M217.519 367.305C218.581 367.305 219.442 368.166 219.442 369.228C219.442 370.29 218.581 371.151 217.519 371.151C216.457 371.151 215.596 370.29 215.596 369.228C215.596 368.166 216.457 367.305 217.519 367.305" fill="#F0F8FE"/>
<path fill-rule="evenodd" clip-rule="evenodd" d="M217.519 348.075C218.581 348.075 219.442 348.936 219.442 349.998C219.442 351.06 218.581 351.921 217.519 351.921C216.457 351.921 215.596 351.06 215.596 349.998C215.596 348.936 216.457 348.075 217.519 348.075" fill="#F0F8FE"/>
<path fill-rule="evenodd" clip-rule="evenodd" d="M217.519 328.846C218.581 328.846 219.442 329.707 219.442 330.769C219.442 331.831 218.581 332.692 217.519 332.692C216.457 332.692 215.596 331.831 215.596 330.769C215.596 329.707 216.457 328.846 217.519 328.846" fill="#F0F8FE"/>
<path fill-rule="evenodd" clip-rule="evenodd" d="M217.519 309.616C218.581 309.616 219.442 310.477 219.442 311.539C219.442 312.601 218.581 313.462 217.519 313.462C216.457 313.462 215.596 312.601 215.596 311.539C215.596 310.477 216.457 309.616 217.519 309.616" fill="#F0F8FE"/>
<path fill-rule="evenodd" clip-rule="evenodd" d="M217.519 290.386C218.581 290.386 219.442 291.247 219.442 292.309C219.442 293.371 218.581 294.232 217.519 294.232C216.457 294.232 215.596 293.371 215.596 292.309C215.596 291.247 216.457 290.386 217.519 290.386" fill="#F0F8FE"/>
<path fill-rule="evenodd" clip-rule="evenodd" d="M217.519 271.157C218.581 271.157 219.442 272.018 219.442 273.08C219.442 274.141 218.581 275.002 217.519 275.002C216.457 275.002 215.596 274.141 215.596 273.08C215.596 272.018 216.457 271.157 217.519 271.157" fill="#F0F8FE"/>
<path fill-rule="evenodd" clip-rule="evenodd" d="M217.519 251.927C218.581 251.927 219.442 252.788 219.442 253.85C219.442 254.912 218.581 255.773 217.519 255.773C216.457 255.773 215.596 254.912 215.596 253.85C215.596 252.788 216.457 251.927 217.519 251.927" fill="#F0F8FE"/>
<path fill-rule="evenodd" clip-rule="evenodd" d="M236.749 386.535C237.811 386.535 238.672 387.396 238.672 388.458C238.672 389.52 237.811 390.381 236.749 390.381C235.687 390.381 234.826 389.52 234.826 388.458C234.826 387.396 235.687 386.535 236.749 386.535" fill="#F0F8FE"/>
<path fill-rule="evenodd" clip-rule="evenodd" d="M236.749 367.305C237.811 367.305 238.672 368.166 238.672 369.228C238.672 370.29 237.811 371.151 236.749 371.151C235.687 371.151 234.826 370.29 234.826 369.228C234.826 368.166 235.687 367.305 236.749 367.305" fill="#F0F8FE"/>
<path fill-rule="evenodd" clip-rule="evenodd" d="M236.749 348.075C237.811 348.075 238.672 348.936 238.672 349.998C238.672 351.06 237.811 351.921 236.749 351.921C235.687 351.921 234.826 351.06 234.826 349.998C234.826 348.936 235.687 348.075 236.749 348.075" fill="#F0F8FE"/>
<path fill-rule="evenodd" clip-rule="evenodd" d="M236.749 328.846C237.811 328.846 238.672 329.707 238.672 330.769C238.672 331.831 237.811 332.692 236.749 332.692C235.687 332.692 234.826 331.831 234.826 330.769C234.826 329.707 235.687 328.846 236.749 328.846" fill="#F0F8FE"/>
<path fill-rule="evenodd" clip-rule="evenodd" d="M236.749 309.616C237.811 309.616 238.672 310.477 238.672 311.539C238.672 312.601 237.811 313.462 236.749 313.462C235.687 313.462 234.826 312.601 234.826 311.539C234.826 310.477 235.687 309.616 236.749 309.616" fill="#F0F8FE"/>
<path fill-rule="evenodd" clip-rule="evenodd" d="M236.749 290.386C237.811 290.386 238.672 291.247 238.672 292.309C238.672 293.371 237.811 294.232 236.749 294.232C235.687 294.232 234.826 293.371 234.826 292.309C234.826 291.247 235.687 290.386 236.749 290.386" fill="#F0F8FE"/>
<path fill-rule="evenodd" clip-rule="evenodd" d="M236.749 271.156C237.811 271.156 238.672 272.018 238.672 273.079C238.672 274.141 237.811 275.002 236.749 275.002C235.687 275.002 234.826 274.141 234.826 273.079C234.826 272.018 235.687 271.156 236.749 271.156" fill="#F0F8FE"/>
<path fill-rule="evenodd" clip-rule="evenodd" d="M236.749 251.927C237.811 251.927 238.672 252.788 238.672 253.85C238.672 254.912 237.811 255.773 236.749 255.773C235.687 255.773 234.826 254.912 234.826 253.85C234.826 252.788 235.687 251.927 236.749 251.927" fill="#F0F8FE"/>
</svg>
