<svg width="329" height="106" viewBox="0 0 329 106" fill="none" xmlns="http://www.w3.org/2000/svg">
<g filter="url(#filter0_d)">
<rect x="13.793" y="14.312" width="301.091" height="77.6145" rx="13.3818" fill="white"/>
</g>
<path d="M154.256 45.471C154.352 45.942 154.4 46.4237 154.4 46.9162C154.4 47.4408 154.352 47.8904 154.256 48.2651C154.074 48.9502 153.71 49.4962 153.164 49.903C152.618 50.2991 151.959 50.4972 151.189 50.4972C150.428 50.4972 149.781 50.3045 149.246 49.9191C148.71 49.5337 148.346 49.0198 148.154 48.3775C148.079 48.142 148.03 47.9065 148.009 47.6709V47.6388C148.009 47.5532 148.057 47.5104 148.154 47.5104H149.005C149.112 47.5104 149.171 47.5639 149.181 47.6709C149.181 47.7352 149.203 47.8422 149.246 47.9921C149.353 48.4524 149.572 48.8218 149.904 49.1001C150.246 49.3677 150.669 49.5016 151.173 49.5016C151.686 49.5016 152.115 49.357 152.457 49.068C152.81 48.7789 153.041 48.3828 153.148 47.8797C153.212 47.6335 153.244 47.3123 153.244 46.9162C153.244 46.5522 153.217 46.2043 153.164 45.8724C153.089 45.38 152.875 45.0053 152.521 44.7483C152.168 44.4914 151.729 44.3629 151.205 44.3629C150.734 44.3629 150.311 44.47 149.936 44.6841C149.561 44.8982 149.32 45.1819 149.213 45.5352C149.181 45.6315 149.122 45.6797 149.037 45.6797H148.17C148.063 45.6797 148.009 45.6262 148.009 45.5191V39.3046C148.009 39.1976 148.063 39.144 148.17 39.144H153.79C153.897 39.144 153.951 39.1976 153.951 39.3046V39.9791C153.951 40.0861 153.897 40.1396 153.79 40.1396H149.213C149.171 40.1396 149.149 40.1611 149.149 40.2039L149.133 44.09C149.133 44.1114 149.138 44.1274 149.149 44.1381C149.171 44.1488 149.192 44.1435 149.213 44.1221C149.481 43.8758 149.797 43.6885 150.161 43.56C150.525 43.4209 150.91 43.3513 151.317 43.3513C152.077 43.3513 152.719 43.5386 153.244 43.9133C153.769 44.2773 154.106 44.7965 154.256 45.471ZM159.71 50.5453C158.682 50.5453 157.864 50.2509 157.253 49.6621C156.643 49.0733 156.338 48.2865 156.338 47.3016V42.2272C156.338 41.2423 156.643 40.4608 157.253 39.8827C157.864 39.2939 158.682 38.9995 159.71 38.9995C160.749 38.9995 161.578 39.2939 162.199 39.8827C162.82 40.4715 163.131 41.253 163.131 42.2272V47.3016C163.131 48.2865 162.82 49.0733 162.199 49.6621C161.578 50.2509 160.749 50.5453 159.71 50.5453ZM159.71 49.5497C160.395 49.5497 160.947 49.3517 161.364 48.9556C161.782 48.5595 161.99 48.0296 161.99 47.3658V42.179C161.99 41.526 161.782 41.0014 161.364 40.6053C160.957 40.2092 160.406 40.0112 159.71 40.0112C159.036 40.0112 158.495 40.2092 158.088 40.6053C157.682 41.0014 157.478 41.526 157.478 42.179V47.3658C157.478 48.0296 157.682 48.5595 158.088 48.9556C158.495 49.3517 159.036 49.5497 159.71 49.5497ZM172.005 50.5453C170.977 50.5453 170.158 50.2509 169.548 49.6621C168.938 49.0733 168.633 48.2865 168.633 47.3016V42.2272C168.633 41.2423 168.938 40.4608 169.548 39.8827C170.158 39.2939 170.977 38.9995 172.005 38.9995C173.043 38.9995 173.873 39.2939 174.494 39.8827C175.115 40.4715 175.425 41.253 175.425 42.2272V47.3016C175.425 48.2865 175.115 49.0733 174.494 49.6621C173.873 50.2509 173.043 50.5453 172.005 50.5453ZM172.005 49.5497C172.69 49.5497 173.241 49.3517 173.659 48.9556C174.076 48.5595 174.285 48.0296 174.285 47.3658V42.179C174.285 41.526 174.076 41.0014 173.659 40.6053C173.252 40.2092 172.701 40.0112 172.005 40.0112C171.33 40.0112 170.79 40.2092 170.383 40.6053C169.976 41.0014 169.773 41.526 169.773 42.179V47.3658C169.773 48.0296 169.976 48.5595 170.383 48.9556C170.79 49.3517 171.33 49.5497 172.005 49.5497ZM181.085 50.5453C180.057 50.5453 179.238 50.2509 178.628 49.6621C178.017 49.0733 177.712 48.2865 177.712 47.3016V42.2272C177.712 41.2423 178.017 40.4608 178.628 39.8827C179.238 39.2939 180.057 38.9995 181.085 38.9995C182.123 38.9995 182.953 39.2939 183.574 39.8827C184.194 40.4715 184.505 41.253 184.505 42.2272V47.3016C184.505 48.2865 184.194 49.0733 183.574 49.6621C182.953 50.2509 182.123 50.5453 181.085 50.5453ZM181.085 49.5497C181.77 49.5497 182.321 49.3517 182.739 48.9556C183.156 48.5595 183.365 48.0296 183.365 47.3658V42.179C183.365 41.526 183.156 41.0014 182.739 40.6053C182.332 40.2092 181.78 40.0112 181.085 40.0112C180.41 40.0112 179.869 40.2092 179.463 40.6053C179.056 41.0014 178.852 41.526 178.852 42.179V47.3658C178.852 48.0296 179.056 48.5595 179.463 48.9556C179.869 49.3517 180.41 49.5497 181.085 49.5497ZM190.164 50.5453C189.137 50.5453 188.318 50.2509 187.707 49.6621C187.097 49.0733 186.792 48.2865 186.792 47.3016V42.2272C186.792 41.2423 187.097 40.4608 187.707 39.8827C188.318 39.2939 189.137 38.9995 190.164 38.9995C191.203 38.9995 192.032 39.2939 192.653 39.8827C193.274 40.4715 193.585 41.253 193.585 42.2272V47.3016C193.585 48.2865 193.274 49.0733 192.653 49.6621C192.032 50.2509 191.203 50.5453 190.164 50.5453ZM190.164 49.5497C190.849 49.5497 191.401 49.3517 191.818 48.9556C192.236 48.5595 192.445 48.0296 192.445 47.3658V42.179C192.445 41.526 192.236 41.0014 191.818 40.6053C191.411 40.2092 190.86 40.0112 190.164 40.0112C189.49 40.0112 188.949 40.2092 188.542 40.6053C188.136 41.0014 187.932 41.526 187.932 42.179V47.3658C187.932 48.0296 188.136 48.5595 188.542 48.9556C188.949 49.3517 189.49 49.5497 190.164 49.5497ZM199.392 50.3848C199.285 50.3848 199.231 50.3312 199.231 50.2242V39.3046C199.231 39.1976 199.285 39.144 199.392 39.144H200.211C200.318 39.144 200.371 39.1976 200.371 39.3046V50.2242C200.371 50.3312 200.318 50.3848 200.211 50.3848H199.392ZM209.163 44.9571C209.205 45.2569 209.227 45.6315 209.227 46.0812V46.595C209.227 46.7021 209.173 46.7556 209.066 46.7556H203.879C203.837 46.7556 203.815 46.777 203.815 46.8198C203.837 47.4086 203.869 47.7887 203.912 47.96C204.029 48.4417 204.281 48.8218 204.666 49.1001C205.052 49.3785 205.544 49.5176 206.144 49.5176C206.593 49.5176 206.989 49.4159 207.332 49.2125C207.675 49.0091 207.942 48.7201 208.135 48.3454C208.199 48.249 208.274 48.2276 208.36 48.2811L208.986 48.6505C209.072 48.704 209.093 48.7789 209.05 48.8753C208.783 49.3892 208.381 49.796 207.846 50.0957C207.311 50.3848 206.695 50.5293 205.999 50.5293C205.239 50.5186 204.602 50.3366 204.088 49.9833C203.574 49.63 203.205 49.1376 202.98 48.506C202.788 47.9921 202.691 47.2534 202.691 46.2899C202.691 45.8403 202.697 45.4763 202.707 45.198C202.729 44.9089 202.771 44.652 202.836 44.4272C203.018 43.7313 203.382 43.1746 203.928 42.7571C204.484 42.3396 205.153 42.1309 205.935 42.1309C206.909 42.1309 207.659 42.3771 208.183 42.8695C208.708 43.362 209.034 44.0578 209.163 44.9571ZM205.935 43.1265C205.41 43.1265 204.971 43.2656 204.618 43.544C204.276 43.8116 204.051 44.1756 203.944 44.6359C203.879 44.8608 203.837 45.2247 203.815 45.7279C203.815 45.7707 203.837 45.7921 203.879 45.7921H208.039C208.081 45.7921 208.103 45.7707 208.103 45.7279C208.081 45.2461 208.049 44.9036 208.006 44.7002C207.889 44.2184 207.648 43.8384 207.284 43.56C206.931 43.271 206.481 43.1265 205.935 43.1265ZM214.226 42.1309C215.19 42.1309 215.934 42.3771 216.458 42.8695C216.983 43.362 217.245 44.015 217.245 44.8286V50.2242C217.245 50.3312 217.192 50.3848 217.084 50.3848H216.265C216.158 50.3848 216.105 50.3312 216.105 50.2242V49.5658C216.105 49.5444 216.094 49.5283 216.073 49.5176C216.062 49.5069 216.046 49.5123 216.025 49.5337C215.757 49.8548 215.409 50.1011 214.981 50.2724C214.553 50.4329 214.076 50.5132 213.552 50.5132C212.792 50.5132 212.155 50.3205 211.641 49.9351C211.127 49.5497 210.87 48.9609 210.87 48.1687C210.87 47.3658 211.159 46.7342 211.737 46.2739C212.326 45.8028 213.139 45.5673 214.178 45.5673H216.041C216.083 45.5673 216.105 45.5459 216.105 45.5031V44.8929C216.105 44.3469 215.95 43.9187 215.639 43.6082C215.339 43.287 214.868 43.1265 214.226 43.1265C213.712 43.1265 213.295 43.2282 212.974 43.4316C212.652 43.6243 212.454 43.8973 212.379 44.2505C212.347 44.3576 212.283 44.4058 212.187 44.3951L211.32 44.2827C211.202 44.2612 211.154 44.2184 211.175 44.1542C211.261 43.5547 211.582 43.0676 212.139 42.6929C212.695 42.3182 213.391 42.1309 214.226 42.1309ZM213.776 49.5337C214.408 49.5337 214.954 49.3785 215.414 49.068C215.875 48.7468 216.105 48.3186 216.105 47.7833V46.5308C216.105 46.488 216.083 46.4666 216.041 46.4666H214.355C213.648 46.4666 213.081 46.6111 212.652 46.9001C212.224 47.1892 212.01 47.5906 212.01 48.1045C212.01 48.5755 212.171 48.9342 212.492 49.1804C212.824 49.4159 213.252 49.5337 213.776 49.5337ZM224.66 39.3046C224.66 39.1976 224.713 39.144 224.82 39.144H225.639C225.746 39.144 225.8 39.1976 225.8 39.3046V50.2242C225.8 50.3312 225.746 50.3848 225.639 50.3848H224.82C224.713 50.3848 224.66 50.3312 224.66 50.2242V49.5497C224.66 49.5283 224.649 49.5176 224.628 49.5176C224.617 49.5069 224.601 49.5123 224.579 49.5337C224.344 49.8441 224.05 50.085 223.696 50.2563C223.354 50.4276 222.968 50.5132 222.54 50.5132C221.791 50.5132 221.159 50.3205 220.645 49.9351C220.142 49.5497 219.794 49.0252 219.601 48.3614C219.452 47.8797 219.377 47.1999 219.377 46.322C219.377 45.4335 219.441 44.7698 219.569 44.3308C219.762 43.6457 220.115 43.1104 220.629 42.725C221.143 42.3289 221.78 42.1309 222.54 42.1309C222.958 42.1309 223.343 42.2165 223.696 42.3878C224.05 42.5484 224.344 42.7839 224.579 43.0944C224.601 43.1158 224.617 43.1265 224.628 43.1265C224.649 43.1158 224.66 43.0997 224.66 43.0783V39.3046ZM224.371 48.2811C224.467 48.067 224.537 47.8155 224.579 47.5264C224.622 47.2374 224.644 46.8359 224.644 46.322C224.644 45.8082 224.622 45.4067 224.579 45.1177C224.537 44.8179 224.462 44.5556 224.355 44.3308C224.226 43.9668 224.012 43.6778 223.712 43.4637C223.423 43.2389 223.075 43.1265 222.669 43.1265C222.24 43.1265 221.871 43.2335 221.561 43.4476C221.25 43.6617 221.025 43.9454 220.886 44.2987C220.758 44.5342 220.661 44.8019 220.597 45.1016C220.544 45.3907 220.517 45.7975 220.517 46.322C220.517 46.8252 220.538 47.2213 220.581 47.5104C220.624 47.7887 220.699 48.0403 220.806 48.2651C220.934 48.6505 221.159 48.9556 221.48 49.1804C221.812 49.4052 222.203 49.5176 222.653 49.5176C223.081 49.5176 223.439 49.4052 223.728 49.1804C224.017 48.9556 224.232 48.6558 224.371 48.2811ZM231.049 50.4651C230.45 50.4651 229.915 50.3687 229.443 50.176C228.983 49.9833 228.625 49.7264 228.368 49.4052C228.121 49.0841 227.998 48.7254 227.998 48.3293V48.1366C227.998 48.0296 228.052 47.976 228.159 47.976H228.93C229.037 47.976 229.09 48.0296 229.09 48.1366V48.2651C229.09 48.6184 229.272 48.9288 229.636 49.1965C230.011 49.4534 230.477 49.5819 231.033 49.5819C231.59 49.5819 232.04 49.4587 232.382 49.2125C232.725 48.9556 232.896 48.6344 232.896 48.249C232.896 47.9814 232.805 47.7619 232.623 47.5906C232.452 47.4194 232.243 47.2855 231.997 47.1892C231.761 47.0928 231.392 46.9697 230.889 46.8198C230.289 46.6486 229.797 46.4773 229.411 46.306C229.026 46.1347 228.699 45.8992 228.432 45.5994C228.175 45.289 228.046 44.8982 228.046 44.4272C228.046 43.742 228.314 43.1961 228.849 42.7892C229.385 42.3824 230.091 42.179 230.969 42.179C231.558 42.179 232.077 42.2754 232.527 42.4681C232.987 42.6608 233.34 42.9284 233.586 43.271C233.833 43.6029 233.956 43.9776 233.956 44.3951V44.4432C233.956 44.5503 233.902 44.6038 233.795 44.6038H233.041C232.933 44.6038 232.88 44.5503 232.88 44.4432V44.3951C232.88 44.0311 232.703 43.726 232.35 43.4797C232.007 43.2335 231.542 43.1104 230.953 43.1104C230.407 43.1104 229.968 43.2228 229.636 43.4476C229.304 43.6617 229.138 43.9615 229.138 44.3469C229.138 44.7109 229.299 44.9892 229.62 45.1819C229.941 45.3746 230.439 45.5673 231.114 45.76C231.734 45.942 232.238 46.1133 232.623 46.2739C233.008 46.4345 233.34 46.67 233.619 46.9804C233.897 47.2802 234.036 47.6763 234.036 48.1687C234.036 48.8646 233.763 49.4213 233.217 49.8388C232.671 50.2563 231.949 50.4651 231.049 50.4651ZM235.489 50.3848C235.371 50.3848 235.328 50.3259 235.36 50.2081L238.909 39.2725C238.941 39.1869 239.005 39.144 239.102 39.144H239.905C240.022 39.144 240.065 39.2029 240.033 39.3207L236.484 50.2563C236.452 50.3419 236.388 50.3848 236.291 50.3848H235.489ZM250.578 42.1469C251.381 42.1469 252.012 42.3878 252.473 42.8695C252.944 43.3513 253.179 44.0097 253.179 44.8447V50.2242C253.179 50.3312 253.126 50.3848 253.019 50.3848H252.216C252.109 50.3848 252.055 50.3312 252.055 50.2242V45.0695C252.055 44.4807 251.884 44.015 251.541 43.6724C251.21 43.3192 250.771 43.1425 250.225 43.1425C249.657 43.1425 249.197 43.3138 248.844 43.6564C248.501 43.999 248.33 44.4593 248.33 45.0374V50.2242C248.33 50.3312 248.276 50.3848 248.169 50.3848H247.35C247.243 50.3848 247.19 50.3312 247.19 50.2242V45.0695C247.19 44.4807 247.024 44.015 246.692 43.6724C246.36 43.3192 245.916 43.1425 245.359 43.1425C244.792 43.1425 244.337 43.3138 243.994 43.6564C243.662 43.999 243.496 44.4593 243.496 45.0374V50.2242C243.496 50.3312 243.443 50.3848 243.336 50.3848H242.517C242.41 50.3848 242.356 50.3312 242.356 50.2242V42.4199C242.356 42.3129 242.41 42.2593 242.517 42.2593H243.336C243.443 42.2593 243.496 42.3129 243.496 42.4199V43.0622C243.496 43.0836 243.502 43.0997 243.512 43.1104C243.534 43.1104 243.555 43.0997 243.577 43.0783C243.812 42.7678 244.112 42.5377 244.476 42.3878C244.851 42.2272 245.263 42.1469 245.712 42.1469C246.269 42.1469 246.745 42.2593 247.141 42.4841C247.538 42.709 247.837 43.0355 248.041 43.4637C248.062 43.5172 248.089 43.5172 248.121 43.4637C248.357 43.0248 248.688 42.6982 249.117 42.4841C249.545 42.2593 250.032 42.1469 250.578 42.1469ZM258.628 50.5132C257.857 50.5132 257.194 50.3152 256.637 49.9191C256.08 49.523 255.695 48.977 255.481 48.2811C255.331 47.7887 255.256 47.1303 255.256 46.306C255.256 45.4817 255.331 44.8286 255.481 44.3469C255.684 43.6617 256.064 43.1211 256.621 42.725C257.178 42.3289 257.852 42.1309 258.644 42.1309C259.404 42.1309 260.057 42.3289 260.603 42.725C261.16 43.1211 261.54 43.6564 261.743 44.3308C261.893 44.7912 261.968 45.4496 261.968 46.306C261.968 47.1731 261.893 47.8315 261.743 48.2811C261.54 48.977 261.16 49.523 260.603 49.9191C260.057 50.3152 259.399 50.5132 258.628 50.5132ZM258.628 49.5176C259.142 49.5176 259.581 49.3785 259.945 49.1001C260.309 48.8111 260.555 48.4257 260.684 47.9439C260.78 47.5585 260.828 47.0179 260.828 46.322C260.828 45.6155 260.785 45.0749 260.7 44.7002C260.571 44.2184 260.32 43.8384 259.945 43.56C259.581 43.271 259.137 43.1265 258.612 43.1265C258.087 43.1265 257.643 43.271 257.279 43.56C256.915 43.8384 256.669 44.2184 256.541 44.7002C256.455 45.0749 256.412 45.6155 256.412 46.322C256.412 47.0286 256.455 47.5692 256.541 47.9439C256.658 48.4257 256.899 48.8111 257.263 49.1001C257.638 49.3785 258.093 49.5176 258.628 49.5176ZM267.652 42.1469C268.508 42.1469 269.188 42.3985 269.691 42.9017C270.205 43.4048 270.462 44.0793 270.462 44.925V50.2242C270.462 50.3312 270.408 50.3848 270.301 50.3848H269.482C269.375 50.3848 269.322 50.3312 269.322 50.2242V45.1498C269.322 44.561 269.14 44.0793 268.776 43.7046C268.422 43.3299 267.962 43.1425 267.395 43.1425C266.806 43.1425 266.329 43.3245 265.965 43.6885C265.601 44.0525 265.419 44.5289 265.419 45.1177V50.2242C265.419 50.3312 265.366 50.3848 265.259 50.3848H264.44C264.333 50.3848 264.279 50.3312 264.279 50.2242V42.4199C264.279 42.3129 264.333 42.2593 264.44 42.2593H265.259C265.366 42.2593 265.419 42.3129 265.419 42.4199V43.1104C265.419 43.1318 265.425 43.1479 265.436 43.1586C265.457 43.1693 265.473 43.1639 265.484 43.1425C265.955 42.4788 266.677 42.1469 267.652 42.1469ZM276.581 43.0462C276.581 43.1532 276.527 43.2068 276.42 43.2068H274.606C274.563 43.2068 274.542 43.2282 274.542 43.271V48.0082C274.542 48.522 274.654 48.886 274.879 49.1001C275.114 49.3035 275.478 49.4052 275.971 49.4052H276.372C276.479 49.4052 276.533 49.4587 276.533 49.5658V50.2242C276.533 50.3312 276.479 50.3848 276.372 50.3848C276.244 50.3955 276.046 50.4008 275.778 50.4008C275.007 50.4008 274.424 50.2563 274.028 49.9673C273.632 49.6782 273.433 49.1429 273.433 48.3614V43.271C273.433 43.2282 273.412 43.2068 273.369 43.2068H272.39C272.283 43.2068 272.229 43.1532 272.229 43.0462V42.4199C272.229 42.3129 272.283 42.2593 272.39 42.2593H273.369C273.412 42.2593 273.433 42.2379 273.433 42.1951V40.3323C273.433 40.2253 273.487 40.1718 273.594 40.1718H274.381C274.488 40.1718 274.542 40.2253 274.542 40.3323V42.1951C274.542 42.2379 274.563 42.2593 274.606 42.2593H276.42C276.527 42.2593 276.581 42.3129 276.581 42.4199V43.0462ZM282.157 42.1469C283.014 42.1469 283.693 42.3985 284.197 42.9017C284.71 43.4048 284.967 44.0793 284.967 44.925V50.2242C284.967 50.3312 284.914 50.3848 284.807 50.3848H283.988C283.881 50.3848 283.827 50.3312 283.827 50.2242V45.1498C283.827 44.561 283.645 44.0793 283.281 43.7046C282.928 43.3299 282.468 43.1425 281.9 43.1425C281.311 43.1425 280.835 43.3245 280.471 43.6885C280.107 44.0525 279.925 44.5289 279.925 45.1177V50.2242C279.925 50.3312 279.872 50.3848 279.765 50.3848H278.946C278.839 50.3848 278.785 50.3312 278.785 50.2242V39.3046C278.785 39.1976 278.839 39.144 278.946 39.144H279.765C279.872 39.144 279.925 39.1976 279.925 39.3046V43.1104C279.925 43.1318 279.93 43.1479 279.941 43.1586C279.963 43.1693 279.979 43.1639 279.989 43.1425C280.46 42.4788 281.183 42.1469 282.157 42.1469ZM155.043 68.5585C155.043 69.3721 154.775 70.0412 154.24 70.5658C153.715 71.0904 152.976 71.4008 152.024 71.4972C151.981 71.4972 151.959 71.5186 151.959 71.5614L151.975 72.7176C151.975 72.8246 151.922 72.8782 151.815 72.8782H151.108C151.001 72.8782 150.948 72.8246 150.948 72.7176L150.964 71.5614C150.964 71.5186 150.942 71.4972 150.9 71.4972C149.925 71.3901 149.165 71.0743 148.619 70.5497C148.073 70.0145 147.8 69.3347 147.8 68.5104V68.0125C147.8 67.9055 147.854 67.852 147.961 67.852H148.684C148.791 67.852 148.844 67.9055 148.844 68.0125V68.4461C148.844 69.067 149.085 69.5702 149.567 69.9556C150.059 70.3303 150.734 70.5176 151.59 70.5176C152.361 70.5176 152.95 70.3463 153.356 70.0038C153.763 69.6505 153.967 69.1848 153.967 68.6067C153.967 68.232 153.87 67.9108 153.678 67.6432C153.496 67.3756 153.212 67.124 152.827 66.8885C152.441 66.653 151.89 66.38 151.173 66.0695C150.402 65.7483 149.808 65.47 149.39 65.2345C148.983 64.9883 148.646 64.6778 148.378 64.3031C148.121 63.9177 147.993 63.436 147.993 62.8579C147.993 62.0336 148.245 61.3805 148.748 60.8988C149.251 60.4063 149.947 60.1173 150.835 60.0316C150.878 60.0316 150.9 60.0102 150.9 59.9674L150.883 58.7149C150.883 58.6078 150.937 58.5543 151.044 58.5543H151.735C151.842 58.5543 151.895 58.6078 151.895 58.7149L151.879 59.9835C151.879 60.0263 151.9 60.0477 151.943 60.0477C152.885 60.1547 153.624 60.4759 154.159 61.0112C154.695 61.5465 154.962 62.2316 154.962 63.0666V63.4199C154.962 63.527 154.909 63.5805 154.802 63.5805H154.047C153.94 63.5805 153.886 63.527 153.886 63.4199V63.1309C153.886 62.5099 153.656 62.0014 153.196 61.6053C152.736 61.2092 152.099 61.0112 151.285 61.0112C150.568 61.0112 150.016 61.1664 149.631 61.4769C149.246 61.7873 149.053 62.237 149.053 62.8258C149.053 63.2112 149.144 63.5323 149.326 63.7892C149.519 64.0355 149.786 64.2549 150.129 64.4476C150.482 64.6296 151.023 64.8705 151.751 65.1702C152.489 65.4914 153.083 65.7912 153.533 66.0695C153.993 66.3478 154.357 66.6904 154.625 67.0972C154.903 67.4933 155.043 67.9804 155.043 68.5585ZM160.432 71.5453C159.404 71.5453 158.585 71.2509 157.975 70.6621C157.364 70.0733 157.059 69.2865 157.059 68.3016V63.2272C157.059 62.2423 157.364 61.4608 157.975 60.8827C158.585 60.2939 159.404 59.9995 160.432 59.9995C161.47 59.9995 162.3 60.2939 162.921 60.8827C163.542 61.4715 163.852 62.253 163.852 63.2272V68.3016C163.852 69.2865 163.542 70.0733 162.921 70.6621C162.3 71.2509 161.47 71.5453 160.432 71.5453ZM160.432 70.5497C161.117 70.5497 161.668 70.3517 162.086 69.9556C162.503 69.5595 162.712 69.0296 162.712 68.3658V63.179C162.712 62.526 162.503 62.0014 162.086 61.6053C161.679 61.2092 161.127 61.0112 160.432 61.0112C159.757 61.0112 159.216 61.2092 158.81 61.6053C158.403 62.0014 158.199 62.526 158.199 63.179V68.3658C158.199 69.0296 158.403 69.5595 158.81 69.9556C159.216 70.3517 159.757 70.5497 160.432 70.5497ZM167.215 71.3526C166.947 71.3526 166.728 71.267 166.557 71.0957C166.396 70.9244 166.316 70.7103 166.316 70.4534C166.316 70.1858 166.396 69.9716 166.557 69.8111C166.728 69.6398 166.947 69.5541 167.215 69.5541C167.472 69.5541 167.686 69.6398 167.857 69.8111C168.029 69.9716 168.114 70.1858 168.114 70.4534C168.114 70.7103 168.029 70.9244 167.857 71.0957C167.686 71.267 167.472 71.3526 167.215 71.3526ZM173.432 71.5453C172.404 71.5453 171.585 71.2509 170.975 70.6621C170.365 70.0733 170.06 69.2865 170.06 68.3016V63.2272C170.06 62.2423 170.365 61.4608 170.975 60.8827C171.585 60.2939 172.404 59.9995 173.432 59.9995C174.47 59.9995 175.3 60.2939 175.921 60.8827C176.542 61.4715 176.852 62.253 176.852 63.2272V68.3016C176.852 69.2865 176.542 70.0733 175.921 70.6621C175.3 71.2509 174.47 71.5453 173.432 71.5453ZM173.432 70.5497C174.117 70.5497 174.668 70.3517 175.086 69.9556C175.503 69.5595 175.712 69.0296 175.712 68.3658V63.179C175.712 62.526 175.503 62.0014 175.086 61.6053C174.679 61.2092 174.128 61.0112 173.432 61.0112C172.757 61.0112 172.217 61.2092 171.81 61.6053C171.403 62.0014 171.2 62.526 171.2 63.179V68.3658C171.2 69.0296 171.403 69.5595 171.81 69.9556C172.217 70.3517 172.757 70.5497 173.432 70.5497ZM180.44 70.3089C180.408 70.3624 180.419 70.3892 180.472 70.3892H185.514C185.622 70.3892 185.675 70.4427 185.675 70.5497V71.2242C185.675 71.3312 185.622 71.3848 185.514 71.3848H179.107C179 71.3848 178.947 71.3312 178.947 71.2242V70.5497C178.947 70.4748 178.973 70.4106 179.027 70.357C179.391 69.9288 180.21 68.9225 181.484 67.3381L182.672 65.8608C183.678 64.5868 184.182 63.5965 184.182 62.89C184.182 62.3226 183.989 61.8676 183.604 61.525C183.218 61.1825 182.715 61.0112 182.094 61.0112C181.484 61.0112 180.991 61.1878 180.617 61.5411C180.242 61.8837 180.06 62.3387 180.071 62.906V63.4038C180.071 63.5109 180.017 63.5644 179.91 63.5644H179.075C178.968 63.5644 178.915 63.5109 178.915 63.4038V62.7615C178.936 61.9372 179.241 61.2735 179.83 60.7703C180.429 60.2672 181.184 60.0156 182.094 60.0156C182.736 60.0156 183.304 60.1387 183.796 60.3849C184.289 60.6311 184.669 60.9737 184.936 61.4126C185.204 61.8409 185.338 62.328 185.338 62.8739C185.338 63.7839 184.835 64.8812 183.828 66.1659C183.304 66.8403 182.292 68.0821 180.793 69.8914L180.44 70.3089ZM197.419 65.2827C197.579 65.7965 197.66 66.4763 197.66 67.322C197.66 68.1785 197.59 68.8422 197.451 69.3133C197.258 69.9984 196.905 70.539 196.391 70.9351C195.888 71.3205 195.251 71.5132 194.48 71.5132C194.063 71.5132 193.677 71.4329 193.324 71.2724C192.971 71.1011 192.676 70.8602 192.441 70.5497C192.419 70.5283 192.398 70.523 192.377 70.5337C192.366 70.5337 192.361 70.5444 192.361 70.5658V74.3395C192.361 74.4465 192.307 74.5001 192.2 74.5001H191.381C191.274 74.5001 191.22 74.4465 191.22 74.3395V63.4199C191.22 63.3129 191.274 63.2593 191.381 63.2593H192.2C192.307 63.2593 192.361 63.3129 192.361 63.4199V64.0944C192.361 64.1158 192.366 64.1318 192.377 64.1425C192.398 64.1425 192.419 64.1318 192.441 64.1104C192.676 63.8 192.965 63.5591 193.308 63.3878C193.661 63.2165 194.052 63.1309 194.48 63.1309C195.23 63.1309 195.856 63.3236 196.359 63.709C196.873 64.0944 197.226 64.6189 197.419 65.2827ZM196.15 69.3454C196.268 69.1099 196.354 68.8476 196.407 68.5585C196.471 68.2588 196.504 67.8466 196.504 67.322C196.504 66.8189 196.482 66.4281 196.439 66.1498C196.396 65.8608 196.322 65.6038 196.214 65.379C196.086 64.9936 195.856 64.6885 195.524 64.4637C195.203 64.2389 194.817 64.1265 194.368 64.1265C193.94 64.1265 193.581 64.2389 193.292 64.4637C193.003 64.6885 192.789 64.9883 192.65 65.3629C192.553 65.5771 192.484 65.8286 192.441 66.1177C192.398 66.4067 192.377 66.8082 192.377 67.322C192.377 67.8359 192.398 68.2427 192.441 68.5425C192.484 68.8315 192.559 69.0884 192.666 69.3133C192.794 69.6772 193.003 69.9716 193.292 70.1965C193.592 70.4106 193.945 70.5176 194.352 70.5176C194.78 70.5176 195.149 70.4106 195.46 70.1965C195.781 69.9824 196.011 69.6987 196.15 69.3454ZM206.089 65.9571C206.132 66.2569 206.153 66.6315 206.153 67.0812V67.595C206.153 67.7021 206.1 67.7556 205.993 67.7556H200.806C200.763 67.7556 200.742 67.777 200.742 67.8198C200.763 68.4086 200.795 68.7887 200.838 68.96C200.956 69.4417 201.207 69.8218 201.593 70.1001C201.978 70.3785 202.471 70.5176 203.07 70.5176C203.52 70.5176 203.916 70.4159 204.258 70.2125C204.601 70.0091 204.869 69.7201 205.061 69.3454C205.126 69.249 205.2 69.2276 205.286 69.2811L205.912 69.6505C205.998 69.704 206.019 69.7789 205.977 69.8753C205.709 70.3892 205.307 70.796 204.772 71.0957C204.237 71.3848 203.621 71.5293 202.926 71.5293C202.165 71.5186 201.528 71.3366 201.015 70.9833C200.501 70.63 200.131 70.1376 199.907 69.506C199.714 68.9921 199.618 68.2534 199.618 67.2899C199.618 66.8403 199.623 66.4763 199.634 66.198C199.655 65.9089 199.698 65.652 199.762 65.4272C199.944 64.7313 200.308 64.1746 200.854 63.7571C201.411 63.3396 202.08 63.1309 202.861 63.1309C203.835 63.1309 204.585 63.3771 205.109 63.8695C205.634 64.362 205.961 65.0578 206.089 65.9571ZM202.861 64.1265C202.337 64.1265 201.898 64.2656 201.545 64.544C201.202 64.8116 200.977 65.1756 200.87 65.6359C200.806 65.8608 200.763 66.2247 200.742 66.7279C200.742 66.7707 200.763 66.7921 200.806 66.7921H204.965C205.008 66.7921 205.029 66.7707 205.029 66.7279C205.008 66.2461 204.976 65.9036 204.933 65.7002C204.815 65.2184 204.574 64.8384 204.21 64.56C203.857 64.271 203.407 64.1265 202.861 64.1265ZM211.697 63.179C212.05 63.179 212.355 63.2486 212.612 63.3878C212.698 63.4306 212.73 63.5002 212.708 63.5965L212.532 64.3834C212.499 64.4905 212.43 64.5226 212.323 64.4797C212.141 64.4048 211.932 64.3673 211.697 64.3673L211.488 64.3834C210.931 64.4048 210.471 64.6136 210.107 65.0097C209.743 65.3951 209.561 65.8875 209.561 66.487V71.2242C209.561 71.3312 209.507 71.3848 209.4 71.3848H208.581C208.474 71.3848 208.421 71.3312 208.421 71.2242V63.4199C208.421 63.3129 208.474 63.2593 208.581 63.2593H209.4C209.507 63.2593 209.561 63.3129 209.561 63.4199V64.3995C209.561 64.4316 209.566 64.453 209.577 64.4637C209.598 64.4637 209.614 64.453 209.625 64.4316C209.85 64.0355 210.134 63.7304 210.476 63.5163C210.829 63.2914 211.236 63.179 211.697 63.179ZM223.715 65.9571C223.758 66.2569 223.78 66.6315 223.78 67.0812V67.595C223.78 67.7021 223.726 67.7556 223.619 67.7556H218.432C218.389 67.7556 218.368 67.777 218.368 67.8198C218.389 68.4086 218.422 68.7887 218.464 68.96C218.582 69.4417 218.834 69.8218 219.219 70.1001C219.604 70.3785 220.097 70.5176 220.696 70.5176C221.146 70.5176 221.542 70.4159 221.885 70.2125C222.227 70.0091 222.495 69.7201 222.688 69.3454C222.752 69.249 222.827 69.2276 222.912 69.2811L223.539 69.6505C223.624 69.704 223.646 69.7789 223.603 69.8753C223.335 70.3892 222.934 70.796 222.399 71.0957C221.863 71.3848 221.248 71.5293 220.552 71.5293C219.792 71.5186 219.155 71.3366 218.641 70.9833C218.127 70.63 217.758 70.1376 217.533 69.506C217.34 68.9921 217.244 68.2534 217.244 67.2899C217.244 66.8403 217.249 66.4763 217.26 66.198C217.281 65.9089 217.324 65.652 217.388 65.4272C217.57 64.7313 217.934 64.1746 218.48 63.7571C219.037 63.3396 219.706 63.1309 220.488 63.1309C221.462 63.1309 222.211 63.3771 222.736 63.8695C223.26 64.362 223.587 65.0578 223.715 65.9571ZM220.488 64.1265C219.963 64.1265 219.524 64.2656 219.171 64.544C218.828 64.8116 218.604 65.1756 218.496 65.6359C218.432 65.8608 218.389 66.2247 218.368 66.7279C218.368 66.7707 218.389 66.7921 218.432 66.7921H222.591C222.634 66.7921 222.656 66.7707 222.656 66.7279C222.634 66.2461 222.602 65.9036 222.559 65.7002C222.441 65.2184 222.201 64.8384 221.837 64.56C221.483 64.271 221.034 64.1265 220.488 64.1265ZM225.137 71.3848C225.073 71.3848 225.025 71.3634 224.992 71.3205C224.971 71.2777 224.982 71.2349 225.025 71.1921L227.706 67.3702C227.728 67.3381 227.728 67.306 227.706 67.2739L225.025 63.452C225.003 63.4306 224.992 63.4038 224.992 63.3717C224.992 63.2968 225.041 63.2593 225.137 63.2593H226.004C226.09 63.2593 226.154 63.2914 226.197 63.3557L228.3 66.3907C228.311 66.4014 228.327 66.4067 228.349 66.4067C228.37 66.4067 228.386 66.4014 228.397 66.3907L230.484 63.3557C230.527 63.2914 230.591 63.2593 230.677 63.2593H231.625C231.689 63.2593 231.732 63.2807 231.753 63.3236C231.774 63.3557 231.764 63.3985 231.721 63.452L229.039 67.2739C229.028 67.306 229.028 67.3381 229.039 67.3702L231.721 71.1921C231.742 71.2135 231.753 71.2456 231.753 71.2884C231.753 71.3098 231.742 71.3312 231.721 71.3526C231.699 71.3741 231.667 71.3848 231.625 71.3848H230.741C230.656 71.3848 230.591 71.3526 230.549 71.2884L228.461 68.2534C228.45 68.232 228.434 68.2213 228.413 68.2213C228.391 68.2213 228.375 68.232 228.365 68.2534L226.245 71.2884C226.202 71.3526 226.138 71.3848 226.052 71.3848H225.137ZM237.125 64.0462C237.125 64.1532 237.072 64.2068 236.965 64.2068H235.15C235.107 64.2068 235.086 64.2282 235.086 64.271V69.0082C235.086 69.522 235.198 69.886 235.423 70.1001C235.659 70.3035 236.023 70.4052 236.515 70.4052H236.917C237.024 70.4052 237.077 70.4587 237.077 70.5658V71.2242C237.077 71.3312 237.024 71.3848 236.917 71.3848C236.788 71.3955 236.59 71.4008 236.323 71.4008C235.552 71.4008 234.968 71.2563 234.572 70.9673C234.176 70.6782 233.978 70.1429 233.978 69.3614V64.271C233.978 64.2282 233.957 64.2068 233.914 64.2068H232.934C232.827 64.2068 232.774 64.1532 232.774 64.0462V63.4199C232.774 63.3129 232.827 63.2593 232.934 63.2593H233.914C233.957 63.2593 233.978 63.2379 233.978 63.1951V61.3323C233.978 61.2253 234.032 61.1718 234.139 61.1718H234.925C235.033 61.1718 235.086 61.2253 235.086 61.3323V63.1951C235.086 63.2379 235.107 63.2593 235.15 63.2593H236.965C237.072 63.2593 237.125 63.3129 237.125 63.4199V64.0462ZM242.605 63.179C242.959 63.179 243.264 63.2486 243.521 63.3878C243.606 63.4306 243.638 63.5002 243.617 63.5965L243.44 64.3834C243.408 64.4905 243.339 64.5226 243.232 64.4797C243.05 64.4048 242.841 64.3673 242.605 64.3673L242.397 64.3834C241.84 64.4048 241.38 64.6136 241.016 65.0097C240.652 65.3951 240.47 65.8875 240.47 66.487V71.2242C240.47 71.3312 240.416 71.3848 240.309 71.3848H239.49C239.383 71.3848 239.33 71.3312 239.33 71.2242V63.4199C239.33 63.3129 239.383 63.2593 239.49 63.2593H240.309C240.416 63.2593 240.47 63.3129 240.47 63.4199V64.3995C240.47 64.4316 240.475 64.453 240.486 64.4637C240.507 64.4637 240.523 64.453 240.534 64.4316C240.759 64.0355 241.042 63.7304 241.385 63.5163C241.738 63.2914 242.145 63.179 242.605 63.179ZM247.958 63.1309C248.921 63.1309 249.665 63.3771 250.19 63.8695C250.714 64.362 250.977 65.015 250.977 65.8286V71.2242C250.977 71.3312 250.923 71.3848 250.816 71.3848H249.997C249.89 71.3848 249.836 71.3312 249.836 71.2242V70.5658C249.836 70.5444 249.826 70.5283 249.804 70.5176C249.794 70.5069 249.778 70.5123 249.756 70.5337C249.489 70.8548 249.141 71.1011 248.712 71.2724C248.284 71.4329 247.808 71.5132 247.283 71.5132C246.523 71.5132 245.886 71.3205 245.372 70.9351C244.858 70.5497 244.602 69.9609 244.602 69.1687C244.602 68.3658 244.891 67.7342 245.469 67.2739C246.057 66.8028 246.871 66.5673 247.91 66.5673H249.772C249.815 66.5673 249.836 66.5459 249.836 66.5031V65.8929C249.836 65.3469 249.681 64.9187 249.371 64.6082C249.071 64.287 248.6 64.1265 247.958 64.1265C247.444 64.1265 247.026 64.2282 246.705 64.4316C246.384 64.6243 246.186 64.8973 246.111 65.2505C246.079 65.3576 246.015 65.4058 245.918 65.3951L245.051 65.2827C244.933 65.2612 244.885 65.2184 244.907 65.1542C244.992 64.5547 245.313 64.0676 245.87 63.6929C246.427 63.3182 247.123 63.1309 247.958 63.1309ZM247.508 70.5337C248.14 70.5337 248.686 70.3785 249.146 70.068C249.606 69.7468 249.836 69.3186 249.836 68.7833V67.5308C249.836 67.488 249.815 67.4666 249.772 67.4666H248.086C247.38 67.4666 246.812 67.6111 246.384 67.9001C245.956 68.1892 245.742 68.5906 245.742 69.1045C245.742 69.5755 245.902 69.9342 246.223 70.1804C246.555 70.4159 246.983 70.5337 247.508 70.5337ZM256.724 71.3848C256.617 71.3848 256.564 71.3312 256.564 71.2242V60.3046C256.564 60.1976 256.617 60.144 256.724 60.144H257.543C257.65 60.144 257.704 60.1976 257.704 60.3046V71.2242C257.704 71.3312 257.65 71.3848 257.543 71.3848H256.724ZM266.495 65.9571C266.538 66.2569 266.56 66.6315 266.56 67.0812V67.595C266.56 67.7021 266.506 67.7556 266.399 67.7556H261.212C261.169 67.7556 261.148 67.777 261.148 67.8198C261.169 68.4086 261.202 68.7887 261.244 68.96C261.362 69.4417 261.614 69.8218 261.999 70.1001C262.384 70.3785 262.877 70.5176 263.476 70.5176C263.926 70.5176 264.322 70.4159 264.665 70.2125C265.007 70.0091 265.275 69.7201 265.468 69.3454C265.532 69.249 265.607 69.2276 265.692 69.2811L266.319 69.6505C266.404 69.704 266.426 69.7789 266.383 69.8753C266.115 70.3892 265.714 70.796 265.179 71.0957C264.643 71.3848 264.028 71.5293 263.332 71.5293C262.572 71.5186 261.935 71.3366 261.421 70.9833C260.907 70.63 260.538 70.1376 260.313 69.506C260.12 68.9921 260.024 68.2534 260.024 67.2899C260.024 66.8403 260.029 66.4763 260.04 66.198C260.061 65.9089 260.104 65.652 260.168 65.4272C260.35 64.7313 260.714 64.1746 261.26 63.7571C261.817 63.3396 262.486 63.1309 263.268 63.1309C264.242 63.1309 264.991 63.3771 265.516 63.8695C266.04 64.362 266.367 65.0578 266.495 65.9571ZM263.268 64.1265C262.743 64.1265 262.304 64.2656 261.951 64.544C261.608 64.8116 261.384 65.1756 261.276 65.6359C261.212 65.8608 261.169 66.2247 261.148 66.7279C261.148 66.7707 261.169 66.7921 261.212 66.7921H265.371C265.414 66.7921 265.436 66.7707 265.436 66.7279C265.414 66.2461 265.382 65.9036 265.339 65.7002C265.221 65.2184 264.981 64.8384 264.617 64.56C264.263 64.271 263.814 64.1265 263.268 64.1265ZM271.559 63.1309C272.522 63.1309 273.266 63.3771 273.791 63.8695C274.315 64.362 274.578 65.015 274.578 65.8286V71.2242C274.578 71.3312 274.524 71.3848 274.417 71.3848H273.598C273.491 71.3848 273.438 71.3312 273.438 71.2242V70.5658C273.438 70.5444 273.427 70.5283 273.406 70.5176C273.395 70.5069 273.379 70.5123 273.357 70.5337C273.09 70.8548 272.742 71.1011 272.314 71.2724C271.885 71.4329 271.409 71.5132 270.884 71.5132C270.124 71.5132 269.487 71.3205 268.973 70.9351C268.46 70.5497 268.203 69.9609 268.203 69.1687C268.203 68.3658 268.492 67.7342 269.07 67.2739C269.659 66.8028 270.472 66.5673 271.511 66.5673H273.373C273.416 66.5673 273.438 66.5459 273.438 66.5031V65.8929C273.438 65.3469 273.282 64.9187 272.972 64.6082C272.672 64.287 272.201 64.1265 271.559 64.1265C271.045 64.1265 270.627 64.2282 270.306 64.4316C269.985 64.6243 269.787 64.8973 269.712 65.2505C269.68 65.3576 269.616 65.4058 269.519 65.3951L268.652 65.2827C268.535 65.2612 268.486 65.2184 268.508 65.1542C268.593 64.5547 268.915 64.0676 269.471 63.6929C270.028 63.3182 270.724 63.1309 271.559 63.1309ZM271.109 70.5337C271.741 70.5337 272.287 70.3785 272.747 70.068C273.207 69.7468 273.438 69.3186 273.438 68.7833V67.5308C273.438 67.488 273.416 67.4666 273.373 67.4666H271.687C270.981 67.4666 270.413 67.6111 269.985 67.9001C269.557 68.1892 269.343 68.5906 269.343 69.1045C269.343 69.5755 269.503 69.9342 269.825 70.1804C270.156 70.4159 270.585 70.5337 271.109 70.5337ZM281.993 60.3046C281.993 60.1976 282.046 60.144 282.153 60.144H282.972C283.079 60.144 283.133 60.1976 283.133 60.3046V71.2242C283.133 71.3312 283.079 71.3848 282.972 71.3848H282.153C282.046 71.3848 281.993 71.3312 281.993 71.2242V70.5497C281.993 70.5283 281.982 70.5176 281.96 70.5176C281.95 70.5069 281.934 70.5123 281.912 70.5337C281.677 70.8441 281.382 71.085 281.029 71.2563C280.686 71.4276 280.301 71.5132 279.873 71.5132C279.123 71.5132 278.492 71.3205 277.978 70.9351C277.475 70.5497 277.127 70.0252 276.934 69.3614C276.784 68.8797 276.709 68.1999 276.709 67.322C276.709 66.4335 276.774 65.7698 276.902 65.3308C277.095 64.6457 277.448 64.1104 277.962 63.725C278.476 63.3289 279.113 63.1309 279.873 63.1309C280.29 63.1309 280.676 63.2165 281.029 63.3878C281.382 63.5484 281.677 63.7839 281.912 64.0944C281.934 64.1158 281.95 64.1265 281.96 64.1265C281.982 64.1158 281.993 64.0997 281.993 64.0783V60.3046ZM281.703 69.2811C281.8 69.067 281.869 68.8155 281.912 68.5264C281.955 68.2374 281.976 67.8359 281.976 67.322C281.976 66.8082 281.955 66.4067 281.912 66.1177C281.869 65.8179 281.794 65.5556 281.687 65.3308C281.559 64.9668 281.345 64.6778 281.045 64.4637C280.756 64.2389 280.408 64.1265 280.001 64.1265C279.573 64.1265 279.204 64.2335 278.893 64.4476C278.583 64.6617 278.358 64.9454 278.219 65.2987C278.09 65.5342 277.994 65.8019 277.93 66.1016C277.876 66.3907 277.85 66.7975 277.85 67.322C277.85 67.8252 277.871 68.2213 277.914 68.5104C277.957 68.7887 278.031 69.0403 278.139 69.2651C278.267 69.6505 278.492 69.9556 278.813 70.1804C279.145 70.4052 279.536 70.5176 279.985 70.5176C280.413 70.5176 280.772 70.4052 281.061 70.1804C281.35 69.9556 281.564 69.6558 281.703 69.2811Z" fill="#454545"/>
<path d="M141.396 41.0757H140.487C140.36 41.0757 140.239 41.1334 140.161 41.232L134.8 47.9263L132.23 44.7157C132.191 44.667 132.142 44.6276 132.085 44.6006C132.029 44.5735 131.967 44.5594 131.904 44.5593H130.995C130.908 44.5593 130.86 44.658 130.913 44.7246L134.474 49.1721C134.641 49.3797 134.96 49.3797 135.128 49.1721L141.478 41.2397C141.531 41.1744 141.483 41.0757 141.396 41.0757Z" fill="#454545" stroke="#454545" stroke-width="0.669091"/>
<path d="M141.396 61.3712H140.487C140.36 61.3712 140.239 61.4289 140.161 61.5276L134.8 68.2218L132.23 65.0112C132.191 64.9625 132.142 64.9232 132.085 64.8961C132.029 64.869 131.967 64.8549 131.904 64.8548H130.995C130.908 64.8548 130.86 64.9535 130.913 65.0202L134.474 69.4676C134.641 69.6752 134.96 69.6752 135.128 69.4676L141.478 61.5353C141.531 61.4699 141.483 61.3712 141.396 61.3712Z" fill="#454545" stroke="#454545" stroke-width="0.669091"/>
<path d="M57.921 57.0528C57.921 59.1404 57.2519 60.8666 55.9137 62.2316C54.6023 63.5697 52.769 64.3727 50.4138 64.6403C50.3067 64.6403 50.2532 64.6938 50.2532 64.8009L50.2934 67.6111C50.2934 67.8787 50.1595 68.0125 49.8919 68.0125H47.2423C46.9747 68.0125 46.8409 67.8787 46.8409 67.6111L46.881 64.7607C46.881 64.6537 46.8275 64.6001 46.7204 64.6001C44.3385 64.279 42.4784 63.4493 41.1402 62.1111C39.802 60.7462 39.1329 59.0065 39.1329 56.8922V55.728C39.1329 55.4604 39.2667 55.3265 39.5344 55.3265H42.3044C42.5721 55.3265 42.7059 55.4604 42.7059 55.728V56.6915C42.7059 58.0564 43.2679 59.1805 44.392 60.0637C45.5161 60.9469 47.0416 61.3885 48.9686 61.3885C50.7082 61.3885 52.0196 61.0004 52.9028 60.2243C53.8128 59.4481 54.2678 58.4311 54.2678 57.1732C54.2678 56.3436 54.0403 55.6343 53.5853 55.0455C53.1303 54.4567 52.4612 53.9215 51.578 53.4397C50.6948 52.9312 49.4102 52.329 47.7241 51.6332C45.8506 50.8838 44.3786 50.2013 43.3081 49.5857C42.2375 48.9702 41.3409 48.1673 40.6183 47.177C39.9225 46.16 39.5745 44.8887 39.5745 43.3632C39.5745 41.3292 40.2035 39.6832 41.4614 38.4253C42.7193 37.1407 44.4321 36.3511 46.6 36.0567C46.707 36.0567 46.7606 36.0032 46.7606 35.8961L46.7204 32.8049C46.7204 32.5373 46.8542 32.4035 47.1219 32.4035H49.7313C49.999 32.4035 50.1328 32.5373 50.1328 32.8049L50.0926 35.9363C50.0926 36.0433 50.1462 36.1103 50.2532 36.137C52.5549 36.4582 54.3614 37.3146 55.6729 38.7063C57.011 40.098 57.6801 41.8511 57.6801 43.9654V44.7683C57.6801 45.0359 57.5463 45.1697 57.2787 45.1697H54.4685C54.2009 45.1697 54.067 45.0359 54.067 44.7683V44.1661C54.067 42.7744 53.5451 41.6236 52.5014 40.7136C51.4576 39.7769 49.999 39.3085 48.1255 39.3085C46.5465 39.3085 45.3287 39.6564 44.4723 40.3523C43.6158 41.0214 43.1876 41.9983 43.1876 43.2829C43.1876 44.1661 43.4017 44.8887 43.8299 45.4508C44.2849 46.0128 44.9273 46.5213 45.7569 46.9763C46.6134 47.4045 47.9114 47.9665 49.651 48.6624C51.471 49.4118 52.9296 50.1076 54.0269 50.75C55.151 51.3655 56.0743 52.1952 56.7969 53.239C57.5463 54.256 57.921 55.5273 57.921 57.0528ZM65.3537 36.418C65.5142 36.3377 65.6882 36.2976 65.8756 36.2976H69.047C69.3147 36.2976 69.4485 36.4314 69.4485 36.6991V63.998C69.4485 64.2656 69.3147 64.3994 69.047 64.3994H65.996C65.7284 64.3994 65.5945 64.2656 65.5945 63.998V40.4326C65.5945 40.3791 65.5678 40.3389 65.5142 40.3121C65.4875 40.2854 65.4473 40.2854 65.3938 40.3121L61.1785 41.7574C61.125 41.7841 61.0581 41.7975 60.9778 41.7975C60.8172 41.7975 60.7236 41.6905 60.6968 41.4764L60.5362 39.1881C60.5362 38.9204 60.6165 38.7599 60.7771 38.7063L65.3537 36.418ZM78.2859 36.418C78.4465 36.3377 78.6205 36.2976 78.8078 36.2976H81.9793C82.2469 36.2976 82.3808 36.4314 82.3808 36.6991V63.998C82.3808 64.2656 82.2469 64.3994 81.9793 64.3994H78.9283C78.6606 64.3994 78.5268 64.2656 78.5268 63.998V40.4326C78.5268 40.3791 78.5 40.3389 78.4465 40.3121C78.4197 40.2854 78.3796 40.2854 78.3261 40.3121L74.1108 41.7574C74.0573 41.7841 73.9904 41.7975 73.9101 41.7975C73.7495 41.7975 73.6558 41.6905 73.6291 41.4764L73.4685 39.1881C73.4685 38.9204 73.5488 38.7599 73.7093 38.7063L78.2859 36.418ZM102.342 50.5492C103.092 51.9677 103.466 53.6672 103.466 55.6477C103.466 57.2803 103.199 58.7121 102.663 59.9433C102.048 61.4688 101.084 62.6464 99.773 63.4761C98.4883 64.279 96.9226 64.6804 95.0759 64.6804C93.0954 64.6804 91.4093 64.2255 90.0176 63.3155C88.6527 62.4055 87.6892 61.1209 87.1271 59.4615C86.7257 58.3375 86.525 57.0394 86.525 55.5674V43.2026C86.525 41.008 87.2877 39.255 88.8132 37.9436C90.3388 36.6321 92.3327 35.9764 94.7949 35.9764C96.374 35.9764 97.7657 36.2708 98.97 36.8596C100.201 37.4484 101.151 38.2781 101.82 39.3487C102.489 40.3924 102.824 41.5968 102.824 42.9617V43.7647C102.824 44.0323 102.69 44.1661 102.423 44.1661H99.3715C99.1039 44.1661 98.97 44.0323 98.97 43.7647V43.4033C98.97 42.199 98.582 41.2221 97.8058 40.4727C97.0297 39.7233 96.026 39.3487 94.7949 39.3487C93.4835 39.3487 92.413 39.7367 91.5833 40.5129C90.7804 41.289 90.3789 42.3194 90.3789 43.6041V48.6624C90.3789 48.7159 90.3923 48.7561 90.4191 48.7828C90.4726 48.7828 90.5261 48.7561 90.5796 48.7025C91.7305 47.4179 93.4032 46.7756 95.5978 46.7756C98.7559 46.7756 101.004 48.0335 102.342 50.5492ZM99.0102 58.7389C99.4116 57.8825 99.6124 56.8521 99.6124 55.6477C99.6124 54.2828 99.3715 53.1855 98.8897 52.3558C98.1136 50.8035 96.8022 50.0273 94.9555 50.0273C94.0188 50.0273 93.2159 50.2415 92.5468 50.6697C91.8777 51.0711 91.3692 51.6599 91.0212 52.4361C90.593 53.3193 90.3789 54.4567 90.3789 55.8484C90.3789 56.9725 90.5529 57.9226 90.9008 58.6988C91.2487 59.5552 91.7706 60.2109 92.4665 60.6659C93.1623 61.0941 94.0054 61.3082 94.9956 61.3082C96.9494 61.3082 98.2876 60.4518 99.0102 58.7389Z" fill="#454545"/>
<path d="M61.8846 77.1484C61.7865 77.1484 61.7508 77.0994 61.7775 77.0012L64.7349 67.8882C64.7617 67.8168 64.8152 67.7812 64.8955 67.7812H65.5646C65.6627 67.7812 65.6984 67.8302 65.6716 67.9284L62.7143 77.0414C62.6875 77.1128 62.634 77.1484 62.5537 77.1484H61.8846ZM74.4591 70.2836C75.1282 70.2836 75.6546 70.4843 76.0382 70.8857C76.4307 71.2872 76.627 71.8359 76.627 72.5317V77.0146C76.627 77.1038 76.5824 77.1484 76.4931 77.1484H75.8241C75.7348 77.1484 75.6902 77.1038 75.6902 77.0146V72.7191C75.6902 72.2284 75.5475 71.8403 75.262 71.5548C74.9855 71.2604 74.6197 71.1132 74.1647 71.1132C73.6919 71.1132 73.3083 71.256 73.0139 71.5415C72.7284 71.8269 72.5857 72.2105 72.5857 72.6923V77.0146C72.5857 77.1038 72.541 77.1484 72.4518 77.1484H71.7694C71.6802 77.1484 71.6355 77.1038 71.6355 77.0146V72.7191C71.6355 72.2284 71.4973 71.8403 71.2207 71.5548C70.9442 71.2604 70.5739 71.1132 70.11 71.1132C69.6372 71.1132 69.258 71.256 68.9726 71.5415C68.696 71.8269 68.5577 72.2105 68.5577 72.6923V77.0146C68.5577 77.1038 68.5131 77.1484 68.4239 77.1484H67.7414C67.6522 77.1484 67.6076 77.1038 67.6076 77.0146V70.5111C67.6076 70.4218 67.6522 70.3772 67.7414 70.3772H68.4239C68.5131 70.3772 68.5577 70.4218 68.5577 70.5111V71.0463C68.5577 71.0642 68.5622 71.0776 68.5711 71.0865C68.589 71.0865 68.6068 71.0776 68.6246 71.0597C68.8209 70.801 69.0707 70.6092 69.374 70.4843C69.6863 70.3505 70.0297 70.2836 70.4044 70.2836C70.8683 70.2836 71.2653 70.3772 71.5954 70.5646C71.9255 70.7519 72.1753 71.024 72.3448 71.3809C72.3626 71.4255 72.3849 71.4255 72.4117 71.3809C72.608 71.0151 72.8845 70.743 73.2414 70.5646C73.5982 70.3772 74.0041 70.2836 74.4591 70.2836ZM81.1676 77.2555C80.5253 77.2555 79.9721 77.0904 79.5082 76.7604C79.0443 76.4303 78.7232 75.9753 78.5447 75.3954C78.4198 74.985 78.3574 74.4364 78.3574 73.7495C78.3574 73.0625 78.4198 72.5183 78.5447 72.1169C78.7142 71.5459 79.031 71.0954 79.4949 70.7653C79.9588 70.4352 80.5208 70.2702 81.181 70.2702C81.8144 70.2702 82.3586 70.4352 82.8135 70.7653C83.2774 71.0954 83.5942 71.5415 83.7637 72.1035C83.8886 72.4871 83.951 73.0358 83.951 73.7495C83.951 74.4721 83.8886 75.0207 83.7637 75.3954C83.5942 75.9753 83.2774 76.4303 82.8135 76.7604C82.3586 77.0904 81.8099 77.2555 81.1676 77.2555ZM81.1676 76.4258C81.5958 76.4258 81.9616 76.3098 82.2649 76.0779C82.5682 75.837 82.7734 75.5159 82.8805 75.1144C82.9607 74.7932 83.0009 74.3427 83.0009 73.7628C83.0009 73.174 82.9652 72.7235 82.8938 72.4113C82.7868 72.0098 82.5771 71.6931 82.2649 71.4612C81.9616 71.2203 81.5913 71.0999 81.1542 71.0999C80.7171 71.0999 80.3468 71.2203 80.0435 71.4612C79.7402 71.6931 79.535 72.0098 79.4279 72.4113C79.3566 72.7235 79.3209 73.174 79.3209 73.7628C79.3209 74.3516 79.3566 74.8022 79.4279 75.1144C79.5261 75.5159 79.7268 75.837 80.0301 76.0779C80.3424 76.3098 80.7215 76.4258 81.1676 76.4258ZM88.6871 70.2836C89.4008 70.2836 89.9673 70.4932 90.3866 70.9125C90.8148 71.3318 91.0289 71.8938 91.0289 72.5986V77.0146C91.0289 77.1038 90.9843 77.1484 90.8951 77.1484H90.2126C90.1234 77.1484 90.0788 77.1038 90.0788 77.0146V72.786C90.0788 72.2953 89.9272 71.8938 89.6238 71.5816C89.3294 71.2694 88.9458 71.1132 88.473 71.1132C87.9823 71.1132 87.5853 71.2649 87.282 71.5682C86.9787 71.8715 86.827 72.2685 86.827 72.7592V77.0146C86.827 77.1038 86.7824 77.1484 86.6932 77.1484H86.0108C85.9215 77.1484 85.8769 77.1038 85.8769 77.0146V70.5111C85.8769 70.4218 85.9215 70.3772 86.0108 70.3772H86.6932C86.7824 70.3772 86.827 70.4218 86.827 70.5111V71.0865C86.827 71.1043 86.8315 71.1177 86.8404 71.1266C86.8583 71.1355 86.8716 71.1311 86.8806 71.1132C87.2731 70.5601 87.8753 70.2836 88.6871 70.2836ZM96.1282 71.0329C96.1282 71.1222 96.0836 71.1668 95.9944 71.1668H94.4823C94.4466 71.1668 94.4288 71.1846 94.4288 71.2203V75.1679C94.4288 75.5961 94.5224 75.8995 94.7098 76.0779C94.906 76.2474 95.2094 76.3321 95.6197 76.3321H95.9543C96.0435 76.3321 96.0881 76.3768 96.0881 76.466V77.0146C96.0881 77.1038 96.0435 77.1484 95.9543 77.1484C95.8472 77.1574 95.6822 77.1618 95.4592 77.1618C94.8168 77.1618 94.3306 77.0414 94.0005 76.8005C93.6704 76.5596 93.5054 76.1136 93.5054 75.4623V71.2203C93.5054 71.1846 93.4876 71.1668 93.4519 71.1668H92.6356C92.5464 71.1668 92.5018 71.1222 92.5018 71.0329V70.5111C92.5018 70.4218 92.5464 70.3772 92.6356 70.3772H93.4519C93.4876 70.3772 93.5054 70.3594 93.5054 70.3237V68.7714C93.5054 68.6822 93.55 68.6376 93.6392 68.6376H94.2949C94.3841 68.6376 94.4288 68.6822 94.4288 68.7714V70.3237C94.4288 70.3594 94.4466 70.3772 94.4823 70.3772H95.9944C96.0836 70.3772 96.1282 70.4218 96.1282 70.5111V71.0329ZM100.775 70.2836C101.489 70.2836 102.055 70.4932 102.475 70.9125C102.903 71.3318 103.117 71.8938 103.117 72.5986V77.0146C103.117 77.1038 103.072 77.1484 102.983 77.1484H102.301C102.211 77.1484 102.167 77.1038 102.167 77.0146V72.786C102.167 72.2953 102.015 71.8938 101.712 71.5816C101.418 71.2694 101.034 71.1132 100.561 71.1132C100.07 71.1132 99.6734 71.2649 99.3701 71.5682C99.0668 71.8715 98.9151 72.2685 98.9151 72.7592V77.0146C98.9151 77.1038 98.8705 77.1484 98.7813 77.1484H98.0988C98.0096 77.1484 97.965 77.1038 97.965 77.0146V67.915C97.965 67.8258 98.0096 67.7812 98.0988 67.7812H98.7813C98.8705 67.7812 98.9151 67.8258 98.9151 67.915V71.0865C98.9151 71.1043 98.9196 71.1177 98.9285 71.1266C98.9463 71.1355 98.9597 71.1311 98.9686 71.1132C99.3612 70.5601 99.9634 70.2836 100.775 70.2836Z" fill="#454545"/>
<defs>
<filter id="filter0_d" x="0.411152" y="0.930195" width="327.855" height="104.378" filterUnits="userSpaceOnUse" color-interpolation-filters="sRGB">
<feFlood flood-opacity="0" result="BackgroundImageFix"/>
<feColorMatrix in="SourceAlpha" type="matrix" values="0 0 0 0 0 0 0 0 0 0 0 0 0 0 0 0 0 0 127 0"/>
<feOffset/>
<feGaussianBlur stdDeviation="6.69091"/>
<feColorMatrix type="matrix" values="0 0 0 0 0 0 0 0 0 0 0 0 0 0 0 0 0 0 0.1 0"/>
<feBlend mode="normal" in2="BackgroundImageFix" result="effect1_dropShadow"/>
<feBlend mode="normal" in="SourceGraphic" in2="effect1_dropShadow" result="shape"/>
</filter>
</defs>
</svg>
