<svg width="329" height="139" viewBox="0 0 329 139" fill="none" xmlns="http://www.w3.org/2000/svg">
<g filter="url(#filter0_d)">
<rect x="13.793" y="13.6902" width="301.091" height="111.069" rx="13.3818" fill="white"/>
</g>
<path d="M152.918 53.8926C153.014 54.3636 153.062 54.8454 153.062 55.3378C153.062 55.8624 153.014 56.312 152.918 56.6867C152.736 57.3719 152.372 57.9178 151.826 58.3247C151.28 58.7208 150.621 58.9188 149.851 58.9188C149.091 58.9188 148.443 58.7261 147.908 58.3407C147.372 57.9553 147.008 57.4415 146.816 56.7991C146.741 56.5636 146.693 56.3281 146.671 56.0926V56.0604C146.671 55.9748 146.719 55.932 146.816 55.932H147.667C147.774 55.932 147.833 55.9855 147.843 56.0926C147.843 56.1568 147.865 56.2639 147.908 56.4137C148.015 56.8741 148.234 57.2434 148.566 57.5217C148.909 57.7894 149.331 57.9232 149.835 57.9232C150.348 57.9232 150.777 57.7787 151.119 57.4896C151.473 57.2006 151.703 56.8045 151.81 56.3013C151.874 56.0551 151.906 55.7339 151.906 55.3378C151.906 54.9738 151.879 54.6259 151.826 54.294C151.751 53.8016 151.537 53.4269 151.184 53.17C150.83 52.913 150.391 52.7846 149.867 52.7846C149.396 52.7846 148.973 52.8916 148.598 53.1057C148.223 53.3199 147.983 53.6035 147.876 53.9568C147.843 54.0532 147.785 54.1013 147.699 54.1013H146.832C146.725 54.1013 146.671 54.0478 146.671 53.9408V47.7263C146.671 47.6192 146.725 47.5657 146.832 47.5657H152.452C152.559 47.5657 152.613 47.6192 152.613 47.7263V48.4007C152.613 48.5077 152.559 48.5613 152.452 48.5613H147.876C147.833 48.5613 147.811 48.5827 147.811 48.6255L147.795 52.5116C147.795 52.533 147.801 52.5491 147.811 52.5598C147.833 52.5705 147.854 52.5651 147.876 52.5437C148.143 52.2975 148.459 52.1101 148.823 51.9817C149.187 51.8425 149.572 51.7729 149.979 51.7729C150.739 51.7729 151.382 51.9603 151.906 52.3349C152.431 52.6989 152.768 53.2181 152.918 53.8926ZM155.08 60.075C155.027 60.075 154.984 60.0589 154.952 60.0268C154.931 59.9947 154.925 59.9519 154.936 59.8984L155.642 56.4619C155.664 56.3656 155.723 56.3174 155.819 56.3174H156.526C156.579 56.3174 156.617 56.3334 156.638 56.3656C156.67 56.3977 156.681 56.4405 156.67 56.494L155.771 59.9305C155.749 60.0268 155.691 60.075 155.594 60.075H155.08ZM162.058 58.967C161.03 58.967 160.211 58.6726 159.601 58.0838C158.99 57.495 158.685 56.7081 158.685 55.7232V50.6488C158.685 49.6639 158.99 48.8824 159.601 48.3043C160.211 47.7155 161.03 47.4211 162.058 47.4211C163.096 47.4211 163.926 47.7155 164.547 48.3043C165.167 48.8931 165.478 49.6746 165.478 50.6488V55.7232C165.478 56.7081 165.167 57.495 164.547 58.0838C163.926 58.6726 163.096 58.967 162.058 58.967ZM162.058 57.9714C162.743 57.9714 163.294 57.7733 163.712 57.3772C164.129 56.9811 164.338 56.4512 164.338 55.7875V50.6007C164.338 49.9476 164.129 49.4231 163.712 49.027C163.305 48.6309 162.753 48.4328 162.058 48.4328C161.383 48.4328 160.842 48.6309 160.436 49.027C160.029 49.4231 159.825 49.9476 159.825 50.6007V55.7875C159.825 56.4512 160.029 56.9811 160.436 57.3772C160.842 57.7733 161.383 57.9714 162.058 57.9714ZM171.137 58.967C170.11 58.967 169.291 58.6726 168.68 58.0838C168.07 57.495 167.765 56.7081 167.765 55.7232V50.6488C167.765 49.6639 168.07 48.8824 168.68 48.3043C169.291 47.7155 170.11 47.4211 171.137 47.4211C172.176 47.4211 173.005 47.7155 173.626 48.3043C174.247 48.8931 174.558 49.6746 174.558 50.6488V55.7232C174.558 56.7081 174.247 57.495 173.626 58.0838C173.005 58.6726 172.176 58.967 171.137 58.967ZM171.137 57.9714C171.822 57.9714 172.374 57.7733 172.791 57.3772C173.209 56.9811 173.418 56.4512 173.418 55.7875V50.6007C173.418 49.9476 173.209 49.4231 172.791 49.027C172.384 48.6309 171.833 48.4328 171.137 48.4328C170.463 48.4328 169.922 48.6309 169.515 49.027C169.109 49.4231 168.905 49.9476 168.905 50.6007V55.7875C168.905 56.4512 169.109 56.9811 169.515 57.3772C169.922 57.7733 170.463 57.9714 171.137 57.9714ZM180.217 58.967C179.189 58.967 178.37 58.6726 177.76 58.0838C177.15 57.495 176.845 56.7081 176.845 55.7232V50.6488C176.845 49.6639 177.15 48.8824 177.76 48.3043C178.37 47.7155 179.189 47.4211 180.217 47.4211C181.256 47.4211 182.085 47.7155 182.706 48.3043C183.327 48.8931 183.637 49.6746 183.637 50.6488V55.7232C183.637 56.7081 183.327 57.495 182.706 58.0838C182.085 58.6726 181.256 58.967 180.217 58.967ZM180.217 57.9714C180.902 57.9714 181.454 57.7733 181.871 57.3772C182.289 56.9811 182.497 56.4512 182.497 55.7875V50.6007C182.497 49.9476 182.289 49.4231 181.871 49.027C181.464 48.6309 180.913 48.4328 180.217 48.4328C179.543 48.4328 179.002 48.6309 178.595 49.027C178.188 49.4231 177.985 49.9476 177.985 50.6007V55.7875C177.985 56.4512 178.188 56.9811 178.595 57.3772C179.002 57.7733 179.543 57.9714 180.217 57.9714ZM192.753 58.9349C191.543 58.9349 190.585 58.6619 189.878 58.1159C189.182 57.5699 188.834 56.8419 188.834 55.932V55.4342C188.834 55.3271 188.888 55.2736 188.995 55.2736H189.782C189.889 55.2736 189.942 55.3271 189.942 55.4342V55.8677C189.942 56.4887 190.199 56.9918 190.713 57.3772C191.227 57.7519 191.939 57.9393 192.849 57.9393C193.673 57.9393 194.299 57.768 194.728 57.4254C195.156 57.0721 195.37 56.6064 195.37 56.0283C195.37 55.6536 195.268 55.3325 195.065 55.0648C194.872 54.7972 194.567 54.5456 194.15 54.3101C193.743 54.0746 193.165 53.8016 192.415 53.4911C191.612 53.17 190.986 52.8916 190.536 52.6561C190.098 52.4099 189.739 52.0994 189.461 51.7247C189.193 51.3393 189.059 50.8576 189.059 50.2795C189.059 49.3802 189.37 48.6844 189.99 48.1919C190.622 47.6888 191.484 47.4372 192.576 47.4372C193.764 47.4372 194.701 47.7155 195.386 48.2722C196.071 48.8289 196.414 49.5676 196.414 50.4883V50.8415C196.414 50.9486 196.36 51.0021 196.253 51.0021H195.45C195.343 51.0021 195.29 50.9486 195.29 50.8415V50.5525C195.29 49.9316 195.043 49.4231 194.551 49.027C194.069 48.6309 193.395 48.4328 192.528 48.4328C191.768 48.4328 191.184 48.588 190.777 48.8985C190.371 49.209 190.167 49.6586 190.167 50.2474C190.167 50.6328 190.263 50.9539 190.456 51.2109C190.66 51.4571 190.943 51.6766 191.307 51.8693C191.682 52.0513 192.255 52.2921 193.025 52.5919C193.807 52.913 194.433 53.2128 194.904 53.4911C195.386 53.7695 195.771 54.1121 196.06 54.5189C196.36 54.915 196.51 55.4021 196.51 55.9802C196.51 56.8794 196.178 57.5967 195.515 58.132C194.851 58.6672 193.93 58.9349 192.753 58.9349ZM206.177 47.6781C206.23 47.6031 206.295 47.5657 206.37 47.5657H207.205C207.312 47.5657 207.365 47.6192 207.365 47.7263V58.6458C207.365 58.7529 207.312 58.8064 207.205 58.8064H206.386C206.279 58.8064 206.225 58.7529 206.225 58.6458V49.7175C206.225 49.6853 206.214 49.6639 206.193 49.6532C206.172 49.6425 206.155 49.6532 206.145 49.6853L203.527 53.6999C203.474 53.7748 203.41 53.8123 203.335 53.8123H202.917C202.842 53.8123 202.778 53.7802 202.724 53.716L200.107 49.7335C200.096 49.7014 200.08 49.6907 200.059 49.7014C200.037 49.7121 200.027 49.7335 200.027 49.7656V58.6458C200.027 58.7529 199.973 58.8064 199.866 58.8064H199.047C198.94 58.8064 198.886 58.7529 198.886 58.6458V47.7263C198.886 47.6192 198.94 47.5657 199.047 47.5657H199.882C199.968 47.5657 200.032 47.5978 200.075 47.662L203.094 52.2386C203.104 52.2493 203.12 52.2547 203.142 52.2547C203.163 52.2547 203.179 52.2493 203.19 52.2386L206.177 47.6781ZM213.609 58.9349C212.4 58.9349 211.441 58.6619 210.735 58.1159C210.039 57.5699 209.691 56.8419 209.691 55.932V55.4342C209.691 55.3271 209.745 55.2736 209.852 55.2736H210.639C210.746 55.2736 210.799 55.3271 210.799 55.4342V55.8677C210.799 56.4887 211.056 56.9918 211.57 57.3772C212.084 57.7519 212.796 57.9393 213.706 57.9393C214.53 57.9393 215.156 57.768 215.584 57.4254C216.013 57.0721 216.227 56.6064 216.227 56.0283C216.227 55.6536 216.125 55.3325 215.922 55.0648C215.729 54.7972 215.424 54.5456 215.006 54.3101C214.6 54.0746 214.021 53.8016 213.272 53.4911C212.469 53.17 211.843 52.8916 211.393 52.6561C210.954 52.4099 210.596 52.0994 210.317 51.7247C210.05 51.3393 209.916 50.8576 209.916 50.2795C209.916 49.3802 210.226 48.6844 210.847 48.1919C211.479 47.6888 212.341 47.4372 213.433 47.4372C214.621 47.4372 215.558 47.7155 216.243 48.2722C216.928 48.8289 217.271 49.5676 217.271 50.4883V50.8415C217.271 50.9486 217.217 51.0021 217.11 51.0021H216.307C216.2 51.0021 216.147 50.9486 216.147 50.8415V50.5525C216.147 49.9316 215.9 49.4231 215.408 49.027C214.926 48.6309 214.252 48.4328 213.385 48.4328C212.624 48.4328 212.041 48.588 211.634 48.8985C211.227 49.209 211.024 49.6586 211.024 50.2474C211.024 50.6328 211.12 50.9539 211.313 51.2109C211.516 51.4571 211.8 51.6766 212.164 51.8693C212.539 52.0513 213.112 52.2921 213.882 52.5919C214.664 52.913 215.29 53.2128 215.761 53.4911C216.243 53.7695 216.628 54.1121 216.917 54.5189C217.217 54.915 217.367 55.4021 217.367 55.9802C217.367 56.8794 217.035 57.5967 216.371 58.132C215.708 58.6672 214.787 58.9349 213.609 58.9349ZM222.894 58.8064C222.787 58.8064 222.733 58.7529 222.733 58.6458V47.7263C222.733 47.6192 222.787 47.5657 222.894 47.5657H223.713C223.82 47.5657 223.873 47.6192 223.873 47.7263V58.6458C223.873 58.7529 223.82 58.8064 223.713 58.8064H222.894ZM227.205 49.2036C226.948 49.2036 226.734 49.118 226.563 48.9467C226.391 48.7754 226.306 48.5613 226.306 48.3043C226.306 48.0367 226.391 47.8226 226.563 47.662C226.734 47.4907 226.948 47.4051 227.205 47.4051C227.462 47.4051 227.676 47.4907 227.847 47.662C228.019 47.8226 228.104 48.0367 228.104 48.3043C228.104 48.5613 228.019 48.7754 227.847 48.9467C227.676 49.118 227.462 49.2036 227.205 49.2036ZM226.755 58.7903C226.648 58.7903 226.595 58.7368 226.595 58.6298V50.8255C226.595 50.7184 226.648 50.6649 226.755 50.6649H227.574C227.681 50.6649 227.735 50.7184 227.735 50.8255V58.6298C227.735 58.7368 227.681 58.7903 227.574 58.7903H226.755ZM238.749 50.5685C239.552 50.5685 240.183 50.8094 240.644 51.2912C241.115 51.7729 241.35 52.4313 241.35 53.2663V58.6458C241.35 58.7529 241.297 58.8064 241.19 58.8064H240.387C240.28 58.8064 240.226 58.7529 240.226 58.6458V53.4911C240.226 52.9023 240.055 52.4367 239.712 52.0941C239.381 51.7408 238.942 51.5642 238.396 51.5642C237.828 51.5642 237.368 51.7354 237.015 52.078C236.672 52.4206 236.501 52.8809 236.501 53.459V58.6458C236.501 58.7529 236.447 58.8064 236.34 58.8064H235.521C235.414 58.8064 235.361 58.7529 235.361 58.6458V53.4911C235.361 52.9023 235.195 52.4367 234.863 52.0941C234.531 51.7408 234.087 51.5642 233.53 51.5642C232.963 51.5642 232.508 51.7354 232.165 52.078C231.833 52.4206 231.667 52.8809 231.667 53.459V58.6458C231.667 58.7529 231.614 58.8064 231.507 58.8064H230.688C230.581 58.8064 230.527 58.7529 230.527 58.6458V50.8415C230.527 50.7345 230.581 50.681 230.688 50.681H231.507C231.614 50.681 231.667 50.7345 231.667 50.8415V51.4839C231.667 51.5053 231.673 51.5213 231.683 51.532C231.705 51.532 231.726 51.5213 231.748 51.4999C231.983 51.1895 232.283 50.9593 232.647 50.8094C233.021 50.6488 233.434 50.5685 233.883 50.5685C234.44 50.5685 234.916 50.681 235.312 50.9058C235.709 51.1306 236.008 51.4571 236.212 51.8853C236.233 51.9388 236.26 51.9388 236.292 51.8853C236.528 51.4464 236.859 51.1199 237.288 50.9058C237.716 50.681 238.203 50.5685 238.749 50.5685ZM244.58 49.2036C244.323 49.2036 244.109 49.118 243.938 48.9467C243.767 48.7754 243.681 48.5613 243.681 48.3043C243.681 48.0367 243.767 47.8226 243.938 47.662C244.109 47.4907 244.323 47.4051 244.58 47.4051C244.837 47.4051 245.051 47.4907 245.223 47.662C245.394 47.8226 245.48 48.0367 245.48 48.3043C245.48 48.5613 245.394 48.7754 245.223 48.9467C245.051 49.118 244.837 49.2036 244.58 49.2036ZM244.131 58.7903C244.024 58.7903 243.97 58.7368 243.97 58.6298V50.8255C243.97 50.7184 244.024 50.6649 244.131 50.6649H244.95C245.057 50.6649 245.11 50.7184 245.11 50.8255V58.6298C245.11 58.7368 245.057 58.7903 244.95 58.7903H244.131ZM251.548 51.4678C251.548 51.5749 251.494 51.6284 251.387 51.6284H249.573C249.53 51.6284 249.508 51.6498 249.508 51.6926V56.4298C249.508 56.9436 249.621 57.3076 249.846 57.5217C250.081 57.7251 250.445 57.8268 250.938 57.8268H251.339C251.446 57.8268 251.5 57.8804 251.5 57.9874V58.6458C251.5 58.7529 251.446 58.8064 251.339 58.8064C251.211 58.8171 251.013 58.8225 250.745 58.8225C249.974 58.8225 249.391 58.6779 248.995 58.3889C248.598 58.0998 248.4 57.5646 248.4 56.7831V51.6926C248.4 51.6498 248.379 51.6284 248.336 51.6284H247.357C247.25 51.6284 247.196 51.5749 247.196 51.4678V50.8415C247.196 50.7345 247.25 50.681 247.357 50.681H248.336C248.379 50.681 248.4 50.6595 248.4 50.6167V48.754C248.4 48.6469 248.454 48.5934 248.561 48.5934H249.348C249.455 48.5934 249.508 48.6469 249.508 48.754V50.6167C249.508 50.6595 249.53 50.681 249.573 50.681H251.387C251.494 50.681 251.548 50.7345 251.548 50.8415V51.4678ZM253.126 58.8064C253.008 58.8064 252.965 58.7475 252.997 58.6298L256.546 47.6941C256.578 47.6085 256.642 47.5657 256.739 47.5657H257.542C257.659 47.5657 257.702 47.6245 257.67 47.7423L254.121 58.6779C254.089 58.7636 254.025 58.8064 253.929 58.8064H253.126ZM264.157 47.7263C264.157 47.6192 264.211 47.5657 264.318 47.5657H265.137C265.244 47.5657 265.297 47.6192 265.297 47.7263V58.6458C265.297 58.7529 265.244 58.8064 265.137 58.8064H264.318C264.211 58.8064 264.157 58.7529 264.157 58.6458V57.9714C264.157 57.95 264.147 57.9393 264.125 57.9393C264.115 57.9285 264.098 57.9339 264.077 57.9553C263.842 58.2658 263.547 58.5066 263.194 58.6779C262.851 58.8492 262.466 58.9349 262.038 58.9349C261.288 58.9349 260.657 58.7422 260.143 58.3568C259.64 57.9714 259.292 57.4468 259.099 56.7831C258.949 56.3013 258.874 55.6215 258.874 54.7437C258.874 53.8551 258.938 53.1914 259.067 52.7525C259.26 52.0673 259.613 51.532 260.127 51.1466C260.641 50.7505 261.278 50.5525 262.038 50.5525C262.455 50.5525 262.841 50.6381 263.194 50.8094C263.547 50.97 263.842 51.2055 264.077 51.516C264.098 51.5374 264.115 51.5481 264.125 51.5481C264.147 51.5374 264.157 51.5213 264.157 51.4999V47.7263ZM263.868 56.7028C263.965 56.4887 264.034 56.2371 264.077 55.948C264.12 55.659 264.141 55.2575 264.141 54.7437C264.141 54.2298 264.12 53.8284 264.077 53.5393C264.034 53.2396 263.959 52.9773 263.852 52.7525C263.724 52.3885 263.51 52.0994 263.21 51.8853C262.921 51.6605 262.573 51.5481 262.166 51.5481C261.738 51.5481 261.369 51.6552 261.058 51.8693C260.748 52.0834 260.523 52.3671 260.384 52.7203C260.255 52.9559 260.159 53.2235 260.095 53.5233C260.041 53.8123 260.014 54.2191 260.014 54.7437C260.014 55.2468 260.036 55.6429 260.079 55.932C260.121 56.2103 260.196 56.4619 260.303 56.6867C260.432 57.0721 260.657 57.3772 260.978 57.602C261.31 57.8268 261.7 57.9393 262.15 57.9393C262.578 57.9393 262.937 57.8268 263.226 57.602C263.515 57.3772 263.729 57.0775 263.868 56.7028ZM270.691 50.5525C271.655 50.5525 272.399 50.7987 272.923 51.2912C273.448 51.7836 273.71 52.4367 273.71 53.2503V58.6458C273.71 58.7529 273.657 58.8064 273.55 58.8064H272.731C272.624 58.8064 272.57 58.7529 272.57 58.6458V57.9874C272.57 57.966 272.559 57.95 272.538 57.9393C272.527 57.9285 272.511 57.9339 272.49 57.9553C272.222 58.2765 271.874 58.5227 271.446 58.694C271.018 58.8546 270.542 58.9349 270.017 58.9349C269.257 58.9349 268.62 58.7422 268.106 58.3568C267.592 57.9714 267.335 57.3826 267.335 56.5904C267.335 55.7875 267.624 55.1558 268.202 54.6955C268.791 54.2245 269.605 53.9889 270.643 53.9889H272.506C272.549 53.9889 272.57 53.9675 272.57 53.9247V53.3145C272.57 52.7685 272.415 52.3403 272.105 52.0298C271.805 51.7087 271.334 51.5481 270.691 51.5481C270.178 51.5481 269.76 51.6498 269.439 51.8532C269.118 52.0459 268.92 52.3189 268.845 52.6722C268.813 52.7792 268.748 52.8274 268.652 52.8167L267.785 52.7043C267.667 52.6829 267.619 52.6401 267.64 52.5758C267.726 51.9763 268.047 51.4892 268.604 51.1145C269.161 50.7398 269.856 50.5525 270.691 50.5525ZM270.242 57.9553C270.873 57.9553 271.419 57.8001 271.88 57.4896C272.34 57.1685 272.57 56.7402 272.57 56.205V54.9524C272.57 54.9096 272.549 54.8882 272.506 54.8882H270.82C270.113 54.8882 269.546 55.0327 269.118 55.3218C268.689 55.6108 268.475 56.0123 268.475 56.5261C268.475 56.9972 268.636 57.3558 268.957 57.602C269.289 57.8376 269.717 57.9553 270.242 57.9553ZM275.619 62.018C275.544 62.018 275.507 61.9645 275.507 61.8575V61.2151C275.507 61.1081 275.56 61.0545 275.668 61.0545H275.732C276.149 61.0438 276.47 60.9796 276.695 60.8618C276.931 60.7548 277.129 60.546 277.289 60.2356C277.461 59.9358 277.643 59.4755 277.835 58.8546C277.857 58.8117 277.857 58.7796 277.835 58.7582L275.122 50.8576L275.106 50.7934C275.106 50.7184 275.154 50.681 275.25 50.681H276.101C276.197 50.681 276.262 50.7238 276.294 50.8094L278.381 57.2969C278.392 57.3183 278.408 57.329 278.43 57.329C278.451 57.329 278.467 57.3183 278.478 57.2969L280.533 50.8094C280.565 50.7238 280.63 50.681 280.726 50.681H281.561C281.679 50.681 281.721 50.7398 281.689 50.8576L278.719 59.513C278.462 60.2302 278.221 60.7601 277.996 61.1027C277.771 61.4453 277.487 61.6808 277.145 61.8093C276.813 61.9484 276.342 62.018 275.732 62.018H275.619ZM153.897 68.5657C154.004 68.5657 154.058 68.6192 154.058 68.7263V69.4168C154.058 69.5238 154.004 69.5773 153.897 69.5773H150.75C150.707 69.5773 150.686 69.5987 150.686 69.6416V79.6458C150.686 79.7529 150.632 79.8064 150.525 79.8064H149.706C149.599 79.8064 149.546 79.7529 149.546 79.6458V69.6416C149.546 69.5987 149.524 69.5773 149.481 69.5773H146.462C146.355 69.5773 146.302 69.5238 146.302 69.4168V68.7263C146.302 68.6192 146.355 68.5657 146.462 68.5657H153.897ZM157.16 79.8064C157.074 79.8064 157.016 79.7636 156.983 79.6779L154.703 71.8576L154.687 71.8094C154.687 71.7238 154.741 71.681 154.848 71.681H155.683C155.779 71.681 155.838 71.7291 155.859 71.8255L157.562 78.1524C157.572 78.1738 157.583 78.1845 157.594 78.1845C157.615 78.1845 157.631 78.1738 157.642 78.1524L159.376 71.8255C159.397 71.7291 159.456 71.681 159.553 71.681H160.324C160.42 71.681 160.479 71.7238 160.5 71.8094L162.25 78.1363C162.261 78.1578 162.277 78.1685 162.299 78.1685C162.32 78.1685 162.336 78.1578 162.347 78.1363L164.097 71.8255C164.119 71.7291 164.177 71.681 164.274 71.681L165.109 71.697C165.162 71.697 165.2 71.7131 165.221 71.7452C165.253 71.7773 165.264 71.8201 165.253 71.8737L162.941 79.6779C162.909 79.7636 162.85 79.8064 162.764 79.8064H161.913C161.828 79.8064 161.769 79.7636 161.737 79.6779L159.986 73.6722C159.976 73.6508 159.96 73.6401 159.938 73.6401C159.927 73.6401 159.917 73.6508 159.906 73.6722L158.204 79.6779C158.172 79.7636 158.113 79.8064 158.027 79.8064H157.16ZM167.818 70.2036C167.561 70.2036 167.347 70.118 167.176 69.9467C167.004 69.7754 166.919 69.5613 166.919 69.3043C166.919 69.0367 167.004 68.8226 167.176 68.662C167.347 68.4907 167.561 68.4051 167.818 68.4051C168.075 68.4051 168.289 68.4907 168.46 68.662C168.632 68.8226 168.717 69.0367 168.717 69.3043C168.717 69.5613 168.632 69.7754 168.46 69.9467C168.289 70.118 168.075 70.2036 167.818 70.2036ZM167.368 79.7903C167.261 79.7903 167.208 79.7368 167.208 79.6298V71.8255C167.208 71.7184 167.261 71.6649 167.368 71.6649H168.187C168.294 71.6649 168.348 71.7184 168.348 71.8255V79.6298C168.348 79.7368 168.294 79.7903 168.187 79.7903H167.368ZM171.301 79.8064C171.194 79.8064 171.14 79.7529 171.14 79.6458V68.7263C171.14 68.6192 171.194 68.5657 171.301 68.5657H172.12C172.227 68.5657 172.28 68.6192 172.28 68.7263V79.6458C172.28 79.7529 172.227 79.8064 172.12 79.8064H171.301ZM175.612 70.2036C175.355 70.2036 175.141 70.118 174.969 69.9467C174.798 69.7754 174.713 69.5613 174.713 69.3043C174.713 69.0367 174.798 68.8226 174.969 68.662C175.141 68.4907 175.355 68.4051 175.612 68.4051C175.869 68.4051 176.083 68.4907 176.254 68.662C176.425 68.8226 176.511 69.0367 176.511 69.3043C176.511 69.5613 176.425 69.7754 176.254 69.9467C176.083 70.118 175.869 70.2036 175.612 70.2036ZM175.162 79.7903C175.055 79.7903 175.002 79.7368 175.002 79.6298V71.8255C175.002 71.7184 175.055 71.6649 175.162 71.6649H175.981C176.088 71.6649 176.142 71.7184 176.142 71.8255V79.6298C176.142 79.7368 176.088 79.7903 175.981 79.7903H175.162ZM182.033 79.9349C181.262 79.9349 180.599 79.7368 180.042 79.3407C179.485 78.9446 179.1 78.3986 178.886 77.7028C178.736 77.2103 178.661 76.5519 178.661 75.7276C178.661 74.9033 178.736 74.2503 178.886 73.7685C179.089 73.0834 179.469 72.5427 180.026 72.1466C180.583 71.7505 181.257 71.5525 182.049 71.5525C182.809 71.5525 183.462 71.7505 184.008 72.1466C184.565 72.5427 184.945 73.078 185.148 73.7525C185.298 74.2128 185.373 74.8712 185.373 75.7276C185.373 76.5948 185.298 77.2531 185.148 77.7028C184.945 78.3986 184.565 78.9446 184.008 79.3407C183.462 79.7368 182.804 79.9349 182.033 79.9349ZM182.033 78.9393C182.547 78.9393 182.986 78.8001 183.35 78.5217C183.714 78.2327 183.96 77.8473 184.089 77.3656C184.185 76.9802 184.233 76.4395 184.233 75.7437C184.233 75.0371 184.19 74.4965 184.105 74.1218C183.976 73.6401 183.725 73.26 183.35 72.9817C182.986 72.6926 182.542 72.5481 182.017 72.5481C181.493 72.5481 181.048 72.6926 180.684 72.9817C180.32 73.26 180.074 73.6401 179.946 74.1218C179.86 74.4965 179.817 75.0371 179.817 75.7437C179.817 76.4502 179.86 76.9909 179.946 77.3656C180.063 77.8473 180.304 78.2327 180.668 78.5217C181.043 78.8001 181.498 78.9393 182.033 78.9393ZM187.011 79.8064C186.893 79.8064 186.85 79.7475 186.883 79.6298L190.431 68.6941C190.464 68.6085 190.528 68.5657 190.624 68.5657H191.427C191.545 68.5657 191.588 68.6245 191.556 68.7423L188.007 79.6779C187.975 79.7636 187.91 79.8064 187.814 79.8064H187.011ZM198.563 68.5496C199.505 68.5496 200.26 68.8387 200.827 69.4168C201.405 69.9948 201.695 70.7549 201.695 71.697C201.695 72.6284 201.4 73.3778 200.811 73.9452C200.233 74.5125 199.468 74.7962 198.515 74.7962H195.384C195.341 74.7962 195.319 74.8177 195.319 74.8605V79.6458C195.319 79.7529 195.266 79.8064 195.159 79.8064H194.34C194.233 79.8064 194.179 79.7529 194.179 79.6458V68.7102C194.179 68.6031 194.233 68.5496 194.34 68.5496H198.563ZM198.435 73.8488C199.066 73.8488 199.58 73.6561 199.976 73.2707C200.372 72.8746 200.57 72.3554 200.57 71.7131C200.57 71.06 200.372 70.5355 199.976 70.1394C199.58 69.7433 199.066 69.5452 198.435 69.5452H195.384C195.341 69.5452 195.319 69.5666 195.319 69.6095V73.7846C195.319 73.8274 195.341 73.8488 195.384 73.8488H198.435ZM203.731 79.8064C203.624 79.8064 203.57 79.7529 203.57 79.6458V68.7263C203.57 68.6192 203.624 68.5657 203.731 68.5657H204.55C204.657 68.5657 204.71 68.6192 204.71 68.7263V79.6458C204.71 79.7529 204.657 79.8064 204.55 79.8064H203.731ZM208.042 70.2036C207.785 70.2036 207.571 70.118 207.399 69.9467C207.228 69.7754 207.143 69.5613 207.143 69.3043C207.143 69.0367 207.228 68.8226 207.399 68.662C207.571 68.4907 207.785 68.4051 208.042 68.4051C208.299 68.4051 208.513 68.4907 208.684 68.662C208.855 68.8226 208.941 69.0367 208.941 69.3043C208.941 69.5613 208.855 69.7754 208.684 69.9467C208.513 70.118 208.299 70.2036 208.042 70.2036ZM207.592 79.7903C207.485 79.7903 207.432 79.7368 207.432 79.6298V71.8255C207.432 71.7184 207.485 71.6649 207.592 71.6649H208.411C208.518 71.6649 208.572 71.7184 208.572 71.8255V79.6298C208.572 79.7368 208.518 79.7903 208.411 79.7903H207.592ZM213.435 79.8064C213.339 79.8064 213.275 79.7636 213.243 79.6779L210.609 71.8576L210.593 71.7934C210.593 71.7184 210.641 71.681 210.738 71.681H211.653C211.749 71.681 211.814 71.7238 211.846 71.8094L213.853 78.1042C213.864 78.1256 213.88 78.1363 213.901 78.1363C213.923 78.1363 213.939 78.1256 213.949 78.1042L215.957 71.8094C215.989 71.7238 216.053 71.681 216.149 71.681L217.065 71.697C217.182 71.697 217.225 71.7559 217.193 71.8737L214.56 79.6779C214.527 79.7636 214.463 79.8064 214.367 79.8064H213.435ZM221.818 79.9349C221.047 79.9349 220.383 79.7368 219.827 79.3407C219.27 78.9446 218.885 78.3986 218.671 77.7028C218.521 77.2103 218.446 76.5519 218.446 75.7276C218.446 74.9033 218.521 74.2503 218.671 73.7685C218.874 73.0834 219.254 72.5427 219.811 72.1466C220.367 71.7505 221.042 71.5525 221.834 71.5525C222.594 71.5525 223.247 71.7505 223.793 72.1466C224.35 72.5427 224.73 73.078 224.933 73.7525C225.083 74.2128 225.158 74.8712 225.158 75.7276C225.158 76.5948 225.083 77.2531 224.933 77.7028C224.73 78.3986 224.35 78.9446 223.793 79.3407C223.247 79.7368 222.589 79.9349 221.818 79.9349ZM221.818 78.9393C222.332 78.9393 222.771 78.8001 223.135 78.5217C223.499 78.2327 223.745 77.8473 223.873 77.3656C223.97 76.9802 224.018 76.4395 224.018 75.7437C224.018 75.0371 223.975 74.4965 223.889 74.1218C223.761 73.6401 223.509 73.26 223.135 72.9817C222.771 72.6926 222.326 72.5481 221.802 72.5481C221.277 72.5481 220.833 72.6926 220.469 72.9817C220.105 73.26 219.859 73.6401 219.73 74.1218C219.645 74.4965 219.602 75.0371 219.602 75.7437C219.602 76.4502 219.645 76.9909 219.73 77.3656C219.848 77.8473 220.089 78.2327 220.453 78.5217C220.828 78.8001 221.283 78.9393 221.818 78.9393ZM231.069 79.8064C230.962 79.8064 230.909 79.7529 230.909 79.6458V68.7263C230.909 68.6192 230.962 68.5657 231.069 68.5657H231.888C231.995 68.5657 232.049 68.6192 232.049 68.7263V79.6458C232.049 79.7529 231.995 79.8064 231.888 79.8064H231.069ZM238.212 71.5685C239.068 71.5685 239.748 71.8201 240.251 72.3233C240.765 72.8264 241.022 73.5009 241.022 74.3466V79.6458C241.022 79.7529 240.968 79.8064 240.861 79.8064H240.042C239.935 79.8064 239.882 79.7529 239.882 79.6458V74.5714C239.882 73.9826 239.7 73.5009 239.336 73.1262C238.983 72.7515 238.522 72.5642 237.955 72.5642C237.366 72.5642 236.89 72.7461 236.526 73.1101C236.162 73.4741 235.98 73.9505 235.98 74.5393V79.6458C235.98 79.7529 235.926 79.8064 235.819 79.8064H235C234.893 79.8064 234.84 79.7529 234.84 79.6458V71.8415C234.84 71.7345 234.893 71.681 235 71.681H235.819C235.926 71.681 235.98 71.7345 235.98 71.8415V72.532C235.98 72.5535 235.985 72.5695 235.996 72.5802C236.017 72.5909 236.033 72.5856 236.044 72.5642C236.515 71.9004 237.238 71.5685 238.212 71.5685ZM247.141 72.4678C247.141 72.5749 247.088 72.6284 246.981 72.6284H245.166C245.123 72.6284 245.102 72.6498 245.102 72.6926V77.4298C245.102 77.9436 245.214 78.3076 245.439 78.5217C245.675 78.7251 246.039 78.8268 246.531 78.8268H246.932C247.039 78.8268 247.093 78.8804 247.093 78.9874V79.6458C247.093 79.7529 247.039 79.8064 246.932 79.8064C246.804 79.8171 246.606 79.8225 246.338 79.8225C245.567 79.8225 244.984 79.6779 244.588 79.3889C244.192 79.0998 243.994 78.5646 243.994 77.7831V72.6926C243.994 72.6498 243.972 72.6284 243.93 72.6284H242.95C242.843 72.6284 242.789 72.5749 242.789 72.4678V71.8415C242.789 71.7345 242.843 71.681 242.95 71.681H243.93C243.972 71.681 243.994 71.6595 243.994 71.6167V69.754C243.994 69.6469 244.047 69.5934 244.154 69.5934H244.941C245.048 69.5934 245.102 69.6469 245.102 69.754V71.6167C245.102 71.6595 245.123 71.681 245.166 71.681H246.981C247.088 71.681 247.141 71.7345 247.141 71.8415V72.4678ZM255.341 74.3787C255.383 74.6785 255.405 75.0532 255.405 75.5028V76.0167C255.405 76.1237 255.351 76.1772 255.244 76.1772H250.058C250.015 76.1772 249.993 76.1987 249.993 76.2415C250.015 76.8303 250.047 77.2103 250.09 77.3816C250.207 77.8634 250.459 78.2434 250.844 78.5217C251.23 78.8001 251.722 78.9393 252.322 78.9393C252.771 78.9393 253.167 78.8376 253.51 78.6341C253.853 78.4307 254.12 78.1417 254.313 77.767C254.377 77.6707 254.452 77.6492 254.538 77.7028L255.164 78.0721C255.25 78.1256 255.271 78.2006 255.228 78.2969C254.961 78.8108 254.559 79.2176 254.024 79.5173C253.489 79.8064 252.873 79.9509 252.177 79.9509C251.417 79.9402 250.78 79.7582 250.266 79.4049C249.752 79.0517 249.383 78.5592 249.158 77.9276C248.966 77.4137 248.869 76.6751 248.869 75.7116C248.869 75.2619 248.875 74.8979 248.885 74.6196C248.907 74.3306 248.949 74.0736 249.014 73.8488C249.196 73.153 249.56 72.5963 250.106 72.1788C250.662 71.7612 251.331 71.5525 252.113 71.5525C253.087 71.5525 253.837 71.7987 254.361 72.2912C254.886 72.7836 255.212 73.4795 255.341 74.3787ZM252.113 72.5481C251.588 72.5481 251.149 72.6873 250.796 72.9656C250.454 73.2332 250.229 73.5972 250.122 74.0576C250.058 74.2824 250.015 74.6464 249.993 75.1495C249.993 75.1923 250.015 75.2138 250.058 75.2138H254.217C254.259 75.2138 254.281 75.1923 254.281 75.1495C254.259 74.6678 254.227 74.3252 254.184 74.1218C254.067 73.6401 253.826 73.26 253.462 72.9817C253.109 72.6926 252.659 72.5481 252.113 72.5481ZM262.683 71.8415C262.683 71.7345 262.736 71.681 262.843 71.681H263.662C263.769 71.681 263.823 71.7345 263.823 71.8415V79.5334C263.823 80.7324 263.475 81.6103 262.779 82.1669C262.094 82.7236 261.146 83.002 259.937 83.002C259.69 83.002 259.503 82.9966 259.375 82.9859C259.267 82.9752 259.214 82.9163 259.214 82.8093L259.246 82.0706C259.246 82.0171 259.262 81.9743 259.294 81.9421C259.326 81.9207 259.364 81.9154 259.407 81.9261L259.84 81.9421C260.836 81.9421 261.558 81.7441 262.008 81.348C262.458 80.9626 262.683 80.347 262.683 79.5013V78.9071C262.683 78.8857 262.672 78.875 262.65 78.875C262.64 78.8643 262.624 78.8697 262.602 78.8911C262.11 79.5334 261.409 79.8546 260.499 79.8546C259.803 79.8546 259.182 79.6672 258.636 79.2925C258.101 78.9178 257.742 78.3879 257.56 77.7028C257.431 77.2639 257.367 76.6108 257.367 75.7437C257.367 75.2726 257.378 74.8765 257.399 74.5554C257.431 74.2342 257.49 73.9452 257.576 73.6882C257.769 73.0459 258.117 72.532 258.62 72.1466C259.123 71.7505 259.728 71.5525 260.434 71.5525C261.387 71.5525 262.11 71.8683 262.602 72.4999C262.624 72.5213 262.64 72.5267 262.65 72.516C262.672 72.5053 262.683 72.4892 262.683 72.4678V71.8415ZM262.602 77.3495C262.634 77.1889 262.656 76.9909 262.666 76.7553C262.677 76.5198 262.683 76.1772 262.683 75.7276C262.683 75.1816 262.677 74.8177 262.666 74.6357C262.656 74.443 262.629 74.2663 262.586 74.1057C262.501 73.6561 262.286 73.2868 261.944 72.9977C261.612 72.698 261.189 72.5481 260.675 72.5481C260.172 72.5481 259.744 72.6926 259.391 72.9817C259.048 73.2707 258.807 73.6454 258.668 74.1057C258.561 74.4483 258.507 74.9836 258.507 75.7116C258.507 76.4931 258.561 77.0337 258.668 77.3334C258.775 77.7831 259.005 78.1578 259.358 78.4575C259.722 78.7466 260.161 78.8911 260.675 78.8911C261.2 78.8911 261.628 78.7466 261.96 78.4575C262.302 78.1685 262.517 77.7991 262.602 77.3495ZM269.542 71.6007C269.895 71.6007 270.2 71.6703 270.457 71.8094C270.543 71.8522 270.575 71.9218 270.554 72.0182L270.377 72.805C270.345 72.9121 270.275 72.9442 270.168 72.9014C269.986 72.8264 269.777 72.789 269.542 72.789L269.333 72.805C268.776 72.8264 268.316 73.0352 267.952 73.4313C267.588 73.8167 267.406 74.3091 267.406 74.9087V79.6458C267.406 79.7529 267.353 79.8064 267.246 79.8064H266.427C266.32 79.8064 266.266 79.7529 266.266 79.6458V71.8415C266.266 71.7345 266.32 71.681 266.427 71.681H267.246C267.353 71.681 267.406 71.7345 267.406 71.8415V72.8211C267.406 72.8532 267.411 72.8746 267.422 72.8853C267.444 72.8853 267.46 72.8746 267.47 72.8532C267.695 72.4571 267.979 72.152 268.321 71.9379C268.675 71.7131 269.082 71.6007 269.542 71.6007ZM274.894 71.5525C275.858 71.5525 276.602 71.7987 277.126 72.2912C277.651 72.7836 277.913 73.4367 277.913 74.2503V79.6458C277.913 79.7529 277.86 79.8064 277.752 79.8064H276.934C276.826 79.8064 276.773 79.7529 276.773 79.6458V78.9874C276.773 78.966 276.762 78.95 276.741 78.9393C276.73 78.9285 276.714 78.9339 276.693 78.9553C276.425 79.2765 276.077 79.5227 275.649 79.694C275.221 79.8546 274.744 79.9349 274.22 79.9349C273.46 79.9349 272.823 79.7422 272.309 79.3568C271.795 78.9714 271.538 78.3826 271.538 77.5904C271.538 76.7875 271.827 76.1558 272.405 75.6955C272.994 75.2245 273.808 74.9889 274.846 74.9889H276.709C276.752 74.9889 276.773 74.9675 276.773 74.9247V74.3145C276.773 73.7685 276.618 73.3403 276.307 73.0298C276.007 72.7087 275.536 72.5481 274.894 72.5481C274.38 72.5481 273.963 72.6498 273.642 72.8532C273.32 73.0459 273.122 73.3189 273.047 73.6722C273.015 73.7792 272.951 73.8274 272.855 73.8167L271.988 73.7043C271.87 73.6829 271.822 73.6401 271.843 73.5758C271.929 72.9763 272.25 72.4892 272.807 72.1145C273.363 71.7398 274.059 71.5525 274.894 71.5525ZM274.444 78.9553C275.076 78.9553 275.622 78.8001 276.082 78.4896C276.543 78.1685 276.773 77.7402 276.773 77.205V75.9524C276.773 75.9096 276.752 75.8882 276.709 75.8882H275.023C274.316 75.8882 273.749 76.0327 273.32 76.3218C272.892 76.6108 272.678 77.0123 272.678 77.5261C272.678 77.9972 272.839 78.3558 273.16 78.602C273.492 78.8376 273.92 78.9553 274.444 78.9553ZM283.868 72.4678C283.868 72.5749 283.814 72.6284 283.707 72.6284H281.893C281.85 72.6284 281.829 72.6498 281.829 72.6926V77.4298C281.829 77.9436 281.941 78.3076 282.166 78.5217C282.401 78.7251 282.765 78.8268 283.258 78.8268H283.659C283.766 78.8268 283.82 78.8804 283.82 78.9874V79.6458C283.82 79.7529 283.766 79.8064 283.659 79.8064C283.531 79.8171 283.333 79.8225 283.065 79.8225C282.294 79.8225 281.711 79.6779 281.315 79.3889C280.919 79.0998 280.721 78.5646 280.721 77.7831V72.6926C280.721 72.6498 280.699 72.6284 280.656 72.6284H279.677C279.57 72.6284 279.516 72.5749 279.516 72.4678V71.8415C279.516 71.7345 279.57 71.681 279.677 71.681H280.656C280.699 71.681 280.721 71.6595 280.721 71.6167V69.754C280.721 69.6469 280.774 69.5934 280.881 69.5934H281.668C281.775 69.5934 281.829 69.6469 281.829 69.754V71.6167C281.829 71.6595 281.85 71.681 281.893 71.681H283.707C283.814 71.681 283.868 71.7345 283.868 71.8415V72.4678ZM286.843 70.2036C286.586 70.2036 286.372 70.118 286.201 69.9467C286.029 69.7754 285.944 69.5613 285.944 69.3043C285.944 69.0367 286.029 68.8226 286.201 68.662C286.372 68.4907 286.586 68.4051 286.843 68.4051C287.1 68.4051 287.314 68.4907 287.485 68.662C287.657 68.8226 287.742 69.0367 287.742 69.3043C287.742 69.5613 287.657 69.7754 287.485 69.9467C287.314 70.118 287.1 70.2036 286.843 70.2036ZM286.393 79.7903C286.286 79.7903 286.233 79.7368 286.233 79.6298V71.8255C286.233 71.7184 286.286 71.6649 286.393 71.6649H287.212C287.319 71.6649 287.373 71.7184 287.373 71.8255V79.6298C287.373 79.7368 287.319 79.7903 287.212 79.7903H286.393ZM293.264 79.9349C292.494 79.9349 291.83 79.7368 291.273 79.3407C290.716 78.9446 290.331 78.3986 290.117 77.7028C289.967 77.2103 289.892 76.5519 289.892 75.7276C289.892 74.9033 289.967 74.2503 290.117 73.7685C290.32 73.0834 290.7 72.5427 291.257 72.1466C291.814 71.7505 292.488 71.5525 293.28 71.5525C294.04 71.5525 294.693 71.7505 295.239 72.1466C295.796 72.5427 296.176 73.078 296.38 73.7525C296.529 74.2128 296.604 74.8712 296.604 75.7276C296.604 76.5948 296.529 77.2531 296.38 77.7028C296.176 78.3986 295.796 78.9446 295.239 79.3407C294.693 79.7368 294.035 79.9349 293.264 79.9349ZM293.264 78.9393C293.778 78.9393 294.217 78.8001 294.581 78.5217C294.945 78.2327 295.191 77.8473 295.32 77.3656C295.416 76.9802 295.464 76.4395 295.464 75.7437C295.464 75.0371 295.421 74.4965 295.336 74.1218C295.207 73.6401 294.956 73.26 294.581 72.9817C294.217 72.6926 293.773 72.5481 293.248 72.5481C292.724 72.5481 292.279 72.6926 291.915 72.9817C291.551 73.26 291.305 73.6401 291.177 74.1218C291.091 74.4965 291.048 75.0371 291.048 75.7437C291.048 76.4502 291.091 76.9909 291.177 77.3656C291.294 77.8473 291.535 78.2327 291.899 78.5217C292.274 78.8001 292.729 78.9393 293.264 78.9393ZM302.288 71.5685C303.144 71.5685 303.824 71.8201 304.327 72.3233C304.841 72.8264 305.098 73.5009 305.098 74.3466V79.6458C305.098 79.7529 305.044 79.8064 304.937 79.8064H304.118C304.011 79.8064 303.958 79.7529 303.958 79.6458V74.5714C303.958 73.9826 303.776 73.5009 303.412 73.1262C303.059 72.7515 302.598 72.5642 302.031 72.5642C301.442 72.5642 300.966 72.7461 300.602 73.1101C300.238 73.4741 300.056 73.9505 300.056 74.5393V79.6458C300.056 79.7529 300.002 79.8064 299.895 79.8064H299.076C298.969 79.8064 298.916 79.7529 298.916 79.6458V71.8415C298.916 71.7345 298.969 71.681 299.076 71.681H299.895C300.002 71.681 300.056 71.7345 300.056 71.8415V72.532C300.056 72.5535 300.061 72.5695 300.072 72.5802C300.093 72.5909 300.109 72.5856 300.12 72.5642C300.591 71.9004 301.314 71.5685 302.288 71.5685ZM153.673 99.8064C153.576 99.8064 153.512 99.7689 153.48 99.694L151.119 94.716C151.109 94.6838 151.087 94.6678 151.055 94.6678H148.325C148.282 94.6678 148.261 94.6892 148.261 94.732V99.6458C148.261 99.7529 148.207 99.8064 148.1 99.8064H147.281C147.174 99.8064 147.121 99.7529 147.121 99.6458V88.7263C147.121 88.6192 147.174 88.5657 147.281 88.5657H151.44C152.361 88.5657 153.105 88.8547 153.673 89.4328C154.24 90.0002 154.524 90.7442 154.524 91.6649C154.524 92.4143 154.32 93.0513 153.913 93.5758C153.507 94.1004 152.955 94.4376 152.259 94.5875C152.217 94.6089 152.206 94.6357 152.227 94.6678L154.636 99.6137C154.647 99.6351 154.652 99.6619 154.652 99.694C154.652 99.7689 154.609 99.8064 154.524 99.8064H153.673ZM148.325 89.5613C148.282 89.5613 148.261 89.5827 148.261 89.6255V93.6882C148.261 93.7311 148.282 93.7525 148.325 93.7525H151.312C151.933 93.7525 152.436 93.5598 152.821 93.1744C153.207 92.789 153.4 92.2858 153.4 91.6649C153.4 91.044 153.207 90.5408 152.821 90.1554C152.436 89.7593 151.933 89.5613 151.312 89.5613H148.325ZM164.228 89.4007C164.228 89.5077 164.174 89.5613 164.067 89.5613H158.158C158.115 89.5613 158.093 89.5827 158.093 89.6255V93.5919C158.093 93.6347 158.115 93.6561 158.158 93.6561H162.301C162.408 93.6561 162.461 93.7096 162.461 93.8167V94.4911C162.461 94.5982 162.408 94.6517 162.301 94.6517H158.158C158.115 94.6517 158.093 94.6731 158.093 94.716V98.7466C158.093 98.7894 158.115 98.8108 158.158 98.8108H164.067C164.174 98.8108 164.228 98.8643 164.228 98.9714V99.6458C164.228 99.7529 164.174 99.8064 164.067 99.8064H157.114C157.007 99.8064 156.953 99.7529 156.953 99.6458V88.7263C156.953 88.6192 157.007 88.5657 157.114 88.5657H164.067C164.174 88.5657 164.228 88.6192 164.228 88.7263V89.4007ZM169.791 88.4372C170.519 88.4372 171.162 88.5924 171.718 88.9029C172.286 89.2026 172.719 89.6255 173.019 90.1715C173.329 90.7175 173.485 91.3491 173.485 92.0664V96.3699C173.485 97.3334 173.206 98.131 172.65 98.7626C172.104 99.3942 171.365 99.7743 170.434 99.9027C170.391 99.9027 170.369 99.9242 170.369 99.967V101.493C170.369 101.6 170.316 101.653 170.209 101.653H169.39C169.283 101.653 169.229 101.6 169.229 101.493V99.967C169.229 99.9242 169.208 99.9027 169.165 99.9027C168.234 99.7743 167.49 99.3942 166.933 98.7626C166.376 98.131 166.098 97.3334 166.098 96.3699V92.0664C166.098 91.3491 166.248 90.7175 166.548 90.1715C166.858 89.6255 167.292 89.2026 167.848 88.9029C168.416 88.5924 169.063 88.4372 169.791 88.4372ZM172.345 92.0182C172.345 91.2474 172.109 90.6265 171.638 90.1554C171.167 89.6737 170.551 89.4328 169.791 89.4328C169.031 89.4328 168.416 89.6737 167.945 90.1554C167.474 90.6265 167.238 91.2474 167.238 92.0182V96.3539C167.238 97.1247 167.474 97.7509 167.945 98.2327C168.416 98.7037 169.031 98.9393 169.791 98.9393C170.551 98.9393 171.167 98.7037 171.638 98.2327C172.109 97.7509 172.345 97.1247 172.345 96.3539V92.0182ZM179.622 99.9349C178.872 99.9349 178.209 99.785 177.63 99.4852C177.052 99.1855 176.603 98.768 176.282 98.2327C175.96 97.6867 175.8 97.0551 175.8 96.3378V88.7263C175.8 88.6192 175.853 88.5657 175.96 88.5657H176.779C176.886 88.5657 176.94 88.6192 176.94 88.7263V96.3699C176.94 97.13 177.186 97.7509 177.679 98.2327C178.171 98.7037 178.819 98.9393 179.622 98.9393C180.425 98.9393 181.072 98.7037 181.565 98.2327C182.057 97.7509 182.303 97.13 182.303 96.3699V88.7263C182.303 88.6192 182.357 88.5657 182.464 88.5657H183.283C183.39 88.5657 183.444 88.6192 183.444 88.7263V96.3378C183.444 97.0551 183.283 97.6867 182.962 98.2327C182.651 98.768 182.207 99.1855 181.629 99.4852C181.051 99.785 180.382 99.9349 179.622 99.9349ZM186.502 99.8064C186.395 99.8064 186.341 99.7529 186.341 99.6458V88.7263C186.341 88.6192 186.395 88.5657 186.502 88.5657H187.321C187.428 88.5657 187.481 88.6192 187.481 88.7263V99.6458C187.481 99.7529 187.428 99.8064 187.321 99.8064H186.502ZM197.048 99.8064C196.952 99.8064 196.888 99.7689 196.856 99.694L194.495 94.716C194.484 94.6838 194.463 94.6678 194.431 94.6678H191.701C191.658 94.6678 191.637 94.6892 191.637 94.732V99.6458C191.637 99.7529 191.583 99.8064 191.476 99.8064H190.657C190.55 99.8064 190.497 99.7529 190.497 99.6458V88.7263C190.497 88.6192 190.55 88.5657 190.657 88.5657H194.816C195.737 88.5657 196.481 88.8547 197.048 89.4328C197.616 90.0002 197.9 90.7442 197.9 91.6649C197.9 92.4143 197.696 93.0513 197.289 93.5758C196.883 94.1004 196.331 94.4376 195.635 94.5875C195.593 94.6089 195.582 94.6357 195.603 94.6678L198.012 99.6137C198.023 99.6351 198.028 99.6619 198.028 99.694C198.028 99.7689 197.985 99.8064 197.9 99.8064H197.048ZM191.701 89.5613C191.658 89.5613 191.637 89.5827 191.637 89.6255V93.6882C191.637 93.7311 191.658 93.7525 191.701 93.7525H194.688C195.309 93.7525 195.812 93.5598 196.197 93.1744C196.583 92.789 196.775 92.2858 196.775 91.6649C196.775 91.044 196.583 90.5408 196.197 90.1554C195.812 89.7593 195.309 89.5613 194.688 89.5613H191.701ZM207.604 89.4007C207.604 89.5077 207.55 89.5613 207.443 89.5613H201.534C201.491 89.5613 201.469 89.5827 201.469 89.6255V93.5919C201.469 93.6347 201.491 93.6561 201.534 93.6561H205.677C205.784 93.6561 205.837 93.7096 205.837 93.8167V94.4911C205.837 94.5982 205.784 94.6517 205.677 94.6517H201.534C201.491 94.6517 201.469 94.6731 201.469 94.716V98.7466C201.469 98.7894 201.491 98.8108 201.534 98.8108H207.443C207.55 98.8108 207.604 98.8643 207.604 98.9714V99.6458C207.604 99.7529 207.55 99.8064 207.443 99.8064H200.49C200.383 99.8064 200.329 99.7529 200.329 99.6458V88.7263C200.329 88.6192 200.383 88.5657 200.49 88.5657H207.443C207.55 88.5657 207.604 88.6192 207.604 88.7263V89.4007ZM210.213 99.8064C210.105 99.8064 210.052 99.7529 210.052 99.6458V88.7263C210.052 88.6192 210.105 88.5657 210.213 88.5657H214.002C215.062 88.5657 215.902 88.844 216.523 89.4007C217.155 89.9574 217.471 90.7121 217.471 91.6649V96.7072C217.471 97.66 217.155 98.4147 216.523 98.9714C215.902 99.5281 215.062 99.8064 214.002 99.8064H210.213ZM211.192 98.7466C211.192 98.7894 211.213 98.8108 211.256 98.8108H214.05C214.746 98.8108 215.298 98.6074 215.704 98.2006C216.122 97.7938 216.331 97.2478 216.331 96.5626V91.8255C216.331 91.1296 216.127 90.5783 215.72 90.1715C215.314 89.7647 214.757 89.5613 214.05 89.5613H211.256C211.213 89.5613 211.192 89.5827 211.192 89.6255V98.7466Z" fill="#454545"/>
<path d="M141.396 48.1592H140.487C140.36 48.1592 140.239 48.2169 140.161 48.3155L134.8 55.0098L132.23 51.7992C132.191 51.7505 132.142 51.7111 132.085 51.6841C132.029 51.657 131.967 51.6429 131.904 51.6428H130.995C130.908 51.6428 130.86 51.7415 130.913 51.8081L134.474 56.2556C134.641 56.4632 134.96 56.4632 135.128 56.2556L141.478 48.3232C141.531 48.2579 141.483 48.1592 141.396 48.1592Z" fill="#454545" stroke="#454545" stroke-width="0.669091"/>
<path d="M141.396 69.5701H140.487C140.36 69.5701 140.239 69.6277 140.161 69.7264L134.8 76.4207L132.23 73.21C132.191 73.1614 132.142 73.122 132.085 73.0949C132.029 73.0679 131.967 73.0538 131.904 73.0537H130.995C130.908 73.0537 130.86 73.1524 130.913 73.219L134.474 77.6665C134.641 77.8741 134.96 77.8741 135.128 77.6665L141.478 69.7341C141.531 69.6688 141.483 69.5701 141.396 69.5701Z" fill="#454545" stroke="#454545" stroke-width="0.669091"/>
<path d="M59.921 72.8123C59.921 74.8999 59.2519 76.6261 57.9137 77.9911C56.6023 79.3293 54.769 80.1322 52.4138 80.3998C52.3067 80.3998 52.2532 80.4533 52.2532 80.5604L52.2934 83.3706C52.2934 83.6382 52.1595 83.772 51.8919 83.772H49.2423C48.9747 83.772 48.8409 83.6382 48.8409 83.3706L48.881 80.5202C48.881 80.4132 48.8275 80.3597 48.7204 80.3597C46.3385 80.0385 44.4784 79.2088 43.1402 77.8706C41.802 76.5057 41.1329 74.7661 41.1329 72.6517V71.4875C41.1329 71.2199 41.2667 71.0861 41.5344 71.0861H44.3044C44.5721 71.0861 44.7059 71.2199 44.7059 71.4875V72.451C44.7059 73.816 45.2679 74.94 46.392 75.8232C47.5161 76.7064 49.0416 77.148 50.9686 77.148C52.7082 77.148 54.0196 76.76 54.9028 75.9838C55.8128 75.2077 56.2678 74.1906 56.2678 72.9328C56.2678 72.1031 56.0403 71.3938 55.5853 70.805C55.1303 70.2162 54.4612 69.681 53.578 69.1992C52.6948 68.6907 51.4102 68.0885 49.7241 67.3927C47.8506 66.6433 46.3786 65.9608 45.3081 65.3453C44.2375 64.7297 43.3409 63.9268 42.6183 62.9365C41.9225 61.9195 41.5745 60.6482 41.5745 59.1227C41.5745 57.0887 42.2035 55.4427 43.4614 54.1848C44.7193 52.9002 46.4321 52.1106 48.6 51.8162C48.707 51.8162 48.7606 51.7627 48.7606 51.6557L48.7204 48.5645C48.7204 48.2968 48.8542 48.163 49.1219 48.163H51.7313C51.999 48.163 52.1328 48.2968 52.1328 48.5645L52.0926 51.6958C52.0926 51.8029 52.1462 51.8698 52.2532 51.8965C54.5549 52.2177 56.3614 53.0741 57.6729 54.4658C59.011 55.8576 59.6801 57.6106 59.6801 59.7249V60.5278C59.6801 60.7954 59.5463 60.9293 59.2787 60.9293H56.4685C56.2009 60.9293 56.067 60.7954 56.067 60.5278V59.9256C56.067 58.5339 55.5451 57.3831 54.5014 56.4731C53.4576 55.5364 51.999 55.068 50.1255 55.068C48.5465 55.068 47.3287 55.416 46.4723 56.1118C45.6158 56.7809 45.1876 57.7578 45.1876 59.0424C45.1876 59.9256 45.4017 60.6482 45.8299 61.2103C46.2849 61.7723 46.9273 62.2808 47.7569 62.7358C48.6134 63.164 49.9114 63.7261 51.651 64.4219C53.471 65.1713 54.9296 65.8672 56.0269 66.5095C57.151 67.125 58.0743 67.9547 58.7969 68.9985C59.5463 70.0155 59.921 71.2868 59.921 72.8123ZM66.0155 52.1776C66.1761 52.0973 66.35 52.0571 66.5374 52.0571H69.7089C69.9765 52.0571 70.1103 52.1909 70.1103 52.4586V79.7575C70.1103 80.0251 69.9765 80.1589 69.7089 80.1589H66.6578C66.3902 80.1589 66.2564 80.0251 66.2564 79.7575V56.1921C66.2564 56.1386 66.2296 56.0984 66.1761 56.0717C66.1493 56.0449 66.1092 56.0449 66.0556 56.0717L61.8404 57.5169C61.7868 57.5437 61.7199 57.557 61.6396 57.557C61.479 57.557 61.3854 57.45 61.3586 57.2359L61.198 54.9476C61.198 54.68 61.2783 54.5194 61.4389 54.4658L66.0155 52.1776ZM88.8139 56.995C89.2154 58.1191 89.4161 59.4171 89.4161 60.8891V73.2539C89.4161 75.4485 88.6533 77.2016 87.1278 78.513C85.6023 79.8244 83.6084 80.4801 81.1461 80.4801C79.5671 80.4801 78.162 80.1857 76.9309 79.5969C75.7265 79.0081 74.7898 78.1918 74.1207 77.148C73.4516 76.0775 73.117 74.8597 73.117 73.4948V72.6919C73.117 72.4242 73.2509 72.2904 73.5185 72.2904H76.5695C76.8372 72.2904 76.971 72.4242 76.971 72.6919V73.0532C76.971 74.2576 77.3591 75.2344 78.1352 75.9838C78.9114 76.7332 79.915 77.1079 81.1461 77.1079C82.4308 77.1079 83.4879 76.7198 84.3176 75.9437C85.1473 75.1675 85.5621 74.1371 85.5621 72.8525V67.7941C85.5621 67.7406 85.5354 67.7005 85.4818 67.6737C85.4551 67.6469 85.4149 67.6603 85.3614 67.7138C84.2106 69.0253 82.5378 69.681 80.3432 69.681C78.7642 69.681 77.3992 69.3598 76.2484 68.7175C75.1243 68.0752 74.2411 67.1384 73.5988 65.9073C72.8494 64.4888 72.4747 62.7893 72.4747 60.8088C72.4747 59.203 72.729 57.7712 73.2375 56.5133C73.853 54.9877 74.8165 53.8235 76.128 53.0206C77.4394 52.1909 79.0184 51.7761 80.8651 51.7761C82.8456 51.7761 84.5184 52.2311 85.8833 53.141C87.2482 54.051 88.2251 55.3357 88.8139 56.995ZM84.9198 64.0205C85.348 63.1373 85.5621 61.9998 85.5621 60.6081C85.5621 59.484 85.3882 58.5339 85.0402 57.7578C84.6923 56.9013 84.1704 56.259 83.4746 55.8308C82.7787 55.3758 81.9357 55.1483 80.9454 55.1483C79.9551 55.1483 79.1121 55.3758 78.4162 55.8308C77.7472 56.259 77.252 56.888 76.9309 57.7176C76.5294 58.5473 76.3287 59.5777 76.3287 60.8088C76.3287 62.147 76.5562 63.2443 77.0112 64.1008C77.8408 65.653 79.1522 66.4292 80.9454 66.4292C82.8456 66.4292 84.1704 65.6263 84.9198 64.0205ZM109.277 69.1591C109.545 69.1591 109.678 69.2929 109.678 69.5605V72.2101C109.678 72.4778 109.545 72.6116 109.277 72.6116H107.551C107.444 72.6116 107.39 72.6651 107.39 72.7722V79.7575C107.39 80.0251 107.256 80.1589 106.989 80.1589H103.938C103.67 80.1589 103.536 80.0251 103.536 79.7575V72.7722C103.536 72.6651 103.483 72.6116 103.376 72.6116H91.1714C90.9038 72.6116 90.77 72.4778 90.77 72.2101V70.0423C90.77 69.9085 90.8101 69.7479 90.8904 69.5605L98.799 52.3381C98.8793 52.1508 99.0265 52.0571 99.2406 52.0571H102.452C102.586 52.0571 102.68 52.1106 102.733 52.2177C102.814 52.298 102.827 52.405 102.773 52.5389L95.2261 68.9584C95.1993 69.0119 95.1993 69.0654 95.2261 69.1189C95.2529 69.1457 95.293 69.1591 95.3465 69.1591H103.376C103.483 69.1591 103.536 69.1056 103.536 68.9985V63.0168C103.536 62.7492 103.67 62.6154 103.938 62.6154H106.989C107.256 62.6154 107.39 62.7492 107.39 63.0168V68.9985C107.39 69.1056 107.444 69.1591 107.551 69.1591H109.277Z" fill="#454545"/>
<path d="M63.8846 94.2463C63.7865 94.2463 63.7508 94.1973 63.7775 94.0991L66.7349 84.9861C66.7617 84.9148 66.8152 84.8791 66.8955 84.8791H67.5646C67.6627 84.8791 67.6984 84.9281 67.6716 85.0263L64.7143 94.1393C64.6875 94.2107 64.634 94.2463 64.5537 94.2463H63.8846ZM76.4591 87.3815C77.1282 87.3815 77.6546 87.5822 78.0382 87.9836C78.4307 88.3851 78.627 88.9338 78.627 89.6296V94.1125C78.627 94.2017 78.5824 94.2463 78.4931 94.2463H77.8241C77.7348 94.2463 77.6902 94.2017 77.6902 94.1125V89.817C77.6902 89.3263 77.5475 88.9382 77.262 88.6527C76.9855 88.3583 76.6197 88.2111 76.1647 88.2111C75.6919 88.2111 75.3083 88.3539 75.0139 88.6394C74.7284 88.9248 74.5857 89.3084 74.5857 89.7902V94.1125C74.5857 94.2017 74.541 94.2463 74.4518 94.2463H73.7694C73.6802 94.2463 73.6355 94.2017 73.6355 94.1125V89.817C73.6355 89.3263 73.4973 88.9382 73.2207 88.6527C72.9442 88.3583 72.5739 88.2111 72.11 88.2111C71.6372 88.2111 71.258 88.3539 70.9726 88.6394C70.696 88.9248 70.5577 89.3084 70.5577 89.7902V94.1125C70.5577 94.2017 70.5131 94.2463 70.4239 94.2463H69.7414C69.6522 94.2463 69.6076 94.2017 69.6076 94.1125V87.609C69.6076 87.5197 69.6522 87.4751 69.7414 87.4751H70.4239C70.5131 87.4751 70.5577 87.5197 70.5577 87.609V88.1442C70.5577 88.1621 70.5622 88.1755 70.5711 88.1844C70.589 88.1844 70.6068 88.1755 70.6246 88.1576C70.8209 87.8989 71.0707 87.7071 71.374 87.5822C71.6863 87.4484 72.0297 87.3815 72.4044 87.3815C72.8683 87.3815 73.2653 87.4751 73.5954 87.6625C73.9255 87.8498 74.1753 88.1219 74.3448 88.4788C74.3626 88.5234 74.3849 88.5234 74.4117 88.4788C74.608 88.113 74.8845 87.8409 75.2414 87.6625C75.5982 87.4751 76.0041 87.3815 76.4591 87.3815ZM83.1676 94.3534C82.5253 94.3534 81.9721 94.1884 81.5082 93.8583C81.0443 93.5282 80.7232 93.0732 80.5447 92.4933C80.4198 92.0829 80.3574 91.5343 80.3574 90.8474C80.3574 90.1604 80.4198 89.6162 80.5447 89.2148C80.7142 88.6438 81.031 88.1933 81.4949 87.8632C81.9588 87.5331 82.5208 87.3681 83.181 87.3681C83.8144 87.3681 84.3586 87.5331 84.8135 87.8632C85.2774 88.1933 85.5942 88.6394 85.7637 89.2014C85.8886 89.585 85.951 90.1337 85.951 90.8474C85.951 91.57 85.8886 92.1186 85.7637 92.4933C85.5942 93.0732 85.2774 93.5282 84.8135 93.8583C84.3586 94.1884 83.8099 94.3534 83.1676 94.3534ZM83.1676 93.5237C83.5958 93.5237 83.9616 93.4077 84.2649 93.1758C84.5682 92.9349 84.7734 92.6138 84.8805 92.2123C84.9607 91.8911 85.0009 91.4406 85.0009 90.8607C85.0009 90.2719 84.9652 89.8214 84.8938 89.5092C84.7868 89.1077 84.5771 88.791 84.2649 88.5591C83.9616 88.3182 83.5913 88.1978 83.1542 88.1978C82.7171 88.1978 82.3468 88.3182 82.0435 88.5591C81.7402 88.791 81.535 89.1077 81.4279 89.5092C81.3566 89.8214 81.3209 90.2719 81.3209 90.8607C81.3209 91.4495 81.3566 91.9001 81.4279 92.2123C81.5261 92.6138 81.7268 92.9349 82.0301 93.1758C82.3424 93.4077 82.7215 93.5237 83.1676 93.5237ZM90.6871 87.3815C91.4008 87.3815 91.9673 87.5911 92.3866 88.0104C92.8148 88.4297 93.0289 88.9917 93.0289 89.6965V94.1125C93.0289 94.2017 92.9843 94.2463 92.8951 94.2463H92.2126C92.1234 94.2463 92.0788 94.2017 92.0788 94.1125V89.8839C92.0788 89.3932 91.9272 88.9917 91.6238 88.6795C91.3294 88.3673 90.9458 88.2111 90.473 88.2111C89.9823 88.2111 89.5853 88.3628 89.282 88.6661C88.9787 88.9694 88.827 89.3664 88.827 89.8571V94.1125C88.827 94.2017 88.7824 94.2463 88.6932 94.2463H88.0108C87.9215 94.2463 87.8769 94.2017 87.8769 94.1125V87.609C87.8769 87.5197 87.9215 87.4751 88.0108 87.4751H88.6932C88.7824 87.4751 88.827 87.5197 88.827 87.609V88.1844C88.827 88.2022 88.8315 88.2156 88.8404 88.2245C88.8583 88.2334 88.8716 88.229 88.8806 88.2111C89.2731 87.658 89.8753 87.3815 90.6871 87.3815ZM98.1282 88.1308C98.1282 88.2201 98.0836 88.2647 97.9944 88.2647H96.4823C96.4466 88.2647 96.4288 88.2825 96.4288 88.3182V92.2658C96.4288 92.694 96.5224 92.9974 96.7098 93.1758C96.906 93.3453 97.2094 93.43 97.6197 93.43H97.9543C98.0435 93.43 98.0881 93.4747 98.0881 93.5639V94.1125C98.0881 94.2017 98.0435 94.2463 97.9543 94.2463C97.8472 94.2553 97.6822 94.2597 97.4592 94.2597C96.8168 94.2597 96.3306 94.1393 96.0005 93.8984C95.6704 93.6575 95.5054 93.2115 95.5054 92.5602V88.3182C95.5054 88.2825 95.4876 88.2647 95.4519 88.2647H94.6356C94.5464 88.2647 94.5018 88.2201 94.5018 88.1308V87.609C94.5018 87.5197 94.5464 87.4751 94.6356 87.4751H95.4519C95.4876 87.4751 95.5054 87.4573 95.5054 87.4216V85.8693C95.5054 85.7801 95.55 85.7355 95.6392 85.7355H96.2949C96.3841 85.7355 96.4288 85.7801 96.4288 85.8693V87.4216C96.4288 87.4573 96.4466 87.4751 96.4823 87.4751H97.9944C98.0836 87.4751 98.1282 87.5197 98.1282 87.609V88.1308ZM102.775 87.3815C103.489 87.3815 104.055 87.5911 104.475 88.0104C104.903 88.4297 105.117 88.9917 105.117 89.6965V94.1125C105.117 94.2017 105.072 94.2463 104.983 94.2463H104.301C104.211 94.2463 104.167 94.2017 104.167 94.1125V89.8839C104.167 89.3932 104.015 88.9917 103.712 88.6795C103.418 88.3673 103.034 88.2111 102.561 88.2111C102.07 88.2111 101.673 88.3628 101.37 88.6661C101.067 88.9694 100.915 89.3664 100.915 89.8571V94.1125C100.915 94.2017 100.871 94.2463 100.781 94.2463H100.099C100.01 94.2463 99.965 94.2017 99.965 94.1125V85.0129C99.965 84.9237 100.01 84.8791 100.099 84.8791H100.781C100.871 84.8791 100.915 84.9237 100.915 85.0129V88.1844C100.915 88.2022 100.92 88.2156 100.928 88.2245C100.946 88.2334 100.96 88.229 100.969 88.2111C101.361 87.658 101.963 87.3815 102.775 87.3815Z" fill="#454545"/>
<defs>
<filter id="filter0_d" x="0.411152" y="0.308369" width="327.855" height="137.833" filterUnits="userSpaceOnUse" color-interpolation-filters="sRGB">
<feFlood flood-opacity="0" result="BackgroundImageFix"/>
<feColorMatrix in="SourceAlpha" type="matrix" values="0 0 0 0 0 0 0 0 0 0 0 0 0 0 0 0 0 0 127 0"/>
<feOffset/>
<feGaussianBlur stdDeviation="6.69091"/>
<feColorMatrix type="matrix" values="0 0 0 0 0 0 0 0 0 0 0 0 0 0 0 0 0 0 0.1 0"/>
<feBlend mode="normal" in2="BackgroundImageFix" result="effect1_dropShadow"/>
<feBlend mode="normal" in="SourceGraphic" in2="effect1_dropShadow" result="shape"/>
</filter>
</defs>
</svg>
